%!PS-Adobe-3.0 EPSF-3.0
%%Creator: cairo 1.14.2 (http://cairographics.org)
%%CreationDate: Wed May  2 08:31:25 2018
%%Pages: 1
%%DocumentData: Clean7Bit
%%LanguageLevel: 2
%%BoundingBox: 0 53 344 290
%%EndComments
%%BeginProlog
save
50 dict begin
/q { gsave } bind def
/Q { grestore } bind def
/cm { 6 array astore concat } bind def
/w { setlinewidth } bind def
/J { setlinecap } bind def
/j { setlinejoin } bind def
/M { setmiterlimit } bind def
/d { setdash } bind def
/m { moveto } bind def
/l { lineto } bind def
/c { curveto } bind def
/h { closepath } bind def
/re { exch dup neg 3 1 roll 5 3 roll moveto 0 rlineto
      0 exch rlineto 0 rlineto closepath } bind def
/S { stroke } bind def
/f { fill } bind def
/f* { eofill } bind def
/n { newpath } bind def
/W { clip } bind def
/W* { eoclip } bind def
/BT { } bind def
/ET { } bind def
/pdfmark where { pop globaldict /?pdfmark /exec load put }
    { globaldict begin /?pdfmark /pop load def /pdfmark
    /cleartomark load def end } ifelse
/BDC { mark 3 1 roll /BDC pdfmark } bind def
/EMC { mark /EMC pdfmark } bind def
/cairo_store_point { /cairo_point_y exch def /cairo_point_x exch def } def
/Tj { show currentpoint cairo_store_point } bind def
/TJ {
  {
    dup
    type /stringtype eq
    { show } { -0.001 mul 0 cairo_font_matrix dtransform rmoveto } ifelse
  } forall
  currentpoint cairo_store_point
} bind def
/cairo_selectfont { cairo_font_matrix aload pop pop pop 0 0 6 array astore
    cairo_font exch selectfont cairo_point_x cairo_point_y moveto } bind def
/Tf { pop /cairo_font exch def /cairo_font_matrix where
      { pop cairo_selectfont } if } bind def
/Td { matrix translate cairo_font_matrix matrix concatmatrix dup
      /cairo_font_matrix exch def dup 4 get exch 5 get cairo_store_point
      /cairo_font where { pop cairo_selectfont } if } bind def
/Tm { 2 copy 8 2 roll 6 array astore /cairo_font_matrix exch def
      cairo_store_point /cairo_font where { pop cairo_selectfont } if } bind def
/g { setgray } bind def
/rg { setrgbcolor } bind def
/d1 { setcachedevice } bind def
%%EndProlog
%%BeginSetup
%%EndSetup
%%Page: 1 1
%%BeginPageSetup
%%PageBoundingBox: 0 53 344 290
%%EndPageSetup
q 0 53 344 237 rectclip q
0 0.937255 0.819608 rg
343.168 166.449 m 343.168 109.625 l 343.168 102.707 337.562 97.098 330.645
 97.098 c 311.457 97.098 l 310.977 96.961 l 305.77 114.691 287.176 124.84
 269.449 119.629 c 258.434 116.395 249.848 107.738 246.703 96.699 c 245.434
 97.098 l 220.672 97.098 l 220.672 189.617 l 308.414 189.617 l 335.574 177.961
 l 340.184 175.992 343.172 171.461 343.168 166.449 c h
343.168 166.449 m f
0.831373 0.882353 0.956863 rg
310.977 96.961 m 316.184 79.234 306.035 60.641 288.309 55.434 c 270.582
 50.227 251.988 60.375 246.781 78.102 c 241.574 95.828 251.723 114.422 269.449
 119.629 c 272.512 120.531 275.688 120.988 278.879 120.988 c 293.738 121.027
 306.824 111.227 310.977 96.961 c h
310.977 96.961 m f
286.312 232.516 m 308.414 189.617 l 220.672 189.617 l 220.672 246.09 l 
264.039 246.09 l 273.418 246.086 282.012 240.848 286.312 232.516 c h
286.312 232.516 m f
0 0.807843 0.705882 rg
220.672 158.777 m 220.672 97.098 l 90.977 97.098 l 90.32 96.906 l 85.145
 114.641 66.57 124.824 48.832 119.645 c 37.93 116.461 29.383 107.961 26.145
 97.074 c 26.062 97.098 l 12.527 97.098 l 5.609 97.098 0 102.707 0 109.625
 c 0 158.777 l h
220.672 158.777 m f
0 0.67451 0.917647 rg
220.672 189.617 m 220.672 158.777 l 0 158.777 l 0 264.035 l 0 277.875 11.219
 289.094 25.055 289.098 c 195.617 289.098 l 209.457 289.094 220.672 277.875
 220.672 264.035 c h
220.672 189.617 m f
0.831373 0.882353 0.956863 rg
90.32 96.906 m 95.496 79.172 85.316 60.598 67.578 55.422 c 49.844 50.242
 31.27 60.426 26.094 78.16 c 20.918 95.895 31.098 114.469 48.836 119.645
 c 51.879 120.535 55.035 120.988 58.207 120.988 c 73.098 121.063 86.223 
111.223 90.32 96.906 c h
90.32 96.906 m f
Q Q
showpage
%%Trailer
end restore
%%EOF
