%!PS-Adobe-3.0 EPSF-3.0
%%Creator: cairo 1.14.2 (http://cairographics.org)
%%CreationDate: Wed May  2 08:31:25 2018
%%Pages: 1
%%DocumentData: Clean7Bit
%%LanguageLevel: 2
%%BoundingBox: 0 66 387 320
%%EndComments
%%BeginProlog
save
50 dict begin
/q { gsave } bind def
/Q { grestore } bind def
/cm { 6 array astore concat } bind def
/w { setlinewidth } bind def
/J { setlinecap } bind def
/j { setlinejoin } bind def
/M { setmiterlimit } bind def
/d { setdash } bind def
/m { moveto } bind def
/l { lineto } bind def
/c { curveto } bind def
/h { closepath } bind def
/re { exch dup neg 3 1 roll 5 3 roll moveto 0 rlineto
      0 exch rlineto 0 rlineto closepath } bind def
/S { stroke } bind def
/f { fill } bind def
/f* { eofill } bind def
/n { newpath } bind def
/W { clip } bind def
/W* { eoclip } bind def
/BT { } bind def
/ET { } bind def
/pdfmark where { pop globaldict /?pdfmark /exec load put }
    { globaldict begin /?pdfmark /pop load def /pdfmark
    /cleartomark load def end } ifelse
/BDC { mark 3 1 roll /BDC pdfmark } bind def
/EMC { mark /EMC pdfmark } bind def
/cairo_store_point { /cairo_point_y exch def /cairo_point_x exch def } def
/Tj { show currentpoint cairo_store_point } bind def
/TJ {
  {
    dup
    type /stringtype eq
    { show } { -0.001 mul 0 cairo_font_matrix dtransform rmoveto } ifelse
  } forall
  currentpoint cairo_store_point
} bind def
/cairo_selectfont { cairo_font_matrix aload pop pop pop 0 0 6 array astore
    cairo_font exch selectfont cairo_point_x cairo_point_y moveto } bind def
/Tf { pop /cairo_font exch def /cairo_font_matrix where
      { pop cairo_selectfont } if } bind def
/Td { matrix translate cairo_font_matrix matrix concatmatrix dup
      /cairo_font_matrix exch def dup 4 get exch 5 get cairo_store_point
      /cairo_font where { pop cairo_selectfont } if } bind def
/Tm { 2 copy 8 2 roll 6 array astore /cairo_font_matrix exch def
      cairo_store_point /cairo_font where { pop cairo_selectfont } if } bind def
/g { setgray } bind def
/rg { setrgbcolor } bind def
/d1 { setcachedevice } bind def
%%EndProlog
%%BeginSetup
%%EndSetup
%%Page: 1 1
%%BeginPageSetup
%%PageBoundingBox: 0 66 387 320
%%EndPageSetup
q 0 66 387 254 rectclip q
0 0.937255 0.819608 rg
386.785 178.831 m 386.785 118.21 l 386.781 111.331 381.203 105.757 374.328
 105.761 c 355.703 105.761 l 352.75 123.878 335.664 136.171 317.543 133.218
 c 303.441 130.917 292.391 119.862 290.09 105.761 c 265.055 105.761 l 265.055
 201.846 l 352.246 201.846 l 379.238 190.272 l 383.812 188.307 386.781 183.811
 386.785 178.831 c h
386.785 178.831 m f
0.831373 0.882353 0.956863 rg
290.09 105.761 m 293.043 123.878 310.129 136.171 328.246 133.218 c 342.348
 130.917 353.402 119.862 355.703 105.761 c 355.992 103.995 356.137 102.206
 356.137 100.417 c 356.137 82.057 341.254 67.175 322.895 67.175 c 304.539
 67.175 289.656 82.057 289.656 100.417 c 289.652 102.206 289.797 103.995
 290.09 105.761 c h
290.09 105.761 m f
326.809 251.225 m 352.246 201.846 l 265.055 201.846 l 265.055 245.518 l
 265.059 252.393 270.629 257.964 277.504 257.968 c 315.734 257.968 l 320.398
 257.968 324.668 255.366 326.809 251.225 c h
326.809 251.225 m f
0 0.807843 0.705882 rg
265.055 172.526 m 265.055 105.761 l 119.824 105.761 l 116.867 123.882 99.781
 136.171 81.66 133.214 c 67.512 130.905 56.434 119.784 54.184 105.624 c 
53.352 105.761 l 31.574 105.761 l 24.703 105.761 19.129 111.335 19.129 118.21
 c 19.129 160.081 l 19.129 166.952 24.703 172.526 31.574 172.526 c h
265.055 172.526 m f
221.297 255.128 m 221.297 241.296 l 221.301 232.257 213.973 224.925 204.934
 224.921 c 197.742 224.921 l 197.805 225.554 197.836 226.194 197.832 226.831
 c 197.828 239.042 187.926 248.932 175.719 248.929 c 163.52 248.921 153.629
 239.034 153.625 226.831 c 153.621 226.202 153.652 225.573 153.711 224.944
 c 153.352 224.921 l 72.695 224.921 l 72.336 224.944 l 72.398 225.573 72.426
 226.202 72.426 226.831 c 72.422 239.042 62.523 248.936 50.316 248.932 c
 38.113 248.932 28.219 239.038 28.215 226.831 c 28.215 226.225 28.238 225.624
 28.297 225.022 c 26.848 224.921 l 18.391 224.921 l 9.348 224.921 2.016 
232.253 2.016 241.296 c 2.016 257.081 l 2.016 263.503 5.77 269.331 11.617
 271.991 c 32.031 281.272 l 49.633 309.37 l 53.625 315.741 60.617 319.608
 68.137 319.608 c 131.352 319.608 l 138.164 319.604 144.582 316.425 148.711
 311.007 c 171.359 281.272 l 209.238 270.921 l 216.359 268.975 221.297 262.507
 221.297 255.128 c h
221.297 255.128 m f
0.831373 0.882353 0.956863 rg
197.742 224.921 m 196.691 212.761 185.977 203.761 173.82 204.815 c 163.113
 205.741 154.629 214.237 153.711 224.944 c 153.652 225.573 153.621 226.202
 153.625 226.831 c 153.629 239.042 163.527 248.932 175.738 248.929 c 187.938
 248.921 197.828 239.034 197.832 226.831 c 197.836 226.194 197.805 225.554
 197.742 224.921 c h
197.742 224.921 m f
119.824 105.761 m 120.113 103.995 120.258 102.206 120.258 100.417 c 120.254
 82.065 105.375 67.19 87.023 67.19 c 68.672 67.19 53.797 82.069 53.797 100.421
 c 53.801 118.776 68.68 133.651 87.031 133.647 c 103.32 133.647 117.207 
121.839 119.824 105.761 c h
119.824 105.761 m f
72.426 226.831 m 72.426 226.202 72.398 225.573 72.336 224.944 c 71.297 
212.784 60.598 203.768 48.438 204.807 c 37.691 205.725 29.176 214.272 28.297
 225.022 c 28.238 225.624 28.215 226.225 28.215 226.831 c 28.219 239.042
 38.113 248.936 50.324 248.932 c 62.527 248.932 72.422 239.038 72.426 226.831
 c h
72.426 226.831 m f
0 0.67451 0.917647 rg
244 184.593 m 8 184.593 l 3.582 184.593 0 188.175 0 192.593 c 0 197.011
 3.582 200.593 8 200.593 c 236 200.593 l 236 226.19 l 236 230.612 239.582
 234.19 244 234.19 c 248.418 234.19 252 230.612 252 226.19 c 252 192.593
 l 252 188.175 248.418 184.593 244 184.593 c h
244 184.593 m f
Q Q
showpage
%%Trailer
end restore
%%EOF
