%!PS-Adobe-3.0 EPSF-3.0
%%Creator: cairo 1.14.2 (http://cairographics.org)
%%CreationDate: Wed May  2 08:31:25 2018
%%Pages: 1
%%DocumentData: Clean7Bit
%%LanguageLevel: 2
%%BoundingBox: 0 -1 359 359
%%EndComments
%%BeginProlog
save
50 dict begin
/q { gsave } bind def
/Q { grestore } bind def
/cm { 6 array astore concat } bind def
/w { setlinewidth } bind def
/J { setlinecap } bind def
/j { setlinejoin } bind def
/M { setmiterlimit } bind def
/d { setdash } bind def
/m { moveto } bind def
/l { lineto } bind def
/c { curveto } bind def
/h { closepath } bind def
/re { exch dup neg 3 1 roll 5 3 roll moveto 0 rlineto
      0 exch rlineto 0 rlineto closepath } bind def
/S { stroke } bind def
/f { fill } bind def
/f* { eofill } bind def
/n { newpath } bind def
/W { clip } bind def
/W* { eoclip } bind def
/BT { } bind def
/ET { } bind def
/pdfmark where { pop globaldict /?pdfmark /exec load put }
    { globaldict begin /?pdfmark /pop load def /pdfmark
    /cleartomark load def end } ifelse
/BDC { mark 3 1 roll /BDC pdfmark } bind def
/EMC { mark /EMC pdfmark } bind def
/cairo_store_point { /cairo_point_y exch def /cairo_point_x exch def } def
/Tj { show currentpoint cairo_store_point } bind def
/TJ {
  {
    dup
    type /stringtype eq
    { show } { -0.001 mul 0 cairo_font_matrix dtransform rmoveto } ifelse
  } forall
  currentpoint cairo_store_point
} bind def
/cairo_selectfont { cairo_font_matrix aload pop pop pop 0 0 6 array astore
    cairo_font exch selectfont cairo_point_x cairo_point_y moveto } bind def
/Tf { pop /cairo_font exch def /cairo_font_matrix where
      { pop cairo_selectfont } if } bind def
/Td { matrix translate cairo_font_matrix matrix concatmatrix dup
      /cairo_font_matrix exch def dup 4 get exch 5 get cairo_store_point
      /cairo_font where { pop cairo_selectfont } if } bind def
/Tm { 2 copy 8 2 roll 6 array astore /cairo_font_matrix exch def
      cairo_store_point /cairo_font where { pop cairo_selectfont } if } bind def
/g { setgray } bind def
/rg { setrgbcolor } bind def
/d1 { setcachedevice } bind def
%%EndProlog
%%BeginSetup
%%EndSetup
%%Page: 1 1
%%BeginPageSetup
%%PageBoundingBox: 0 -1 359 359
%%EndPageSetup
q 0 -1 359 360 rectclip q
0 0.67451 0.917647 rg
327.602 200.24 m 329.602 186.318 329.602 172.08 327.602 158.162 c 326.32
 158.318 l 219.121 158.318 l 218.719 158.56 l 225.359 171.361 225.441 186.56
 218.879 199.439 c 220.801 199.92 l 325.602 199.92 l h
327.602 200.24 m f
202.879 323.92 m 201.602 216.799 l 199.359 217.201 l 185.922 224.08 169.922
 225.279 156.879 217.76 c 156.879 218.799 l 156.32 324.002 l 156.078 325.599
 l 171.68 328.08 187.52 328.002 203.039 325.439 c h
202.879 323.92 m f
139.121 199.92 m 139.602 199.681 l 132.879 186.799 132.879 171.439 139.602
 158.56 c 139.121 158.318 l 35.359 158.318 l 33.359 172.08 33.359 186.162
 35.359 199.92 c h
139.121 199.92 m f
0 0.937255 0.819608 rg
35.359 158.318 m 46.879 78.002 121.281 22.24 201.602 33.681 c 281.922 45.201
 337.68 119.599 326.238 199.92 c 314.801 280.24 240.32 336.002 160 324.56
 c 87.68 314.162 33.922 252.24 33.922 179.119 c 33.922 172.162 34.398 165.201
 35.359 158.318 c h
179.121 358.24 m 278.078 358.24 358.238 278.002 358.238 179.119 c 358.238
 80.24 278.078 0.002 179.121 0.002 c 80.16 0.002 0 80.162 0 179.119 c 0 
278.08 80.16 358.24 179.121 358.24 c h
179.121 358.24 m f
218.801 199.439 m 230 177.521 221.281 150.638 199.359 139.439 c 177.441
 128.24 150.559 136.959 139.359 158.881 c 128.16 180.799 136.879 207.681
 158.801 218.881 c 171.52 225.361 186.641 225.361 199.359 218.881 c 207.762
 214.56 214.559 207.76 218.801 199.439 c h
218.801 199.439 m f
Q Q
showpage
%%Trailer
end restore
%%EOF
