%!PS-Adobe-3.0 EPSF-3.0
%%Creator: cairo 1.14.2 (http://cairographics.org)
%%CreationDate: Wed May  2 08:31:25 2018
%%Pages: 1
%%DocumentData: Clean7Bit
%%LanguageLevel: 2
%%BoundingBox: 0 -1 359 359
%%EndComments
%%BeginProlog
save
50 dict begin
/q { gsave } bind def
/Q { grestore } bind def
/cm { 6 array astore concat } bind def
/w { setlinewidth } bind def
/J { setlinecap } bind def
/j { setlinejoin } bind def
/M { setmiterlimit } bind def
/d { setdash } bind def
/m { moveto } bind def
/l { lineto } bind def
/c { curveto } bind def
/h { closepath } bind def
/re { exch dup neg 3 1 roll 5 3 roll moveto 0 rlineto
      0 exch rlineto 0 rlineto closepath } bind def
/S { stroke } bind def
/f { fill } bind def
/f* { eofill } bind def
/n { newpath } bind def
/W { clip } bind def
/W* { eoclip } bind def
/BT { } bind def
/ET { } bind def
/pdfmark where { pop globaldict /?pdfmark /exec load put }
    { globaldict begin /?pdfmark /pop load def /pdfmark
    /cleartomark load def end } ifelse
/BDC { mark 3 1 roll /BDC pdfmark } bind def
/EMC { mark /EMC pdfmark } bind def
/cairo_store_point { /cairo_point_y exch def /cairo_point_x exch def } def
/Tj { show currentpoint cairo_store_point } bind def
/TJ {
  {
    dup
    type /stringtype eq
    { show } { -0.001 mul 0 cairo_font_matrix dtransform rmoveto } ifelse
  } forall
  currentpoint cairo_store_point
} bind def
/cairo_selectfont { cairo_font_matrix aload pop pop pop 0 0 6 array astore
    cairo_font exch selectfont cairo_point_x cairo_point_y moveto } bind def
/Tf { pop /cairo_font exch def /cairo_font_matrix where
      { pop cairo_selectfont } if } bind def
/Td { matrix translate cairo_font_matrix matrix concatmatrix dup
      /cairo_font_matrix exch def dup 4 get exch 5 get cairo_store_point
      /cairo_font where { pop cairo_selectfont } if } bind def
/Tm { 2 copy 8 2 roll 6 array astore /cairo_font_matrix exch def
      cairo_store_point /cairo_font where { pop cairo_selectfont } if } bind def
/g { setgray } bind def
/rg { setrgbcolor } bind def
/d1 { setcachedevice } bind def
%%EndProlog
%%BeginSetup
%%EndSetup
%%Page: 1 1
%%BeginPageSetup
%%PageBoundingBox: 0 -1 359 359
%%EndPageSetup
q 0 -1 359 360 rectclip q
0 0.67451 0.917647 rg
317.527 196.409 m 318.938 184.949 318.938 173.359 317.527 161.898 c 317.52
 161.898 l 315.992 162.081 l 234.137 162.081 l 234.137 196.226 l 315.992
 196.226 l 317.52 196.409 l h
317.527 196.409 m f
0 0.937255 0.819608 rg
179.152 358.304 m 278.098 358.304 358.305 278.097 358.305 179.152 c 358.305
 80.206 278.098 -0.001 179.152 -0.001 c 80.207 -0.001 0 80.206 0 179.152
 c 0 278.097 80.207 358.304 179.152 358.304 c h
318.586 179.152 m 318.586 184.921 318.23 190.683 317.527 196.409 c 317.52
 196.409 l 307.988 272.824 238.32 327.042 161.902 317.511 c 85.488 307.98
 31.27 238.312 40.801 161.898 c 50.332 85.48 120 31.261 196.414 40.792 c
 259.742 48.691 309.621 98.57 317.52 161.898 c 317.527 161.898 l 318.23 
167.62 318.586 173.382 318.586 179.152 c h
318.586 179.152 m f
234.137 162.081 m 234.137 153.031 l 234.137 143.808 226.656 136.327 217.434
 136.327 c 140.871 136.327 l 131.648 136.327 124.168 143.808 124.168 153.031
 c 124.168 205.273 l 124.168 214.495 131.648 221.976 140.871 221.976 c 217.434
 221.976 l 226.656 221.976 234.137 214.495 234.137 205.273 c h
234.137 162.081 m f
0 0.67451 0.917647 rg
124.168 196.226 m 124.168 162.081 l 43.113 162.081 l 40.793 161.808 l 39.363
 173.327 39.363 184.976 40.793 196.495 c 43.113 196.226 l h
124.168 196.226 m f
Q Q
showpage
%%Trailer
end restore
%%EOF
