%!PS-Adobe-3.0 EPSF-3.0
%%Creator: cairo 1.14.2 (http://cairographics.org)
%%CreationDate: Wed May  2 08:31:25 2018
%%Pages: 1
%%DocumentData: Clean7Bit
%%LanguageLevel: 2
%%BoundingBox: 0 -1 353 353
%%EndComments
%%BeginProlog
save
50 dict begin
/q { gsave } bind def
/Q { grestore } bind def
/cm { 6 array astore concat } bind def
/w { setlinewidth } bind def
/J { setlinecap } bind def
/j { setlinejoin } bind def
/M { setmiterlimit } bind def
/d { setdash } bind def
/m { moveto } bind def
/l { lineto } bind def
/c { curveto } bind def
/h { closepath } bind def
/re { exch dup neg 3 1 roll 5 3 roll moveto 0 rlineto
      0 exch rlineto 0 rlineto closepath } bind def
/S { stroke } bind def
/f { fill } bind def
/f* { eofill } bind def
/n { newpath } bind def
/W { clip } bind def
/W* { eoclip } bind def
/BT { } bind def
/ET { } bind def
/pdfmark where { pop globaldict /?pdfmark /exec load put }
    { globaldict begin /?pdfmark /pop load def /pdfmark
    /cleartomark load def end } ifelse
/BDC { mark 3 1 roll /BDC pdfmark } bind def
/EMC { mark /EMC pdfmark } bind def
/cairo_store_point { /cairo_point_y exch def /cairo_point_x exch def } def
/Tj { show currentpoint cairo_store_point } bind def
/TJ {
  {
    dup
    type /stringtype eq
    { show } { -0.001 mul 0 cairo_font_matrix dtransform rmoveto } ifelse
  } forall
  currentpoint cairo_store_point
} bind def
/cairo_selectfont { cairo_font_matrix aload pop pop pop 0 0 6 array astore
    cairo_font exch selectfont cairo_point_x cairo_point_y moveto } bind def
/Tf { pop /cairo_font exch def /cairo_font_matrix where
      { pop cairo_selectfont } if } bind def
/Td { matrix translate cairo_font_matrix matrix concatmatrix dup
      /cairo_font_matrix exch def dup 4 get exch 5 get cairo_store_point
      /cairo_font where { pop cairo_selectfont } if } bind def
/Tm { 2 copy 8 2 roll 6 array astore /cairo_font_matrix exch def
      cairo_store_point /cairo_font where { pop cairo_selectfont } if } bind def
/g { setgray } bind def
/rg { setrgbcolor } bind def
/d1 { setcachedevice } bind def
%%EndProlog
%%BeginSetup
%%EndSetup
%%Page: 1 1
%%BeginPageSetup
%%PageBoundingBox: 0 -1 353 353
%%EndPageSetup
q 0 -1 353 354 rectclip q
0 0.937255 0.819608 rg
193.953 176.456 m 193.953 186.12 186.117 193.952 176.457 193.952 c 166.793
 193.952 158.961 186.12 158.961 176.456 c 158.961 166.796 166.793 158.96
 176.457 158.96 c 186.117 158.96 193.953 166.792 193.953 176.452 c h
352.91 176.456 m 352.973 131.143 335.543 87.553 304.246 54.776 c 303.391
 55.585 l 272.168 93.526 225.594 115.487 176.457 115.44 c 126.09 115.44 
80.199 92.003 50.023 56.346 c 48.719 54.714 l 17.395 87.495 -0.062 131.112
 0 176.456 c 0 273.913 79 352.913 176.457 352.913 c 273.91 352.913 352.91
 273.913 352.91 176.456 c h
352.91 176.456 m f
0 0.67451 0.917647 rg
303.391 55.585 m 304.246 54.776 l 237.043 -15.802 125.348 -18.536 54.766
 48.671 c 52.703 50.635 50.688 52.651 48.719 54.714 c 50.023 56.346 l 80.199
 92.003 126.09 115.44 176.457 115.44 c 225.594 115.487 272.168 93.526 303.391
 55.585 c h
303.391 55.585 m f
193.953 176.456 m 193.953 166.796 186.117 158.96 176.457 158.96 c 166.793
 158.96 158.961 166.796 158.961 176.456 c 158.961 186.12 166.793 193.952
 176.457 193.952 c 186.117 193.952 193.953 186.12 193.953 176.456 c h
193.953 176.456 m f
176.457 255.233 m 172.039 255.233 168.457 258.815 168.457 263.233 c 168.457
 311.401 l 168.457 315.819 172.039 319.401 176.457 319.401 c 180.875 319.401
 184.457 315.819 184.457 311.401 c 184.457 263.233 l 184.457 258.815 180.875
 255.233 176.457 255.233 c h
176.457 255.233 m f
311.398 168.456 m 263.23 168.456 l 258.812 168.456 255.23 172.038 255.23
 176.456 c 255.23 180.874 258.812 184.456 263.23 184.456 c 311.398 184.456
 l 315.82 184.456 319.398 180.874 319.398 176.456 c 319.398 172.038 315.82
 168.456 311.398 168.456 c h
311.398 168.456 m f
89.68 168.456 m 41.512 168.456 l 37.094 168.456 33.512 172.038 33.512 176.456
 c 33.512 180.874 37.094 184.456 41.512 184.456 c 89.68 184.456 l 94.098
 184.456 97.68 180.874 97.68 176.456 c 97.68 172.038 94.098 168.456 89.68
 168.456 c h
89.68 168.456 m f
115.297 229.616 m 113.172 229.616 111.137 230.456 109.641 231.96 c 75.23
 266.37 l 72.121 269.507 72.145 274.573 75.281 277.682 c 78.398 280.772 
83.426 280.772 86.543 277.682 c 120.953 243.272 l 124.078 240.151 124.078
 235.085 120.953 231.96 c 119.453 230.46 117.418 229.616 115.297 229.616
 c h
115.297 229.616 m f
0.831373 0.882353 0.956863 rg
277.68 277.682 m 274.559 280.807 269.492 280.807 266.367 277.682 c 187.91
 199.225 l 175.32 205.565 159.977 200.499 153.637 187.909 c 147.301 175.323
 152.363 159.979 164.953 153.639 c 177.539 147.3 192.887 152.366 199.223
 164.952 c 202.859 172.175 202.859 180.69 199.223 187.909 c 277.68 266.37
 l 280.805 269.491 280.805 274.557 277.68 277.682 c h
176.457 166.96 m 171.211 166.96 166.961 171.214 166.961 176.456 c 166.961
 181.702 171.211 185.952 176.457 185.952 c 181.699 185.952 185.953 181.702
 185.953 176.456 c 185.945 171.214 181.699 166.967 176.457 166.96 c h
176.457 166.96 m f
Q Q
showpage
%%Trailer
end restore
%%EOF
