%!PS-Adobe-3.0 EPSF-3.0
%%Creator: cairo 1.14.2 (http://cairographics.org)
%%CreationDate: Wed May  2 08:31:25 2018
%%Pages: 1
%%DocumentData: Clean7Bit
%%LanguageLevel: 2
%%BoundingBox: 11 -1 298 309
%%EndComments
%%BeginProlog
save
50 dict begin
/q { gsave } bind def
/Q { grestore } bind def
/cm { 6 array astore concat } bind def
/w { setlinewidth } bind def
/J { setlinecap } bind def
/j { setlinejoin } bind def
/M { setmiterlimit } bind def
/d { setdash } bind def
/m { moveto } bind def
/l { lineto } bind def
/c { curveto } bind def
/h { closepath } bind def
/re { exch dup neg 3 1 roll 5 3 roll moveto 0 rlineto
      0 exch rlineto 0 rlineto closepath } bind def
/S { stroke } bind def
/f { fill } bind def
/f* { eofill } bind def
/n { newpath } bind def
/W { clip } bind def
/W* { eoclip } bind def
/BT { } bind def
/ET { } bind def
/pdfmark where { pop globaldict /?pdfmark /exec load put }
    { globaldict begin /?pdfmark /pop load def /pdfmark
    /cleartomark load def end } ifelse
/BDC { mark 3 1 roll /BDC pdfmark } bind def
/EMC { mark /EMC pdfmark } bind def
/cairo_store_point { /cairo_point_y exch def /cairo_point_x exch def } def
/Tj { show currentpoint cairo_store_point } bind def
/TJ {
  {
    dup
    type /stringtype eq
    { show } { -0.001 mul 0 cairo_font_matrix dtransform rmoveto } ifelse
  } forall
  currentpoint cairo_store_point
} bind def
/cairo_selectfont { cairo_font_matrix aload pop pop pop 0 0 6 array astore
    cairo_font exch selectfont cairo_point_x cairo_point_y moveto } bind def
/Tf { pop /cairo_font exch def /cairo_font_matrix where
      { pop cairo_selectfont } if } bind def
/Td { matrix translate cairo_font_matrix matrix concatmatrix dup
      /cairo_font_matrix exch def dup 4 get exch 5 get cairo_store_point
      /cairo_font where { pop cairo_selectfont } if } bind def
/Tm { 2 copy 8 2 roll 6 array astore /cairo_font_matrix exch def
      cairo_store_point /cairo_font where { pop cairo_selectfont } if } bind def
/g { setgray } bind def
/rg { setrgbcolor } bind def
/d1 { setcachedevice } bind def
%%EndProlog
%%BeginSetup
%%EndSetup
%%Page: 1 1
%%BeginPageSetup
%%PageBoundingBox: 11 -1 298 309
%%EndPageSetup
q 11 -1 287 310 rectclip q
0 0.67451 0.917647 rg
297.152 278.777 m 226.719 217.144 l 226.719 278.777 l h
297.152 278.777 m f
297.152 186.328 m 226.719 124.695 l 226.719 186.328 l h
297.152 186.328 m f
297.152 93.879 m 226.719 32.25 l 226.719 93.879 l h
297.152 93.879 m f
0 0.937255 0.819608 rg
226.719 32.25 m 226.719 26.418 l 226.719 11.828 214.895 -0 200.305 -0 c
 107.855 -0 l 93.266 -0 81.441 11.828 81.441 26.418 c 81.441 281.746 l 81.441
 296.332 93.266 308.16 107.855 308.16 c 200.305 308.16 l 214.895 308.16 
226.719 296.332 226.719 281.746 c h
226.719 32.25 m f
0 0.67451 0.917647 rg
81.441 93.879 m 81.441 32.25 l 11.008 93.879 l h
81.441 93.879 m f
81.441 186.328 m 81.441 124.695 l 11.008 186.328 l h
81.441 186.328 m f
81.441 278.777 m 81.441 217.144 l 11.008 278.777 l h
81.441 278.777 m f
0.831373 0.882353 0.956863 rg
186.328 250.93 m 186.328 233.117 171.891 218.68 154.078 218.68 c 136.27
 218.68 121.832 233.117 121.832 250.93 c 121.832 268.738 136.27 283.176 
154.078 283.176 c 171.891 283.176 186.328 268.738 186.328 250.93 c h
186.328 250.93 m f
186.328 154.082 m 186.328 136.269 171.891 121.832 154.078 121.832 c 136.27
 121.832 121.832 136.269 121.832 154.082 c 121.832 171.89 136.27 186.328
 154.078 186.328 c 171.891 186.328 186.328 171.89 186.328 154.082 c h
186.328 154.082 m f
186.328 57.23 m 186.328 39.422 171.891 24.984 154.078 24.984 c 136.27 24.984
 121.832 39.422 121.832 57.23 c 121.832 75.043 136.27 89.48 154.078 89.48
 c 171.891 89.48 186.328 75.043 186.328 57.23 c h
186.328 57.23 m f
Q Q
showpage
%%Trailer
end restore
%%EOF
