%!PS-Adobe-3.0 EPSF-3.0
%%Creator: cairo 1.14.2 (http://cairographics.org)
%%CreationDate: Wed May  2 08:31:25 2018
%%Pages: 1
%%DocumentData: Clean7Bit
%%LanguageLevel: 2
%%BoundingBox: 0 6 298 291
%%EndComments
%%BeginProlog
save
50 dict begin
/q { gsave } bind def
/Q { grestore } bind def
/cm { 6 array astore concat } bind def
/w { setlinewidth } bind def
/J { setlinecap } bind def
/j { setlinejoin } bind def
/M { setmiterlimit } bind def
/d { setdash } bind def
/m { moveto } bind def
/l { lineto } bind def
/c { curveto } bind def
/h { closepath } bind def
/re { exch dup neg 3 1 roll 5 3 roll moveto 0 rlineto
      0 exch rlineto 0 rlineto closepath } bind def
/S { stroke } bind def
/f { fill } bind def
/f* { eofill } bind def
/n { newpath } bind def
/W { clip } bind def
/W* { eoclip } bind def
/BT { } bind def
/ET { } bind def
/pdfmark where { pop globaldict /?pdfmark /exec load put }
    { globaldict begin /?pdfmark /pop load def /pdfmark
    /cleartomark load def end } ifelse
/BDC { mark 3 1 roll /BDC pdfmark } bind def
/EMC { mark /EMC pdfmark } bind def
/cairo_store_point { /cairo_point_y exch def /cairo_point_x exch def } def
/Tj { show currentpoint cairo_store_point } bind def
/TJ {
  {
    dup
    type /stringtype eq
    { show } { -0.001 mul 0 cairo_font_matrix dtransform rmoveto } ifelse
  } forall
  currentpoint cairo_store_point
} bind def
/cairo_selectfont { cairo_font_matrix aload pop pop pop 0 0 6 array astore
    cairo_font exch selectfont cairo_point_x cairo_point_y moveto } bind def
/Tf { pop /cairo_font exch def /cairo_font_matrix where
      { pop cairo_selectfont } if } bind def
/Td { matrix translate cairo_font_matrix matrix concatmatrix dup
      /cairo_font_matrix exch def dup 4 get exch 5 get cairo_store_point
      /cairo_font where { pop cairo_selectfont } if } bind def
/Tm { 2 copy 8 2 roll 6 array astore /cairo_font_matrix exch def
      cairo_store_point /cairo_font where { pop cairo_selectfont } if } bind def
/g { setgray } bind def
/rg { setrgbcolor } bind def
/d1 { setcachedevice } bind def
%%EndProlog
%%BeginSetup
%%EndSetup
%%Page: 1 1
%%BeginPageSetup
%%PageBoundingBox: 0 6 298 291
%%EndPageSetup
q 0 6 298 285 rectclip q
0 0.67451 0.917647 rg
297.344 161.602 m 297.344 131.098 l 275.008 128.91 l 272.812 119.02 268.844
 109.606 263.297 101.129 c 277.727 83.696 l 256.207 62.184 l 238.777 76.617
 l 230.324 71.02 220.906 67.047 211 64.903 c 208.816 42.297 l 175.871 42.297
 l 175.871 106.559 l 176.871 106.559 l 198.848 96.473 224.836 106.11 234.926
 128.082 c 245.012 150.059 235.375 176.051 213.402 186.137 c 201.508 191.598
 187.797 191.449 176.023 185.739 c 175.871 185.739 l 175.871 250.399 l 208.816
 250.399 l 211 227.793 l 220.891 225.594 230.301 221.625 238.777 216.078
 c 256.207 230.512 l 277.457 208.992 l 263.023 191.559 l 268.621 183.11 
272.594 173.684 274.734 163.778 c h
297.344 161.602 m f
0 0.937255 0.819608 rg
175.871 106.559 m 175.871 89.344 l 103.992 89.344 l 103.449 89.391 l 103.527
 90.336 103.566 91.297 103.566 92.266 c 103.566 110.946 88.426 126.086 69.742
 126.086 c 51.062 126.086 35.922 110.946 35.922 92.266 c 35.922 91.281 35.961
 90.305 36.047 89.344 c 25.055 89.344 l 11.219 89.344 0 100.563 0 114.399
 c 0 135.567 l 0 146.864 7.559 156.766 18.457 159.742 c 76.426 175.574 l
 111.078 221.086 l 117.402 229.387 127.234 234.254 137.664 234.254 c 175.871
 234.254 l h
175.871 106.559 m f
0.831373 0.882353 0.956863 rg
36.047 89.344 m 35.961 90.305 35.922 91.281 35.922 92.266 c 35.922 110.946
 51.062 126.086 69.742 126.086 c 88.426 126.086 103.566 110.946 103.566 
92.266 c 103.566 91.297 103.527 90.336 103.449 89.391 c 101.863 70.778 85.488
 56.973 66.875 58.559 c 50.48 59.953 37.469 72.949 36.047 89.344 c h
36.047 89.344 m f
0 0.807843 0.705882 rg
175.871 7.071 m 171.453 7.071 167.871 10.653 167.871 15.071 c 167.871 282.274
 l 167.871 286.692 171.453 290.274 175.871 290.274 c 180.289 290.274 183.871
 286.692 183.871 282.274 c 183.871 15.071 l 183.871 10.653 180.289 7.071
 175.871 7.071 c h
175.871 7.071 m f
Q Q
showpage
%%Trailer
end restore
%%EOF
