%!PS-Adobe-3.0 EPSF-3.0
%%Creator: cairo 1.14.2 (http://cairographics.org)
%%CreationDate: Wed May  2 08:31:25 2018
%%Pages: 1
%%DocumentData: Clean7Bit
%%LanguageLevel: 2
%%BoundingBox: 48 -1 321 369
%%EndComments
%%BeginProlog
save
50 dict begin
/q { gsave } bind def
/Q { grestore } bind def
/cm { 6 array astore concat } bind def
/w { setlinewidth } bind def
/J { setlinecap } bind def
/j { setlinejoin } bind def
/M { setmiterlimit } bind def
/d { setdash } bind def
/m { moveto } bind def
/l { lineto } bind def
/c { curveto } bind def
/h { closepath } bind def
/re { exch dup neg 3 1 roll 5 3 roll moveto 0 rlineto
      0 exch rlineto 0 rlineto closepath } bind def
/S { stroke } bind def
/f { fill } bind def
/f* { eofill } bind def
/n { newpath } bind def
/W { clip } bind def
/W* { eoclip } bind def
/BT { } bind def
/ET { } bind def
/pdfmark where { pop globaldict /?pdfmark /exec load put }
    { globaldict begin /?pdfmark /pop load def /pdfmark
    /cleartomark load def end } ifelse
/BDC { mark 3 1 roll /BDC pdfmark } bind def
/EMC { mark /EMC pdfmark } bind def
/cairo_store_point { /cairo_point_y exch def /cairo_point_x exch def } def
/Tj { show currentpoint cairo_store_point } bind def
/TJ {
  {
    dup
    type /stringtype eq
    { show } { -0.001 mul 0 cairo_font_matrix dtransform rmoveto } ifelse
  } forall
  currentpoint cairo_store_point
} bind def
/cairo_selectfont { cairo_font_matrix aload pop pop pop 0 0 6 array astore
    cairo_font exch selectfont cairo_point_x cairo_point_y moveto } bind def
/Tf { pop /cairo_font exch def /cairo_font_matrix where
      { pop cairo_selectfont } if } bind def
/Td { matrix translate cairo_font_matrix matrix concatmatrix dup
      /cairo_font_matrix exch def dup 4 get exch 5 get cairo_store_point
      /cairo_font where { pop cairo_selectfont } if } bind def
/Tm { 2 copy 8 2 roll 6 array astore /cairo_font_matrix exch def
      cairo_store_point /cairo_font where { pop cairo_selectfont } if } bind def
/g { setgray } bind def
/rg { setrgbcolor } bind def
/d1 { setcachedevice } bind def
%%EndProlog
%%BeginSetup
%%EndSetup
%%Page: 1 1
%%BeginPageSetup
%%PageBoundingBox: 48 -1 321 369
%%EndPageSetup
q 48 -1 273 370 rectclip q
0.831373 0.882353 0.956863 rg
320.52 289.408 m 320.52 25.057 l 320.52 11.217 309.301 0.002 295.465 -0.002
 c 73.289 -0.002 l 59.449 0.002 48.234 11.217 48.23 25.057 c 48.23 289.408
 l 48.238 303.244 59.453 314.459 73.289 314.463 c 118.391 314.463 l 118.391
 287.318 l 249.945 287.318 l 249.945 314.463 l 295.465 314.463 l 309.301
 314.459 320.516 303.244 320.52 289.408 c h
320.52 289.408 m f
0 0.67451 0.917647 rg
249.945 314.463 m 249.945 287.318 l 118.391 287.318 l 118.391 326.99 l 
118.395 336.217 125.871 343.693 135.098 343.697 c 153.055 343.697 l 156.398
 357.897 168.504 368.752 183.961 368.752 c 198.906 368.811 211.828 358.334
 214.863 343.697 c 233.238 343.697 l 242.465 343.693 249.941 336.217 249.945
 326.99 c h
249.945 314.463 m f
241.238 76.15 m 191.551 76.15 l 187.133 76.15 183.551 79.732 183.551 84.15
 c 183.551 88.572 187.133 92.15 191.551 92.15 c 241.238 92.15 l 245.66 92.15
 249.238 88.572 249.238 84.15 c 249.238 79.732 245.66 76.15 241.238 76.15
 c h
241.238 76.15 m f
274.648 42.744 m 191.551 42.744 l 187.133 42.744 183.551 46.326 183.551
 50.744 c 183.551 55.162 187.133 58.744 191.551 58.744 c 274.648 58.744 
l 279.066 58.744 282.648 55.162 282.648 50.744 c 282.648 46.326 279.066 
42.744 274.648 42.744 c h
274.648 42.744 m f
271.711 165.4 m 271.711 141.303 l 271.715 134.479 266.18 128.947 259.355
 128.943 c 249.055 128.943 l 242.23 128.943 236.699 134.475 236.695 141.299
 c 236.695 153.041 l 259.352 153.041 l 266.176 153.041 271.711 158.576 271.711
 165.4 c h
271.711 165.4 m f
0 0.937255 0.819608 rg
271.711 168.486 m 271.711 165.4 l 271.711 158.576 266.176 153.041 259.352
 153.041 c 109.398 153.041 l 102.574 153.041 97.043 158.576 97.039 165.4
 c 97.039 196.158 l 97.039 201.604 99.43 206.775 103.586 210.295 c 110.633
 216.279 l 260.594 216.279 l 260.594 216.072 l 265.902 211.057 l 269.609
 207.553 271.711 202.678 271.711 197.576 c h
249.406 172.607 m 249.406 192.799 l 224.129 192.799 l 224.129 172.607 l
 h
144.625 172.607 m 144.625 192.799 l 119.344 192.799 l 119.344 172.607 l
 h
144.625 172.607 m f
0 0.67451 0.917647 rg
247.398 248.44 m 261.207 216.279 l 233.273 216.279 l 233.281 227.639 224.078
 236.854 212.719 236.861 c 201.359 236.873 192.145 227.67 192.137 216.311
 c 192.137 216.279 l 110.016 216.279 l 123.824 248.44 l 125.82 253.084 130.387
 256.092 135.441 256.096 c 235.785 256.096 l 240.836 256.092 245.406 253.084
 247.398 248.44 c h
247.398 248.44 m f
132.055 152.842 m 132.055 141.303 l 132.059 134.479 126.527 128.947 119.699
 128.943 c 109.398 128.943 l 102.574 128.943 97.043 134.475 97.039 141.299
 c 97.039 165.4 l 97.043 158.576 102.574 153.041 109.398 153.041 c 132.055
 153.041 l h
132.055 152.842 m f
0 0.937255 0.819608 rg
241.273 216.279 m 225.273 216.279 l 225.273 223.221 219.645 228.85 212.703
 228.85 c 205.762 228.85 200.137 223.221 200.137 216.279 c 184.137 216.279
 l 184.137 232.057 196.926 244.85 212.703 244.85 c 228.48 244.85 241.273
 232.057 241.273 216.279 c h
241.273 216.279 m f
0 0.67451 0.917647 rg
199.047 172.326 m 169.703 172.326 l 165.285 172.326 161.703 175.908 161.703
 180.326 c 161.703 184.748 165.285 188.326 169.703 188.326 c 199.047 188.326
 l 203.465 188.326 207.047 184.748 207.047 180.326 c 207.047 175.908 203.465
 172.326 199.047 172.326 c h
199.047 172.326 m f
0.231373 0.709804 0.290196 rg
94.105 100.744 68.957 -66.602 re f
0.831373 0.882353 0.956863 rg
125.797 50.881 m 123.988 50.877 122.234 51.49 120.82 52.619 c 111.395 60.115
 l 107.922 62.846 107.32 67.877 110.055 71.35 c 112.785 74.822 117.812 75.424
 121.285 72.693 c 121.355 72.639 l 124.809 69.893 l 134.777 81.275 l 137.688
 84.6 142.738 84.94 146.066 82.029 c 149.391 79.119 149.727 74.065 146.816
 70.74 c 131.824 53.611 l 130.305 51.873 128.105 50.877 125.797 50.881 c
 h
125.797 50.881 m f
Q Q
showpage
%%Trailer
end restore
%%EOF
