%!PS-Adobe-3.0 EPSF-3.0
%%Creator: cairo 1.14.2 (http://cairographics.org)
%%CreationDate: Wed May  2 08:31:25 2018
%%Pages: 1
%%DocumentData: Clean7Bit
%%LanguageLevel: 2
%%BoundingBox: 48 -1 321 369
%%EndComments
%%BeginProlog
save
50 dict begin
/q { gsave } bind def
/Q { grestore } bind def
/cm { 6 array astore concat } bind def
/w { setlinewidth } bind def
/J { setlinecap } bind def
/j { setlinejoin } bind def
/M { setmiterlimit } bind def
/d { setdash } bind def
/m { moveto } bind def
/l { lineto } bind def
/c { curveto } bind def
/h { closepath } bind def
/re { exch dup neg 3 1 roll 5 3 roll moveto 0 rlineto
      0 exch rlineto 0 rlineto closepath } bind def
/S { stroke } bind def
/f { fill } bind def
/f* { eofill } bind def
/n { newpath } bind def
/W { clip } bind def
/W* { eoclip } bind def
/BT { } bind def
/ET { } bind def
/pdfmark where { pop globaldict /?pdfmark /exec load put }
    { globaldict begin /?pdfmark /pop load def /pdfmark
    /cleartomark load def end } ifelse
/BDC { mark 3 1 roll /BDC pdfmark } bind def
/EMC { mark /EMC pdfmark } bind def
/cairo_store_point { /cairo_point_y exch def /cairo_point_x exch def } def
/Tj { show currentpoint cairo_store_point } bind def
/TJ {
  {
    dup
    type /stringtype eq
    { show } { -0.001 mul 0 cairo_font_matrix dtransform rmoveto } ifelse
  } forall
  currentpoint cairo_store_point
} bind def
/cairo_selectfont { cairo_font_matrix aload pop pop pop 0 0 6 array astore
    cairo_font exch selectfont cairo_point_x cairo_point_y moveto } bind def
/Tf { pop /cairo_font exch def /cairo_font_matrix where
      { pop cairo_selectfont } if } bind def
/Td { matrix translate cairo_font_matrix matrix concatmatrix dup
      /cairo_font_matrix exch def dup 4 get exch 5 get cairo_store_point
      /cairo_font where { pop cairo_selectfont } if } bind def
/Tm { 2 copy 8 2 roll 6 array astore /cairo_font_matrix exch def
      cairo_store_point /cairo_font where { pop cairo_selectfont } if } bind def
/g { setgray } bind def
/rg { setrgbcolor } bind def
/d1 { setcachedevice } bind def
%%EndProlog
%%BeginSetup
%%EndSetup
%%Page: 1 1
%%BeginPageSetup
%%PageBoundingBox: 48 -1 321 369
%%EndPageSetup
q 48 -1 273 370 rectclip q
0.831373 0.882353 0.956863 rg
320.52 289.408 m 320.52 25.057 l 320.52 11.217 309.301 0.002 295.465 -0.002
 c 73.289 -0.002 l 59.449 0.002 48.234 11.217 48.23 25.057 c 48.23 289.408
 l 48.238 303.244 59.453 314.459 73.289 314.463 c 118.391 314.463 l 118.391
 287.318 l 249.945 287.318 l 249.945 314.463 l 295.465 314.463 l 309.301
 314.459 320.516 303.244 320.52 289.408 c h
320.52 289.408 m f
0 0.67451 0.917647 rg
249.945 314.463 m 249.945 287.318 l 118.391 287.318 l 118.391 326.99 l 
118.395 336.217 125.871 343.693 135.098 343.697 c 153.055 343.697 l 156.398
 357.897 168.504 368.752 183.961 368.752 c 198.906 368.811 211.828 358.334
 214.863 343.697 c 233.238 343.697 l 242.465 343.693 249.941 336.217 249.945
 326.99 c h
249.945 314.463 m f
241.238 76.15 m 191.551 76.15 l 187.133 76.15 183.551 79.732 183.551 84.15
 c 183.551 88.572 187.133 92.15 191.551 92.15 c 241.238 92.15 l 245.66 92.15
 249.238 88.572 249.238 84.15 c 249.238 79.732 245.66 76.15 241.238 76.15
 c h
241.238 76.15 m f
274.648 42.744 m 191.551 42.744 l 187.133 42.744 183.551 46.326 183.551
 50.744 c 183.551 55.162 187.133 58.744 191.551 58.744 c 274.648 58.744 
l 279.066 58.744 282.648 55.162 282.648 50.744 c 282.648 46.326 279.066 
42.744 274.648 42.744 c h
274.648 42.744 m f
268.344 152.99 m 268.344 152.377 268.32 151.775 268.266 151.178 c 267.266
 138.94 256.535 129.826 244.297 130.822 c 233.477 131.705 224.871 140.275
 223.953 151.096 c 223.891 151.725 223.859 152.357 223.863 152.99 c 223.863
 165.275 233.82 175.232 246.102 175.232 c 258.387 175.232 268.344 165.275
 268.344 152.99 c h
268.344 152.99 m f
0 0.937255 0.819608 rg
223.586 151.072 m 142.414 151.072 l 142.055 151.096 l 142.117 151.725 142.148
 152.357 142.145 152.99 c 142.145 165.275 132.184 175.236 119.898 175.236
 c 107.613 175.236 97.656 165.275 97.656 152.99 c 97.652 152.35 97.684 151.709
 97.742 151.072 c 90.52 151.072 l 81.422 151.072 74.047 158.447 74.047 167.545
 c 74.047 181.463 l 74.047 188.889 79.012 195.4 86.176 197.361 c 124.297
 207.775 l 147.09 237.697 l 151.242 243.15 157.703 246.354 164.559 246.354
 c 228.176 246.354 l 235.742 246.354 242.777 242.463 246.793 236.049 c 264.504
 207.775 l 285.047 198.432 l 290.93 195.76 294.707 189.893 294.703 183.432
 c 294.703 167.545 l 294.703 158.447 287.328 151.072 278.23 151.072 c 269.719
 151.072 l 268.266 151.178 l 268.32 151.775 268.344 152.377 268.344 152.99
 c 268.344 165.275 258.387 175.232 246.105 175.232 c 233.82 175.232 223.863
 165.275 223.863 152.99 c 223.859 152.357 223.891 151.725 223.953 151.096
 c h
223.586 151.072 m f
0 0.67451 0.917647 rg
97.742 151.072 m 97.684 151.709 97.652 152.35 97.656 152.99 c 97.656 165.275
 107.613 175.236 119.898 175.236 c 132.184 175.236 142.145 165.275 142.145
 152.99 c 142.148 152.357 142.117 151.725 142.055 151.096 c 140.996 138.857
 130.219 129.799 117.98 130.857 c 107.223 131.791 98.688 140.315 97.742 
151.072 c h
97.742 151.072 m f
0.231373 0.709804 0.290196 rg
94.105 100.744 68.957 -66.602 re f
0.831373 0.882353 0.956863 rg
125.797 50.881 m 123.988 50.877 122.234 51.49 120.82 52.619 c 111.395 60.115
 l 107.922 62.846 107.32 67.877 110.055 71.35 c 112.785 74.822 117.812 75.424
 121.285 72.693 c 121.355 72.639 l 124.809 69.893 l 134.777 81.275 l 137.711
 84.576 142.77 84.873 146.07 81.936 c 149.332 79.033 149.664 74.049 146.816
 70.74 c 131.824 53.611 l 130.305 51.873 128.105 50.877 125.797 50.881 c
 h
125.797 50.881 m f
Q Q
showpage
%%Trailer
end restore
%%EOF
