%!PS-Adobe-3.0 EPSF-3.0
%%Creator: cairo 1.14.2 (http://cairographics.org)
%%CreationDate: Wed May  2 08:31:25 2018
%%Pages: 1
%%DocumentData: Clean7Bit
%%LanguageLevel: 2
%%BoundingBox: 46 -1 278 324
%%EndComments
%%BeginProlog
save
50 dict begin
/q { gsave } bind def
/Q { grestore } bind def
/cm { 6 array astore concat } bind def
/w { setlinewidth } bind def
/J { setlinecap } bind def
/j { setlinejoin } bind def
/M { setmiterlimit } bind def
/d { setdash } bind def
/m { moveto } bind def
/l { lineto } bind def
/c { curveto } bind def
/h { closepath } bind def
/re { exch dup neg 3 1 roll 5 3 roll moveto 0 rlineto
      0 exch rlineto 0 rlineto closepath } bind def
/S { stroke } bind def
/f { fill } bind def
/f* { eofill } bind def
/n { newpath } bind def
/W { clip } bind def
/W* { eoclip } bind def
/BT { } bind def
/ET { } bind def
/pdfmark where { pop globaldict /?pdfmark /exec load put }
    { globaldict begin /?pdfmark /pop load def /pdfmark
    /cleartomark load def end } ifelse
/BDC { mark 3 1 roll /BDC pdfmark } bind def
/EMC { mark /EMC pdfmark } bind def
/cairo_store_point { /cairo_point_y exch def /cairo_point_x exch def } def
/Tj { show currentpoint cairo_store_point } bind def
/TJ {
  {
    dup
    type /stringtype eq
    { show } { -0.001 mul 0 cairo_font_matrix dtransform rmoveto } ifelse
  } forall
  currentpoint cairo_store_point
} bind def
/cairo_selectfont { cairo_font_matrix aload pop pop pop 0 0 6 array astore
    cairo_font exch selectfont cairo_point_x cairo_point_y moveto } bind def
/Tf { pop /cairo_font exch def /cairo_font_matrix where
      { pop cairo_selectfont } if } bind def
/Td { matrix translate cairo_font_matrix matrix concatmatrix dup
      /cairo_font_matrix exch def dup 4 get exch 5 get cairo_store_point
      /cairo_font where { pop cairo_selectfont } if } bind def
/Tm { 2 copy 8 2 roll 6 array astore /cairo_font_matrix exch def
      cairo_store_point /cairo_font where { pop cairo_selectfont } if } bind def
/g { setgray } bind def
/rg { setrgbcolor } bind def
/d1 { setcachedevice } bind def
%%EndProlog
%%BeginSetup
%%EndSetup
%%Page: 1 1
%%BeginPageSetup
%%PageBoundingBox: 46 -1 278 324
%%EndPageSetup
q 46 -1 232 325 rectclip q
0 0.67451 0.917647 rg
277.543 55.663 m 249.801 57.975 l 249.633 57.76 l 243.57 49.788 243.637
 38.737 249.793 30.839 c 249.801 30.831 l 277.383 32.975 l 272.488 13.385
 257.305 3.753 239.352 3.753 c 222.863 3.592 208.664 14.53 202.625 27.424
 c 122.625 27.424 l 117.398 10.12 102.383 -0.001 84.426 -0.001 c 66.465 
-0.001 51.289 9.96 46.23 27.424 c 73.977 25.12 l 74.145 25.327 l 80.203 
33.303 80.137 44.354 73.984 52.256 c 73.977 52.256 l 46.391 50.112 l 50.961
 70.034 66.145 79.655 84.105 79.655 c 100.426 79.655 114.793 68.889 120.992
 55.823 c 201.312 55.823 l 206.535 73.128 221.559 83.249 239.512 83.249 
c 257.305 83.089 272.488 73.128 277.543 55.663 c h
277.543 55.663 m f
0 0.937255 0.819608 rg
259.801 120.135 m 63.977 120.135 l 65.137 153.577 66.863 157.616 68.887
 161.37 c 71.234 166.038 74.145 170.405 77.551 174.37 c 92.863 192.846 118.281
 199.784 142.246 191.983 c 155.031 187.944 168.746 187.944 181.527 191.983
 c 205.793 199.784 230.91 192.846 246.223 174.37 c 249.574 170.256 252.477
 165.803 254.887 161.081 c 256.91 157.327 258.641 153.28 259.801 120.135
 c h
259.801 120.135 m f
215.32 270.342 m 215.32 240.835 191.398 216.913 161.887 216.913 c 132.379
 216.913 108.457 240.835 108.457 270.342 c 108.457 299.854 132.379 323.776
 161.887 323.776 c 191.398 323.776 215.32 299.854 215.32 270.342 c h
215.32 270.342 m f
Q Q
showpage
%%Trailer
end restore
%%EOF
