%!PS-Adobe-3.0 EPSF-3.0
%%Creator: cairo 1.14.2 (http://cairographics.org)
%%CreationDate: Wed May  2 08:31:25 2018
%%Pages: 1
%%DocumentData: Clean7Bit
%%LanguageLevel: 2
%%BoundingBox: 101 -1 282 384
%%EndComments
%%BeginProlog
save
50 dict begin
/q { gsave } bind def
/Q { grestore } bind def
/cm { 6 array astore concat } bind def
/w { setlinewidth } bind def
/J { setlinecap } bind def
/j { setlinejoin } bind def
/M { setmiterlimit } bind def
/d { setdash } bind def
/m { moveto } bind def
/l { lineto } bind def
/c { curveto } bind def
/h { closepath } bind def
/re { exch dup neg 3 1 roll 5 3 roll moveto 0 rlineto
      0 exch rlineto 0 rlineto closepath } bind def
/S { stroke } bind def
/f { fill } bind def
/f* { eofill } bind def
/n { newpath } bind def
/W { clip } bind def
/W* { eoclip } bind def
/BT { } bind def
/ET { } bind def
/pdfmark where { pop globaldict /?pdfmark /exec load put }
    { globaldict begin /?pdfmark /pop load def /pdfmark
    /cleartomark load def end } ifelse
/BDC { mark 3 1 roll /BDC pdfmark } bind def
/EMC { mark /EMC pdfmark } bind def
/cairo_store_point { /cairo_point_y exch def /cairo_point_x exch def } def
/Tj { show currentpoint cairo_store_point } bind def
/TJ {
  {
    dup
    type /stringtype eq
    { show } { -0.001 mul 0 cairo_font_matrix dtransform rmoveto } ifelse
  } forall
  currentpoint cairo_store_point
} bind def
/cairo_selectfont { cairo_font_matrix aload pop pop pop 0 0 6 array astore
    cairo_font exch selectfont cairo_point_x cairo_point_y moveto } bind def
/Tf { pop /cairo_font exch def /cairo_font_matrix where
      { pop cairo_selectfont } if } bind def
/Td { matrix translate cairo_font_matrix matrix concatmatrix dup
      /cairo_font_matrix exch def dup 4 get exch 5 get cairo_store_point
      /cairo_font where { pop cairo_selectfont } if } bind def
/Tm { 2 copy 8 2 roll 6 array astore /cairo_font_matrix exch def
      cairo_store_point /cairo_font where { pop cairo_selectfont } if } bind def
/g { setgray } bind def
/rg { setrgbcolor } bind def
/d1 { setcachedevice } bind def
%%EndProlog
%%BeginSetup
%%EndSetup
%%Page: 1 1
%%BeginPageSetup
%%PageBoundingBox: 101 -1 282 384
%%EndPageSetup
q 101 -1 181 385 rectclip q
0 0.937255 0.819608 rg
238.633 342.01 m 213.145 312.979 l 238.633 285.362 l 213.145 265.338 l 
213.145 243.58 l 221.641 226.588 l 221.641 172.381 l 202.383 179.1 181.414
 179.1 162.152 172.381 c 162.152 362.545 l 191.898 383.795 l h
238.633 342.01 m f
0 0.67451 0.917647 rg
221.641 174.78 m 268.5 158.354 293.172 107.049 276.742 60.19 c 260.316 
13.33 209.012 -11.342 162.152 5.088 c 115.293 21.514 90.625 72.819 107.051
 119.678 c 116.09 145.463 136.367 165.741 162.152 174.78 c 181.402 181.565
 202.395 181.565 221.641 174.78 c h
211.418 57.573 m 222.195 68.354 222.191 85.826 211.41 96.604 c 200.629 
107.381 183.152 107.377 172.379 96.596 c 161.605 85.819 161.605 68.35 172.379
 57.569 c 183.156 46.791 200.637 46.787 211.414 57.569 c 211.418 57.569 
211.418 57.569 211.418 57.573 c h
211.418 57.573 m f
Q Q
showpage
%%Trailer
end restore
%%EOF
