%!PS-Adobe-3.0 EPSF-3.0
%%Creator: cairo 1.14.2 (http://cairographics.org)
%%CreationDate: Wed May  2 08:31:25 2018
%%Pages: 1
%%DocumentData: Clean7Bit
%%LanguageLevel: 2
%%BoundingBox: 0 2 355 352
%%EndComments
%%BeginProlog
save
50 dict begin
/q { gsave } bind def
/Q { grestore } bind def
/cm { 6 array astore concat } bind def
/w { setlinewidth } bind def
/J { setlinecap } bind def
/j { setlinejoin } bind def
/M { setmiterlimit } bind def
/d { setdash } bind def
/m { moveto } bind def
/l { lineto } bind def
/c { curveto } bind def
/h { closepath } bind def
/re { exch dup neg 3 1 roll 5 3 roll moveto 0 rlineto
      0 exch rlineto 0 rlineto closepath } bind def
/S { stroke } bind def
/f { fill } bind def
/f* { eofill } bind def
/n { newpath } bind def
/W { clip } bind def
/W* { eoclip } bind def
/BT { } bind def
/ET { } bind def
/pdfmark where { pop globaldict /?pdfmark /exec load put }
    { globaldict begin /?pdfmark /pop load def /pdfmark
    /cleartomark load def end } ifelse
/BDC { mark 3 1 roll /BDC pdfmark } bind def
/EMC { mark /EMC pdfmark } bind def
/cairo_store_point { /cairo_point_y exch def /cairo_point_x exch def } def
/Tj { show currentpoint cairo_store_point } bind def
/TJ {
  {
    dup
    type /stringtype eq
    { show } { -0.001 mul 0 cairo_font_matrix dtransform rmoveto } ifelse
  } forall
  currentpoint cairo_store_point
} bind def
/cairo_selectfont { cairo_font_matrix aload pop pop pop 0 0 6 array astore
    cairo_font exch selectfont cairo_point_x cairo_point_y moveto } bind def
/Tf { pop /cairo_font exch def /cairo_font_matrix where
      { pop cairo_selectfont } if } bind def
/Td { matrix translate cairo_font_matrix matrix concatmatrix dup
      /cairo_font_matrix exch def dup 4 get exch 5 get cairo_store_point
      /cairo_font where { pop cairo_selectfont } if } bind def
/Tm { 2 copy 8 2 roll 6 array astore /cairo_font_matrix exch def
      cairo_store_point /cairo_font where { pop cairo_selectfont } if } bind def
/g { setgray } bind def
/rg { setrgbcolor } bind def
/d1 { setcachedevice } bind def
%%EndProlog
%%BeginSetup
%%EndSetup
%%Page: 1 1
%%BeginPageSetup
%%PageBoundingBox: 0 2 355 352
%%EndPageSetup
q 0 2 355 350 rectclip q
0 0.67451 0.917647 rg
21.848 351.16 311.121 -91.832 re f
0.831373 0.882353 0.956863 rg
301.449 57.839 m 301.449 23.609 l 301.445 13.914 293.59 6.058 283.895 6.054
 c 269.266 6.054 l 259.57 6.058 251.715 13.914 251.711 23.609 c 251.711 
40.281 l 283.895 40.281 l 293.59 40.285 301.445 48.144 301.449 57.839 c 
h
301.449 57.839 m f
266.91 173.613 m 264.094 180.234 257.613 184.554 250.414 184.609 c 107.91
 184.609 l 100.715 184.554 94.234 180.234 91.414 173.613 c 71.801 127.808
 l 286.527 127.808 l h
266.91 173.613 m f
103.105 39.992 m 103.105 23.609 l 103.102 13.914 95.246 6.058 85.551 6.054
 c 70.922 6.054 l 61.227 6.058 53.371 13.914 53.367 23.609 c 53.367 57.839
 l 53.367 48.144 61.227 40.285 70.922 40.281 c 103.105 40.281 l h
103.105 39.992 m f
329.77 351.16 25.047 -347.504 re f
25.047 259.328 m 25.047 3.656 l 0 3.656 l 0 351.16 l 25.047 351.16 l h
25.047 259.328 m f
0 0.67451 0.917647 rg
268.488 127.695 m 252.488 127.695 l 252.48 141.211 241.52 152.164 228.004
 152.156 c 214.496 152.148 203.551 141.203 203.543 127.695 c 187.543 127.695
 l 187.555 150.046 205.68 168.16 228.031 168.152 c 250.371 168.144 268.48
 150.035 268.488 127.695 c h
268.488 127.695 m f
0 0.937255 0.819608 rg
301.449 59.824 m 301.449 55.441 l 301.445 45.746 293.59 37.886 283.895 
37.879 c 70.922 37.879 l 61.227 37.886 53.367 45.746 53.367 55.441 c 53.367
 99.121 l 53.367 106.855 56.77 114.195 62.664 119.199 c 72.68 127.695 l 
285.648 127.695 l 285.648 127.402 l 293.191 120.273 l 298.461 115.304 301.449
 108.379 301.449 101.136 c h
301.449 59.824 m f
0 0.67451 0.917647 rg
204.176 59.039 m 150.641 59.039 l 146.223 59.039 142.641 62.621 142.641
 67.039 c 142.641 71.457 146.223 75.039 150.641 75.039 c 204.176 75.039 
l 208.594 75.039 212.176 71.457 212.176 67.039 c 212.176 62.621 208.594 
59.039 204.176 59.039 c h
204.176 59.039 m f
204.176 80.496 m 150.641 80.496 l 146.223 80.496 142.641 84.078 142.641
 88.496 c 142.641 92.914 146.223 96.496 150.641 96.496 c 204.176 96.496 
l 208.594 96.496 212.176 92.914 212.176 88.496 c 212.176 84.078 208.594 
80.496 204.176 80.496 c h
204.176 80.496 m f
0.831373 0.882353 0.956863 rg
233.871 94.343 41.832 -28.672 re f
79.113 94.343 41.832 -28.672 re f
Q Q
showpage
%%Trailer
end restore
%%EOF
