%!PS-Adobe-3.0 EPSF-3.0
%%Creator: cairo 1.14.2 (http://cairographics.org)
%%CreationDate: Wed May  2 08:31:25 2018
%%Pages: 1
%%DocumentData: Clean7Bit
%%LanguageLevel: 2
%%BoundingBox: 0 6 378 371
%%EndComments
%%BeginProlog
save
50 dict begin
/q { gsave } bind def
/Q { grestore } bind def
/cm { 6 array astore concat } bind def
/w { setlinewidth } bind def
/J { setlinecap } bind def
/j { setlinejoin } bind def
/M { setmiterlimit } bind def
/d { setdash } bind def
/m { moveto } bind def
/l { lineto } bind def
/c { curveto } bind def
/h { closepath } bind def
/re { exch dup neg 3 1 roll 5 3 roll moveto 0 rlineto
      0 exch rlineto 0 rlineto closepath } bind def
/S { stroke } bind def
/f { fill } bind def
/f* { eofill } bind def
/n { newpath } bind def
/W { clip } bind def
/W* { eoclip } bind def
/BT { } bind def
/ET { } bind def
/pdfmark where { pop globaldict /?pdfmark /exec load put }
    { globaldict begin /?pdfmark /pop load def /pdfmark
    /cleartomark load def end } ifelse
/BDC { mark 3 1 roll /BDC pdfmark } bind def
/EMC { mark /EMC pdfmark } bind def
/cairo_store_point { /cairo_point_y exch def /cairo_point_x exch def } def
/Tj { show currentpoint cairo_store_point } bind def
/TJ {
  {
    dup
    type /stringtype eq
    { show } { -0.001 mul 0 cairo_font_matrix dtransform rmoveto } ifelse
  } forall
  currentpoint cairo_store_point
} bind def
/cairo_selectfont { cairo_font_matrix aload pop pop pop 0 0 6 array astore
    cairo_font exch selectfont cairo_point_x cairo_point_y moveto } bind def
/Tf { pop /cairo_font exch def /cairo_font_matrix where
      { pop cairo_selectfont } if } bind def
/Td { matrix translate cairo_font_matrix matrix concatmatrix dup
      /cairo_font_matrix exch def dup 4 get exch 5 get cairo_store_point
      /cairo_font where { pop cairo_selectfont } if } bind def
/Tm { 2 copy 8 2 roll 6 array astore /cairo_font_matrix exch def
      cairo_store_point /cairo_font where { pop cairo_selectfont } if } bind def
/g { setgray } bind def
/rg { setrgbcolor } bind def
/d1 { setcachedevice } bind def
%%EndProlog
%%BeginSetup
%%EndSetup
%%Page: 1 1
%%BeginPageSetup
%%PageBoundingBox: 0 6 378 371
%%EndPageSetup
q 0 6 378 365 rectclip q
0 0.807843 0.705882 rg
199.199 261.061 16 -64 re f
0 0.67451 0.917647 rg
255.289 334.229 m 237.898 334.229 l 238.059 361.948 l 238.09 366.37 234.531
 369.971 230.109 370.002 c 225.691 370.03 222.09 366.471 222.059 362.053
 c 221.898 334.229 l 191.957 334.229 l 191.809 362.182 l 191.789 366.6 188.227
 370.182 183.809 370.229 c 183.766 370.229 l 179.324 370.17 175.77 366.534
 175.809 362.096 c 175.957 334.229 l 158.574 334.229 l 154.156 334.229 150.574
 330.647 150.574 326.229 c 150.574 321.807 154.156 318.229 158.574 318.229
 c 168.801 318.229 l 168.801 294.498 l 168.691 275.459 184.035 259.936 203.07
 259.827 c 203.223 259.827 203.375 259.827 203.527 259.827 c 210.328 259.827
 l 229.68 259.827 245.602 275.155 245.602 294.498 c 245.602 318.229 l 255.289
 318.229 l 259.707 318.229 263.289 321.807 263.289 326.229 c 263.289 330.647
 259.707 334.229 255.289 334.229 c h
255.289 334.229 m f
0 0.937255 0.819608 rg
361.766 119.108 m 327.898 134.522 l 298.691 181.202 l 292.078 191.791 280.477
 198.221 267.992 198.229 c 149.199 198.229 l 137.879 198.225 127.207 192.932
 120.352 183.924 c 82.734 134.526 l 19.926 117.334 l 8.121 114.088 -0.043
 103.338 0 91.1 c 0 68.123 l 0 53.1 11.961 41.428 26.984 41.428 c 38.902
 41.428 l 38.797 42.491 38.75 43.557 38.77 44.627 c 112.199 44.627 l 112.211
 43.58 112.168 42.538 112.062 41.495 c 112.648 41.428 l 260.414 41.428 l
 261.008 41.495 l 260.906 42.538 260.859 43.58 260.871 44.627 c 334.297 
44.627 l 334.309 43.588 334.27 42.553 334.168 41.518 c 334.969 41.428 l 
350.617 41.428 l 365.641 41.428 377.602 53.1 377.602 68.123 c 377.602 94.346
 l 377.641 104.995 371.445 114.678 361.766 119.108 c h
361.766 119.108 m f
0.831373 0.882353 0.956863 rg
334.297 44.1 m 334.297 43.061 334.258 42.018 334.168 41.002 c 332.461 20.799
 314.699 5.803 294.5 7.51 c 276.672 9.018 262.527 23.155 261.008 40.979 
c 260.922 42.002 260.871 43.041 260.871 44.1 c 260.871 64.373 277.305 80.815
 297.578 80.819 c 317.855 80.819 334.293 64.385 334.297 44.112 c 334.297
 44.108 334.297 44.104 334.297 44.1 c h
334.297 44.1 m f
38.902 40.924 m 38.816 41.971 38.77 43.026 38.77 44.1 c 39.066 64.377 55.746
 80.573 76.027 80.272 c 95.883 79.979 111.906 63.955 112.199 44.1 c 112.199
 43.041 112.152 42.002 112.062 40.979 c 110.348 20.776 92.574 5.791 72.371
 7.506 c 54.57 9.022 40.445 23.127 38.902 40.924 c h
38.902 40.924 m f
Q Q
showpage
%%Trailer
end restore
%%EOF
