%!PS-Adobe-3.0 EPSF-3.0
%%Creator: cairo 1.14.2 (http://cairographics.org)
%%CreationDate: Wed May  2 08:31:25 2018
%%Pages: 1
%%DocumentData: Clean7Bit
%%LanguageLevel: 2
%%BoundingBox: 29 -1 341 370
%%EndComments
%%BeginProlog
save
50 dict begin
/q { gsave } bind def
/Q { grestore } bind def
/cm { 6 array astore concat } bind def
/w { setlinewidth } bind def
/J { setlinecap } bind def
/j { setlinejoin } bind def
/M { setmiterlimit } bind def
/d { setdash } bind def
/m { moveto } bind def
/l { lineto } bind def
/c { curveto } bind def
/h { closepath } bind def
/re { exch dup neg 3 1 roll 5 3 roll moveto 0 rlineto
      0 exch rlineto 0 rlineto closepath } bind def
/S { stroke } bind def
/f { fill } bind def
/f* { eofill } bind def
/n { newpath } bind def
/W { clip } bind def
/W* { eoclip } bind def
/BT { } bind def
/ET { } bind def
/pdfmark where { pop globaldict /?pdfmark /exec load put }
    { globaldict begin /?pdfmark /pop load def /pdfmark
    /cleartomark load def end } ifelse
/BDC { mark 3 1 roll /BDC pdfmark } bind def
/EMC { mark /EMC pdfmark } bind def
/cairo_store_point { /cairo_point_y exch def /cairo_point_x exch def } def
/Tj { show currentpoint cairo_store_point } bind def
/TJ {
  {
    dup
    type /stringtype eq
    { show } { -0.001 mul 0 cairo_font_matrix dtransform rmoveto } ifelse
  } forall
  currentpoint cairo_store_point
} bind def
/cairo_selectfont { cairo_font_matrix aload pop pop pop 0 0 6 array astore
    cairo_font exch selectfont cairo_point_x cairo_point_y moveto } bind def
/Tf { pop /cairo_font exch def /cairo_font_matrix where
      { pop cairo_selectfont } if } bind def
/Td { matrix translate cairo_font_matrix matrix concatmatrix dup
      /cairo_font_matrix exch def dup 4 get exch 5 get cairo_store_point
      /cairo_font where { pop cairo_selectfont } if } bind def
/Tm { 2 copy 8 2 roll 6 array astore /cairo_font_matrix exch def
      cairo_store_point /cairo_font where { pop cairo_selectfont } if } bind def
/g { setgray } bind def
/rg { setrgbcolor } bind def
/d1 { setcachedevice } bind def
%%EndProlog
%%BeginSetup
%%EndSetup
%%Page: 1 1
%%BeginPageSetup
%%PageBoundingBox: 29 -1 341 370
%%EndPageSetup
q 29 -1 312 371 rectclip q
0.831373 0.882353 0.956863 rg
340.488 64.945 m 340.488 22.015 l 340.488 9.859 330.629 -0.001 318.473 
-0.001 c 300.117 -0.001 l 287.961 -0.001 278.102 9.855 278.102 22.015 c 
278.102 42.925 l 318.469 42.925 l 330.629 42.925 340.484 52.781 340.488 
64.937 c h
340.488 64.945 m f
0 0.937255 0.819608 rg
340.488 68.843 m 340.488 63.339 l 340.488 51.183 330.629 41.324 318.473
 41.324 c 51.332 41.324 l 39.176 41.324 29.32 51.179 29.316 63.339 c 29.316
 118.14 l 29.316 127.839 33.582 137.046 40.98 143.316 c 53.543 153.98 l 
320.668 153.98 l 320.668 153.613 l 330.133 144.667 l 336.742 138.433 340.484
 129.745 340.484 120.659 c h
340.488 68.843 m f
0.831373 0.882353 0.956863 rg
296.637 221.804 m 321.766 153.98 l 289.109 153.98 l 289.109 176.472 270.875
 194.706 248.383 194.706 c 225.891 194.706 207.656 176.472 207.656 153.98
 c 52.438 153.98 l 77.574 221.804 l 80.77 230.441 89.004 236.171 98.215 
236.171 c 275.988 236.171 l 285.199 236.171 293.434 230.437 296.637 221.804
 c h
296.637 221.804 m f
289.109 153.984 m 207.656 153.984 l 207.656 176.476 225.891 194.71 248.383
 194.71 c 270.875 194.71 289.109 176.476 289.109 153.984 c h
289.109 153.984 m f
91.703 42.562 m 91.703 22.015 l 91.703 9.859 81.844 -0.001 69.688 -0.001
 c 51.332 -0.001 l 39.176 -0.001 29.32 9.855 29.316 22.015 c 29.316 64.945
 l 29.316 52.784 39.168 42.925 51.328 42.925 c 91.703 42.925 l h
91.703 42.562 m f
0 0.67451 0.917647 rg
297.109 153.984 m 281.109 153.984 l 281.109 172.058 266.457 186.71 248.383
 186.71 c 230.309 186.71 215.656 172.058 215.656 153.984 c 199.656 153.984
 l 199.656 180.898 221.469 202.71 248.383 202.71 c 275.293 202.71 297.109
 180.898 297.109 153.984 c h
297.109 153.984 m f
218.477 75.527 m 151.328 75.527 l 146.906 75.527 143.328 79.109 143.328
 83.527 c 143.328 87.945 146.906 91.527 151.328 91.527 c 218.477 91.527 
l 222.898 91.527 226.477 87.945 226.477 83.527 c 226.477 79.109 222.895 
75.527 218.477 75.527 c h
218.477 75.527 m f
218.477 96.808 m 151.328 96.808 l 146.906 96.808 143.328 100.39 143.328
 104.808 c 143.328 109.226 146.906 112.808 151.328 112.808 c 218.477 112.808
 l 222.898 112.808 226.477 109.226 226.477 104.808 c 226.477 100.39 222.895
 96.808 218.477 96.808 c h
218.477 96.808 m f
226.781 336.202 m 216.73 336.202 l 216.863 361.636 l 216.887 366.058 213.32
 369.003 208.902 369.804 c 208.859 369.804 l 204.434 369.745 200.875 366.148
 200.859 361.726 c 200.727 336.202 l 169.074 336.202 l 168.941 361.726 l
 168.926 366.148 165.367 369.745 160.941 369.804 c 160.902 369.804 l 156.484
 369.003 152.922 366.058 152.945 361.636 c 153.074 336.202 l 143.023 336.202
 l 138.605 336.202 135.023 332.624 135.023 328.202 c 135.023 323.784 138.605
 320.202 143.023 320.202 c 152.102 320.202 l 152.102 302.351 l 152.102 285.593
 165.199 272.202 181.957 272.202 c 187.848 272.202 l 204.605 272.202 217.703
 285.593 217.703 302.351 c 217.703 320.202 l 226.781 320.202 l 231.199 320.202
 234.781 323.784 234.781 328.202 c 234.781 332.624 231.199 336.202 226.781
 336.202 c h
226.781 336.202 m f
0 0.807843 0.705882 rg
176.902 273.202 16 -38.398 re f
0.831373 0.882353 0.956863 rg
255.719 112.156 52.473 -35.961 re f
61.613 112.156 52.473 -35.961 re f
Q Q
showpage
%%Trailer
end restore
%%EOF
