%!PS-Adobe-3.0 EPSF-3.0
%%Creator: cairo 1.14.2 (http://cairographics.org)
%%CreationDate: Wed May  2 08:31:25 2018
%%Pages: 1
%%DocumentData: Clean7Bit
%%LanguageLevel: 2
%%BoundingBox: 0 131 361 230
%%EndComments
%%BeginProlog
save
50 dict begin
/q { gsave } bind def
/Q { grestore } bind def
/cm { 6 array astore concat } bind def
/w { setlinewidth } bind def
/J { setlinecap } bind def
/j { setlinejoin } bind def
/M { setmiterlimit } bind def
/d { setdash } bind def
/m { moveto } bind def
/l { lineto } bind def
/c { curveto } bind def
/h { closepath } bind def
/re { exch dup neg 3 1 roll 5 3 roll moveto 0 rlineto
      0 exch rlineto 0 rlineto closepath } bind def
/S { stroke } bind def
/f { fill } bind def
/f* { eofill } bind def
/n { newpath } bind def
/W { clip } bind def
/W* { eoclip } bind def
/BT { } bind def
/ET { } bind def
/pdfmark where { pop globaldict /?pdfmark /exec load put }
    { globaldict begin /?pdfmark /pop load def /pdfmark
    /cleartomark load def end } ifelse
/BDC { mark 3 1 roll /BDC pdfmark } bind def
/EMC { mark /EMC pdfmark } bind def
/cairo_store_point { /cairo_point_y exch def /cairo_point_x exch def } def
/Tj { show currentpoint cairo_store_point } bind def
/TJ {
  {
    dup
    type /stringtype eq
    { show } { -0.001 mul 0 cairo_font_matrix dtransform rmoveto } ifelse
  } forall
  currentpoint cairo_store_point
} bind def
/cairo_selectfont { cairo_font_matrix aload pop pop pop 0 0 6 array astore
    cairo_font exch selectfont cairo_point_x cairo_point_y moveto } bind def
/Tf { pop /cairo_font exch def /cairo_font_matrix where
      { pop cairo_selectfont } if } bind def
/Td { matrix translate cairo_font_matrix matrix concatmatrix dup
      /cairo_font_matrix exch def dup 4 get exch 5 get cairo_store_point
      /cairo_font where { pop cairo_selectfont } if } bind def
/Tm { 2 copy 8 2 roll 6 array astore /cairo_font_matrix exch def
      cairo_store_point /cairo_font where { pop cairo_selectfont } if } bind def
/g { setgray } bind def
/rg { setrgbcolor } bind def
/d1 { setcachedevice } bind def
%%EndProlog
%%BeginSetup
%%EndSetup
%%Page: 1 1
%%BeginPageSetup
%%PageBoundingBox: 0 131 361 230
%%EndPageSetup
q 0 131 361 99 rectclip q
0 0.937255 0.819608 rg
311.812 228.38 m 338.504 228.36 360.125 206.708 360.105 180.013 c 360.105
 179.395 360.094 178.774 360.07 178.157 c 359.125 153.188 338.438 132.583
 313.469 131.759 c 302.336 131.36 291.414 134.837 282.559 141.591 c 274.258
 147.907 262.762 147.895 254.477 141.56 c 236.074 127.517 210.27 128.622
 193.133 144.181 c 185.699 150.864 174.422 150.86 166.988 144.173 c 149.828
 128.606 123.996 127.52 105.59 141.591 c 97.293 147.907 85.793 147.895 77.508
 141.56 c 68.676 134.817 57.777 131.353 46.676 131.759 c 21.668 132.583 
0.941 153.188 0.035 178.196 c -1 204.856 19.773 227.31 46.434 228.345 c 
57.395 228.77 68.172 225.454 76.996 218.942 c 85.625 212.462 97.492 212.446
 106.141 218.903 c 124.605 232.587 150.164 231.337 167.203 215.919 c 174.527
 209.353 185.617 209.353 192.941 215.919 c 209.969 231.321 235.496 232.587
 253.965 218.942 c 262.594 212.462 274.461 212.446 283.109 218.903 c 291.41
 225.063 301.477 228.384 311.812 228.38 c h
311.812 228.38 m f
0 0.67451 0.917647 rg
310.766 197.942 m 320.645 197.938 328.656 189.927 328.652 180.044 c 328.652
 170.165 320.637 162.153 310.758 162.157 c 300.879 162.161 292.871 170.169
 292.867 180.044 c 292.859 189.919 300.852 197.931 310.723 197.942 c h
310.766 197.942 m f
224.246 197.942 m 234.125 197.938 242.137 189.927 242.133 180.044 c 242.129
 170.165 234.117 162.153 224.238 162.157 c 214.359 162.161 206.352 170.169
 206.348 180.044 c 206.34 189.919 214.332 197.931 224.207 197.942 c h
224.246 197.942 m f
133.797 197.942 m 143.68 197.938 151.688 189.927 151.684 180.044 c 151.684
 170.165 143.672 162.153 133.789 162.157 c 123.91 162.161 115.902 170.169
 115.902 180.044 c 115.891 189.919 123.887 197.931 133.758 197.942 c h
133.797 197.942 m f
29.391 180.044 m 29.398 189.915 37.406 197.911 47.277 197.903 c 57.148 
197.892 65.141 189.884 65.133 180.013 c 65.125 170.157 57.133 162.165 47.277
 162.157 c 37.402 162.169 29.402 170.173 29.391 180.044 c h
29.391 180.044 m f
Q Q
showpage
%%Trailer
end restore
%%EOF
