%!PS-Adobe-3.0 EPSF-3.0
%%Creator: cairo 1.14.2 (http://cairographics.org)
%%CreationDate: Wed May  2 08:31:25 2018
%%Pages: 1
%%DocumentData: Clean7Bit
%%LanguageLevel: 2
%%BoundingBox: 47 -1 307 355
%%EndComments
%%BeginProlog
save
50 dict begin
/q { gsave } bind def
/Q { grestore } bind def
/cm { 6 array astore concat } bind def
/w { setlinewidth } bind def
/J { setlinecap } bind def
/j { setlinejoin } bind def
/M { setmiterlimit } bind def
/d { setdash } bind def
/m { moveto } bind def
/l { lineto } bind def
/c { curveto } bind def
/h { closepath } bind def
/re { exch dup neg 3 1 roll 5 3 roll moveto 0 rlineto
      0 exch rlineto 0 rlineto closepath } bind def
/S { stroke } bind def
/f { fill } bind def
/f* { eofill } bind def
/n { newpath } bind def
/W { clip } bind def
/W* { eoclip } bind def
/BT { } bind def
/ET { } bind def
/pdfmark where { pop globaldict /?pdfmark /exec load put }
    { globaldict begin /?pdfmark /pop load def /pdfmark
    /cleartomark load def end } ifelse
/BDC { mark 3 1 roll /BDC pdfmark } bind def
/EMC { mark /EMC pdfmark } bind def
/cairo_store_point { /cairo_point_y exch def /cairo_point_x exch def } def
/Tj { show currentpoint cairo_store_point } bind def
/TJ {
  {
    dup
    type /stringtype eq
    { show } { -0.001 mul 0 cairo_font_matrix dtransform rmoveto } ifelse
  } forall
  currentpoint cairo_store_point
} bind def
/cairo_selectfont { cairo_font_matrix aload pop pop pop 0 0 6 array astore
    cairo_font exch selectfont cairo_point_x cairo_point_y moveto } bind def
/Tf { pop /cairo_font exch def /cairo_font_matrix where
      { pop cairo_selectfont } if } bind def
/Td { matrix translate cairo_font_matrix matrix concatmatrix dup
      /cairo_font_matrix exch def dup 4 get exch 5 get cairo_store_point
      /cairo_font where { pop cairo_selectfont } if } bind def
/Tm { 2 copy 8 2 roll 6 array astore /cairo_font_matrix exch def
      cairo_store_point /cairo_font where { pop cairo_selectfont } if } bind def
/g { setgray } bind def
/rg { setrgbcolor } bind def
/d1 { setcachedevice } bind def
%%EndProlog
%%BeginSetup
%%EndSetup
%%Page: 1 1
%%BeginPageSetup
%%PageBoundingBox: 47 -1 307 355
%%EndPageSetup
q 47 -1 260 356 rectclip q
0.831373 0.882353 0.956863 rg
306.781 54.167 m 306.781 18.358 l 306.781 8.221 298.562 -0.001 288.422 
-0.001 c 273.125 -0.001 l 262.988 -0.001 254.766 8.221 254.766 18.358 c 
254.766 35.807 l 288.422 35.807 l 298.559 35.807 306.781 44.022 306.781 
54.159 c h
306.781 54.167 m f
0 0.937255 0.819608 rg
306.781 58.753 m 306.781 54.167 l 306.785 44.03 298.57 35.811 288.434 35.807
 c 65.656 35.807 l 55.516 35.807 47.297 44.022 47.293 54.159 c 47.293 99.866
 l 47.293 107.952 50.848 115.632 57.016 120.866 c 67.488 129.753 l 290.262
 129.753 l 290.262 129.44 l 298.16 121.983 l 303.664 116.784 306.785 109.542
 306.781 101.967 c h
306.781 58.753 m f
0.831373 0.882353 0.956863 rg
270.664 177.538 m 291.184 129.753 l 263.941 129.753 l 263.941 148.51 248.734
 163.717 229.977 163.717 c 211.223 163.717 196.016 148.51 196.016 129.753
 c 66.566 129.753 l 87.086 177.538 l 90.051 184.432 96.836 188.905 104.344
 188.905 c 253.406 188.905 l 260.914 188.905 267.699 184.432 270.664 177.538
 c h
270.664 177.538 m f
263.941 129.753 m 196.016 129.753 l 196.016 148.51 211.223 163.717 229.977
 163.717 c 248.734 163.717 263.941 148.51 263.941 129.753 c h
263.941 129.753 m f
0 0.67451 0.917647 rg
197.695 251.448 m 197.695 240.042 188.445 230.792 177.039 230.792 c 165.629
 230.792 156.383 240.042 156.383 251.448 c 156.383 262.854 165.629 272.104
 177.039 272.104 c 188.445 272.104 197.695 262.854 197.695 251.448 c h
197.695 251.448 m f
0.831373 0.882353 0.956863 rg
99.309 35.495 m 99.309 18.358 l 99.309 8.221 91.09 -0.001 80.949 -0.001
 c 65.656 -0.001 l 55.516 -0.001 47.293 8.221 47.293 18.358 c 47.293 54.167
 l 47.293 44.03 55.508 35.811 65.645 35.807 c 99.309 35.807 l h
99.309 35.495 m f
0 0.67451 0.917647 rg
271.941 129.753 m 255.941 129.753 l 255.941 144.092 244.316 155.714 229.977
 155.714 c 215.637 155.714 204.016 144.089 204.016 129.753 c 188.016 129.753
 l 188.016 152.928 206.801 171.717 229.977 171.717 c 253.156 171.717 271.941
 152.928 271.941 129.753 c h
271.941 129.753 m f
205.039 58.303 m 149.039 58.303 l 144.621 58.303 141.039 61.885 141.039
 66.303 c 141.039 70.721 144.621 74.303 149.039 74.303 c 205.039 74.303 
l 209.457 74.303 213.039 70.721 213.039 66.303 c 213.039 61.885 209.457 
58.303 205.039 58.303 c h
205.039 58.303 m f
205.039 80.745 m 149.039 80.745 l 144.621 80.745 141.039 84.327 141.039
 88.745 c 141.039 93.163 144.621 96.745 149.039 96.745 c 205.039 96.745 
l 209.457 96.745 213.039 93.163 213.039 88.745 c 213.039 84.327 209.457 
80.745 205.039 80.745 c h
205.039 80.745 m f
226.016 279.385 m 223.891 279.382 221.855 280.225 220.355 281.729 c 196.418
 305.616 157.656 305.616 133.719 281.729 c 130.594 278.604 125.527 278.604
 122.402 281.729 c 119.277 284.85 119.277 289.917 122.402 293.042 c 152.598
 323.167 201.473 323.167 231.668 293.042 c 234.793 289.917 234.793 284.854
 231.668 281.729 c 230.168 280.229 228.133 279.385 226.012 279.385 c h
226.016 279.385 m f
258.672 304.327 m 256.547 304.323 254.512 305.171 253.016 306.671 c 211.117
 348.553 142.957 348.553 101.062 306.671 c 97.977 303.507 92.914 303.444
 89.75 306.53 c 86.586 309.612 86.523 314.678 89.605 317.842 c 89.656 317.889
 89.703 317.936 89.75 317.983 c 137.883 366.108 216.195 366.108 264.328 
317.983 c 267.449 314.862 267.449 309.796 264.328 306.671 c 262.828 305.171
 260.793 304.331 258.672 304.327 c h
258.672 304.327 m f
0.831373 0.882353 0.956863 rg
236.094 94.866 43.762 -29.992 re f
74.223 94.866 43.758 -29.992 re f
Q Q
showpage
%%Trailer
end restore
%%EOF
