%!PS-Adobe-3.0 EPSF-3.0
%%Creator: cairo 1.14.2 (http://cairographics.org)
%%CreationDate: Wed May  2 08:31:25 2018
%%Pages: 1
%%DocumentData: Clean7Bit
%%LanguageLevel: 2
%%BoundingBox: 0 1 335 333
%%EndComments
%%BeginProlog
save
50 dict begin
/q { gsave } bind def
/Q { grestore } bind def
/cm { 6 array astore concat } bind def
/w { setlinewidth } bind def
/J { setlinecap } bind def
/j { setlinejoin } bind def
/M { setmiterlimit } bind def
/d { setdash } bind def
/m { moveto } bind def
/l { lineto } bind def
/c { curveto } bind def
/h { closepath } bind def
/re { exch dup neg 3 1 roll 5 3 roll moveto 0 rlineto
      0 exch rlineto 0 rlineto closepath } bind def
/S { stroke } bind def
/f { fill } bind def
/f* { eofill } bind def
/n { newpath } bind def
/W { clip } bind def
/W* { eoclip } bind def
/BT { } bind def
/ET { } bind def
/pdfmark where { pop globaldict /?pdfmark /exec load put }
    { globaldict begin /?pdfmark /pop load def /pdfmark
    /cleartomark load def end } ifelse
/BDC { mark 3 1 roll /BDC pdfmark } bind def
/EMC { mark /EMC pdfmark } bind def
/cairo_store_point { /cairo_point_y exch def /cairo_point_x exch def } def
/Tj { show currentpoint cairo_store_point } bind def
/TJ {
  {
    dup
    type /stringtype eq
    { show } { -0.001 mul 0 cairo_font_matrix dtransform rmoveto } ifelse
  } forall
  currentpoint cairo_store_point
} bind def
/cairo_selectfont { cairo_font_matrix aload pop pop pop 0 0 6 array astore
    cairo_font exch selectfont cairo_point_x cairo_point_y moveto } bind def
/Tf { pop /cairo_font exch def /cairo_font_matrix where
      { pop cairo_selectfont } if } bind def
/Td { matrix translate cairo_font_matrix matrix concatmatrix dup
      /cairo_font_matrix exch def dup 4 get exch 5 get cairo_store_point
      /cairo_font where { pop cairo_selectfont } if } bind def
/Tm { 2 copy 8 2 roll 6 array astore /cairo_font_matrix exch def
      cairo_store_point /cairo_font where { pop cairo_selectfont } if } bind def
/g { setgray } bind def
/rg { setrgbcolor } bind def
/d1 { setcachedevice } bind def
%%EndProlog
%%BeginSetup
%%EndSetup
%%Page: 1 1
%%BeginPageSetup
%%PageBoundingBox: 0 1 335 333
%%EndPageSetup
q 0 1 335 332 rectclip q
0 0.937255 0.819608 rg
334.398 78.955 m 334.398 55.755 l 334.398 42.466 323.625 31.697 310.336
 31.697 c 296.312 31.697 l 295.785 31.744 l 295.863 32.658 295.902 33.576
 295.902 34.505 c 295.621 52.443 280.855 66.755 262.918 66.47 c 245.379 
66.197 231.227 52.045 230.953 34.505 c 230.953 33.576 230.992 32.658 231.07
 31.744 c 230.551 31.697 l 99.84 31.697 l 99.32 31.744 l 99.398 32.658 99.441
 33.576 99.441 34.505 c 99.16 52.443 84.391 66.755 66.453 66.47 c 48.914
 66.197 34.762 52.045 34.488 34.505 c 34.488 33.56 34.527 32.627 34.609 
31.705 c 34.488 31.697 l 24.062 31.697 l 10.777 31.697 0.004 42.466 0 55.755
 c 0 76.08 l 0.004 86.927 7.258 96.431 17.719 99.291 c 73.375 114.49 l 106.648
 158.185 l 112.719 166.15 122.156 170.826 132.168 170.826 c 237.246 170.826
 l 248.297 170.826 258.566 165.138 264.434 155.779 c 290.297 114.49 l 320.297
 100.857 l 328.883 96.951 334.398 88.388 334.398 78.955 c h
334.398 78.955 m f
0.831373 0.882353 0.956863 rg
295.902 34.505 m 295.902 33.576 295.863 32.658 295.785 31.744 c 294.266
 13.877 278.547 0.623 260.676 2.142 c 244.914 3.482 232.41 15.986 231.07
 31.744 c 230.992 32.658 230.953 33.576 230.953 34.505 c 231.234 52.443 
246 66.755 263.938 66.47 c 281.477 66.197 295.629 52.045 295.902 34.505 
c h
295.902 34.505 m f
0 0.67451 0.917647 rg
204.559 229.763 m 204.559 218.353 195.312 209.107 183.902 209.107 c 172.496
 209.107 163.246 218.353 163.246 229.763 c 163.246 241.17 172.496 250.42
 183.902 250.42 c 195.312 250.42 204.559 241.17 204.559 229.763 c h
204.559 229.763 m f
0.831373 0.882353 0.956863 rg
99.441 34.505 m 99.441 33.576 99.398 32.658 99.32 31.744 c 97.801 13.877
 82.082 0.619 64.211 2.138 c 48.465 3.478 35.965 15.959 34.609 31.705 c 
34.527 32.627 34.488 33.56 34.488 34.505 c 34.77 52.443 49.539 66.755 67.473
 66.47 c 85.012 66.197 99.164 52.045 99.441 34.505 c h
99.441 34.505 m f
0 0.67451 0.917647 rg
232.879 257.697 m 230.758 257.697 228.723 258.537 227.223 260.041 c 203.273
 283.908 164.531 283.908 140.586 260.041 c 137.477 256.904 132.41 256.88
 129.273 259.99 c 126.133 263.099 126.109 268.166 129.223 271.302 c 129.238
 271.322 129.254 271.337 129.27 271.353 c 159.465 301.47 208.34 301.47 238.539
 271.353 c 241.66 268.228 241.66 263.166 238.535 260.041 c 237.035 258.541
 235 257.697 232.879 257.697 c h
232.879 257.697 m f
102.273 282.642 m 97.855 282.642 94.273 286.224 94.273 290.642 c 94.273
 292.763 95.113 294.798 96.613 296.298 c 144.863 344.408 222.941 344.408
 271.191 296.298 c 274.305 293.162 274.281 288.095 271.145 284.986 c 268.023
 281.892 262.996 281.892 259.879 284.986 c 217.879 326.845 149.93 326.845
 107.93 284.986 c 106.43 283.482 104.395 282.638 102.273 282.642 c h
102.273 282.642 m f
Q Q
showpage
%%Trailer
end restore
%%EOF
