%!PS-Adobe-3.0 EPSF-3.0
%%Creator: cairo 1.14.2 (http://cairographics.org)
%%CreationDate: Wed May  2 08:31:25 2018
%%Pages: 1
%%DocumentData: Clean7Bit
%%LanguageLevel: 2
%%BoundingBox: 6 -1 392 399
%%EndComments
%%BeginProlog
save
50 dict begin
/q { gsave } bind def
/Q { grestore } bind def
/cm { 6 array astore concat } bind def
/w { setlinewidth } bind def
/J { setlinecap } bind def
/j { setlinejoin } bind def
/M { setmiterlimit } bind def
/d { setdash } bind def
/m { moveto } bind def
/l { lineto } bind def
/c { curveto } bind def
/h { closepath } bind def
/re { exch dup neg 3 1 roll 5 3 roll moveto 0 rlineto
      0 exch rlineto 0 rlineto closepath } bind def
/S { stroke } bind def
/f { fill } bind def
/f* { eofill } bind def
/n { newpath } bind def
/W { clip } bind def
/W* { eoclip } bind def
/BT { } bind def
/ET { } bind def
/pdfmark where { pop globaldict /?pdfmark /exec load put }
    { globaldict begin /?pdfmark /pop load def /pdfmark
    /cleartomark load def end } ifelse
/BDC { mark 3 1 roll /BDC pdfmark } bind def
/EMC { mark /EMC pdfmark } bind def
/cairo_store_point { /cairo_point_y exch def /cairo_point_x exch def } def
/Tj { show currentpoint cairo_store_point } bind def
/TJ {
  {
    dup
    type /stringtype eq
    { show } { -0.001 mul 0 cairo_font_matrix dtransform rmoveto } ifelse
  } forall
  currentpoint cairo_store_point
} bind def
/cairo_selectfont { cairo_font_matrix aload pop pop pop 0 0 6 array astore
    cairo_font exch selectfont cairo_point_x cairo_point_y moveto } bind def
/Tf { pop /cairo_font exch def /cairo_font_matrix where
      { pop cairo_selectfont } if } bind def
/Td { matrix translate cairo_font_matrix matrix concatmatrix dup
      /cairo_font_matrix exch def dup 4 get exch 5 get cairo_store_point
      /cairo_font where { pop cairo_selectfont } if } bind def
/Tm { 2 copy 8 2 roll 6 array astore /cairo_font_matrix exch def
      cairo_store_point /cairo_font where { pop cairo_selectfont } if } bind def
/g { setgray } bind def
/rg { setrgbcolor } bind def
/d1 { setcachedevice } bind def
%%EndProlog
%%BeginSetup
%%EndSetup
%%Page: 1 1
%%BeginPageSetup
%%PageBoundingBox: 6 -1 392 399
%%EndPageSetup
q 6 -1 386 400 rectclip q
0 0.937255 0.819608 rg
376.113 91.455 m 376.113 68.697 l 376.113 55.666 365.551 45.099 352.52 
45.095 c 338.719 45.095 l 338.238 45.134 l 338.32 46.033 338.359 46.935 
338.359 47.849 c 338.367 65.443 324.109 79.712 306.512 79.72 c 288.918 79.728
 274.648 65.47 274.641 47.873 c 274.641 47.849 l 274.641 46.935 274.68 46.033
 274.762 45.142 c 274.246 45.095 l 146.023 45.095 l 145.512 45.142 l 145.594
 46.033 145.633 46.935 145.633 47.849 c 145.633 65.443 131.367 79.709 113.773
 79.709 c 96.176 79.709 81.91 65.443 81.91 47.849 c 81.91 46.92 81.953 46.002
 82.031 45.095 c 71.688 45.095 l 58.656 45.095 48.09 55.662 48.09 68.697
 c 48.09 88.63 l 48.086 99.271 55.199 108.595 65.465 111.4 c 120.062 126.322
 l 152.703 169.177 l 158.656 176.99 167.914 181.576 177.734 181.576 c 280.816
 181.576 l 291.656 181.576 301.73 175.998 307.488 166.814 c 332.848 126.322
 l 362.281 112.935 l 370.703 109.111 376.113 100.709 376.113 91.455 c h
376.113 91.455 m f
0.831373 0.882353 0.956863 rg
338.359 47.849 m 338.359 46.935 338.32 46.033 338.238 45.134 c 336.742 
27.607 321.32 14.611 303.789 16.107 c 288.332 17.427 276.074 29.689 274.762
 45.142 c 274.68 46.033 274.641 46.935 274.641 47.849 c 274.633 65.443 288.891
 79.712 306.488 79.72 c 324.082 79.728 338.352 65.47 338.359 47.873 c h
338.359 47.849 m f
82.031 45.095 m 81.953 46.002 81.91 46.92 81.91 47.849 c 81.91 65.443 96.176
 79.709 113.773 79.709 c 131.367 79.709 145.633 65.443 145.633 47.849 c 
145.633 46.935 145.594 46.033 145.512 45.142 c 144.02 27.615 128.598 14.611
 111.07 16.103 c 95.625 17.42 83.371 29.654 82.031 45.095 c h
82.031 45.095 m f
0 0.67451 0.917647 rg
222.496 244.49 m 218.078 244.49 214.496 248.068 214.496 252.49 c 214.496
 266.353 l 214.496 270.771 218.078 274.353 222.496 274.353 c 226.914 274.353
 230.496 270.771 230.496 266.353 c 230.496 252.49 l 230.496 248.068 226.914
 244.49 222.496 244.49 c h
222.496 244.49 m f
261.488 244.49 m 257.07 244.49 253.488 248.068 253.488 252.49 c 253.488
 266.353 l 253.488 270.771 257.07 274.353 261.488 274.353 c 265.906 274.353
 269.488 270.771 269.488 266.353 c 269.488 252.49 l 269.488 248.068 265.906
 244.49 261.488 244.49 c h
261.488 244.49 m f
183.07 244.49 m 178.652 244.49 175.07 248.068 175.07 252.49 c 175.07 266.353
 l 175.07 270.771 178.652 274.353 183.07 274.353 c 187.492 274.353 191.07
 270.771 191.07 266.353 c 191.07 252.49 l 191.07 248.068 187.492 244.49 
183.07 244.49 c h
183.07 244.49 m f
222.496 205.498 m 218.078 205.498 214.496 209.076 214.496 213.498 c 214.496
 227.361 l 214.496 231.779 218.078 235.361 222.496 235.361 c 226.914 235.361
 230.496 231.779 230.496 227.361 c 230.496 213.498 l 230.496 209.076 226.914
 205.498 222.496 205.498 c h
222.496 205.498 m f
261.488 205.498 m 257.07 205.498 253.488 209.076 253.488 213.498 c 253.488
 227.361 l 253.488 231.779 257.07 235.361 261.488 235.361 c 265.906 235.361
 269.488 231.779 269.488 227.361 c 269.488 213.498 l 269.488 209.076 265.906
 205.498 261.488 205.498 c h
261.488 205.498 m f
183.07 205.498 m 178.652 205.498 175.07 209.076 175.07 213.498 c 175.07
 227.361 l 175.07 231.779 178.652 235.361 183.07 235.361 c 187.492 235.361
 191.07 231.779 191.07 227.361 c 191.07 213.498 l 191.07 209.076 187.492
 205.498 183.07 205.498 c h
183.07 205.498 m f
383.953 16.002 m 22.449 16.002 l 22.449 341.736 l 22.449 364.322 40.914
 382.4 63.496 382.4 c 173.543 382.4 l 196.121 382.439 214.457 364.17 214.496
 341.591 c 214.496 341.587 l 214.496 341.353 214.465 341.197 214.48 340.966
 c 192.297 337.134 176.078 317.9 176.047 295.384 c 176.047 289.599 l 268.848
 289.599 l 268.848 295.384 l 268.855 317.912 252.656 337.181 230.457 341.041
 c 230.48 341.22 230.492 341.404 230.496 341.587 c 230.449 373.002 204.957
 398.431 173.543 398.4 c 63.496 398.4 l 32.094 398.4 6.449 373.142 6.449
 341.736 c 6.449 7.705 l 6.449 3.287 10.129 0.002 14.543 0.002 c 383.953
 0.002 l 388.371 0.002 391.953 3.58 391.953 8.002 c 391.953 12.42 388.371
 16.002 383.953 16.002 c h
383.953 16.002 m f
Q Q
showpage
%%Trailer
end restore
%%EOF
