%!PS-Adobe-3.0 EPSF-3.0
%%Creator: cairo 1.14.2 (http://cairographics.org)
%%CreationDate: Wed May  2 08:31:25 2018
%%Pages: 1
%%DocumentData: Clean7Bit
%%LanguageLevel: 2
%%BoundingBox: 5 -1 368 373
%%EndComments
%%BeginProlog
save
50 dict begin
/q { gsave } bind def
/Q { grestore } bind def
/cm { 6 array astore concat } bind def
/w { setlinewidth } bind def
/J { setlinecap } bind def
/j { setlinejoin } bind def
/M { setmiterlimit } bind def
/d { setdash } bind def
/m { moveto } bind def
/l { lineto } bind def
/c { curveto } bind def
/h { closepath } bind def
/re { exch dup neg 3 1 roll 5 3 roll moveto 0 rlineto
      0 exch rlineto 0 rlineto closepath } bind def
/S { stroke } bind def
/f { fill } bind def
/f* { eofill } bind def
/n { newpath } bind def
/W { clip } bind def
/W* { eoclip } bind def
/BT { } bind def
/ET { } bind def
/pdfmark where { pop globaldict /?pdfmark /exec load put }
    { globaldict begin /?pdfmark /pop load def /pdfmark
    /cleartomark load def end } ifelse
/BDC { mark 3 1 roll /BDC pdfmark } bind def
/EMC { mark /EMC pdfmark } bind def
/cairo_store_point { /cairo_point_y exch def /cairo_point_x exch def } def
/Tj { show currentpoint cairo_store_point } bind def
/TJ {
  {
    dup
    type /stringtype eq
    { show } { -0.001 mul 0 cairo_font_matrix dtransform rmoveto } ifelse
  } forall
  currentpoint cairo_store_point
} bind def
/cairo_selectfont { cairo_font_matrix aload pop pop pop 0 0 6 array astore
    cairo_font exch selectfont cairo_point_x cairo_point_y moveto } bind def
/Tf { pop /cairo_font exch def /cairo_font_matrix where
      { pop cairo_selectfont } if } bind def
/Td { matrix translate cairo_font_matrix matrix concatmatrix dup
      /cairo_font_matrix exch def dup 4 get exch 5 get cairo_store_point
      /cairo_font where { pop cairo_selectfont } if } bind def
/Tm { 2 copy 8 2 roll 6 array astore /cairo_font_matrix exch def
      cairo_store_point /cairo_font where { pop cairo_selectfont } if } bind def
/g { setgray } bind def
/rg { setrgbcolor } bind def
/d1 { setcachedevice } bind def
%%EndProlog
%%BeginSetup
%%EndSetup
%%Page: 1 1
%%BeginPageSetup
%%PageBoundingBox: 5 -1 368 373
%%EndPageSetup
q 5 -1 363 374 rectclip q
0.831373 0.882353 0.956863 rg
300.816 45.585 m 300.816 44.89 300.793 44.198 300.734 43.511 c 299.586 
29.445 287.25 18.972 273.184 20.12 c 260.711 21.14 250.812 31.038 249.793
 43.511 c 249.734 44.198 249.711 44.89 249.711 45.585 c 249.711 59.695 261.152
 71.136 275.266 71.136 c 289.375 71.136 300.816 59.695 300.816 45.585 c 
h
300.816 45.585 m f
0 0.807843 0.705882 rg
249.711 45.585 m 249.711 44.89 249.734 44.198 249.793 43.511 c 249.711 
43.503 l 212.871 43.503 l 212.871 105.304 l 325.793 105.304 l 326.957 102.89
 327.559 100.245 327.559 97.57 c 327.559 61.335 l 327.559 51.487 319.574
 43.503 309.727 43.503 c 300.816 43.503 l 300.734 43.511 l 300.793 44.198
 300.816 44.89 300.816 45.585 c 300.816 59.695 289.375 71.136 275.266 71.136
 c 261.152 71.136 249.711 59.695 249.711 45.585 c h
249.711 45.585 m f
0.831373 0.882353 0.956863 rg
144.535 45.585 m 144.535 44.89 144.512 44.198 144.457 43.511 c 143.309 
29.445 130.973 18.972 116.902 20.12 c 104.43 21.14 94.531 31.038 93.512 
43.511 c 93.457 44.198 93.434 44.89 93.434 45.585 c 93.434 59.695 104.871
 71.136 118.984 71.136 c 133.098 71.136 144.535 59.695 144.535 45.585 c 
h
144.535 45.585 m f
0 0.937255 0.819608 rg
127.602 105.304 m 212.871 105.304 l 212.871 43.503 l 144.535 43.503 l 144.457
 43.511 l 144.512 44.198 144.535 44.89 144.535 45.585 c 144.535 59.695 133.098
 71.136 118.984 71.136 c 104.871 71.136 93.434 59.695 93.434 45.585 c 93.434
 44.89 93.457 44.198 93.512 43.511 c 93.434 43.503 l 84.215 43.503 l 74.371
 43.507 66.391 51.491 66.391 61.335 c 66.391 75.593 l 66.391 91.999 79.691
 105.304 96.098 105.304 c 125.512 105.304 l 126.203 105.304 126.898 105.343
 127.586 105.433 c h
127.602 105.304 m f
0 0.67451 0.917647 rg
270.215 179.999 m 184.641 179.999 l 180.223 179.999 176.641 176.417 176.641
 171.999 c 176.641 167.581 180.223 163.999 184.641 163.999 c 192.184 163.999
 l 192.184 149.601 l 208.184 149.601 l 208.184 163.999 l 247.383 163.999
 l 247.383 149.601 l 263.383 149.601 l 263.383 163.999 l 270.215 163.999
 l 274.633 163.999 278.215 167.581 278.215 171.999 c 278.215 176.417 274.633
 179.999 270.215 179.999 c h
270.215 179.999 m f
359.016 15.999 m 21.785 15.999 l 21.785 319.464 l 21.785 340.253 39.062
 356.8 59.855 356.8 c 162.586 356.8 l 183.344 356.862 200.227 340.085 200.289
 319.323 c 200.289 319.28 l 200.281 319.062 200.289 318.843 200.309 318.628
 c 179.848 314.835 165 296.995 164.984 276.183 c 164.984 271.198 l 251.383
 271.198 l 251.383 276.183 l 251.453 296.991 236.656 314.886 216.203 318.722
 c 216.234 318.905 216.258 319.093 216.266 319.28 c 216.227 348.874 192.207
 372.835 162.609 372.8 c 59.855 372.8 l 30.242 372.8 5.785 349.077 5.785
 319.464 c 5.785 7.632 l 5.785 3.214 9.734 -0.001 14.152 -0.001 c 359.016
 -0.001 l 363.434 -0.001 367.016 3.581 367.016 7.999 c 367.016 12.417 363.434
 15.999 359.016 15.999 c h
359.016 15.999 m f
216.184 249.089 m 216.184 253.507 212.602 257.089 208.184 257.089 c 203.766
 257.089 200.184 253.507 200.184 249.089 c 200.184 236.144 l 200.184 231.726
 203.766 228.144 208.184 228.144 c 212.602 228.144 216.184 231.726 216.184
 236.144 c h
216.184 249.089 m f
252.984 249.089 m 252.984 253.507 249.402 257.089 244.984 257.089 c 240.566
 257.089 236.984 253.507 236.984 249.089 c 236.984 236.144 l 236.984 231.726
 240.566 228.144 244.984 228.144 c 249.402 228.144 252.984 231.726 252.984
 236.144 c h
252.984 249.089 m f
179.383 249.089 m 179.383 253.507 175.801 257.089 171.383 257.089 c 166.965
 257.089 163.383 253.507 163.383 249.089 c 163.383 236.144 l 163.383 231.726
 166.965 228.144 171.383 228.144 c 175.801 228.144 179.383 231.726 179.383
 236.144 c h
179.383 249.089 m f
208.184 220.687 m 203.766 220.687 200.184 217.105 200.184 212.687 c 200.184
 199.745 l 200.184 195.327 203.766 191.745 208.184 191.745 c 212.602 191.745
 216.184 195.327 216.184 199.745 c 216.184 212.687 l 216.184 217.105 212.602
 220.687 208.184 220.687 c h
208.184 220.687 m f
244.984 220.687 m 240.566 220.687 236.984 217.105 236.984 212.687 c 236.984
 199.745 l 236.984 195.327 240.566 191.745 244.984 191.745 c 249.402 191.745
 252.984 195.327 252.984 199.745 c 252.984 212.687 l 252.984 217.105 249.402
 220.687 244.984 220.687 c h
244.984 220.687 m f
171.383 220.687 m 166.965 220.687 163.383 217.105 163.383 212.687 c 163.383
 199.745 l 163.383 195.327 166.965 191.745 171.383 191.745 c 175.801 191.745
 179.383 195.327 179.383 199.745 c 179.383 212.687 l 179.383 217.105 175.801
 220.687 171.383 220.687 c h
171.383 220.687 m f
0.831373 0.882353 0.956863 rg
325.793 105.304 m 268.434 105.304 l 247.039 151.359 l 247.039 151.655 l
 270.902 151.655 l 275.426 151.659 279.777 149.941 283.078 146.855 c 321.895
 110.593 l 323.512 109.089 324.836 107.296 325.793 105.304 c h
325.793 105.304 m f
0.74902 0.819608 0.909804 rg
247.039 151.359 m 268.434 105.304 l 212.871 105.304 l 212.871 151.655 l
 247.039 151.655 l h
247.039 151.359 m f
0.831373 0.882353 0.956863 rg
127.586 105.433 m 131.77 105.921 135.648 107.874 138.527 110.952 c 171.336
 146.015 l 174.707 149.612 179.422 151.655 184.352 151.655 c 212.871 151.655
 l 212.871 105.304 l 127.602 105.304 l h
127.586 105.433 m f
Q Q
showpage
%%Trailer
end restore
%%EOF
