%!PS-Adobe-3.0 EPSF-3.0
%%Creator: cairo 1.14.2 (http://cairographics.org)
%%CreationDate: Wed May  2 08:31:25 2018
%%Pages: 1
%%DocumentData: Clean7Bit
%%LanguageLevel: 2
%%BoundingBox: 0 24 333 308
%%EndComments
%%BeginProlog
save
50 dict begin
/q { gsave } bind def
/Q { grestore } bind def
/cm { 6 array astore concat } bind def
/w { setlinewidth } bind def
/J { setlinecap } bind def
/j { setlinejoin } bind def
/M { setmiterlimit } bind def
/d { setdash } bind def
/m { moveto } bind def
/l { lineto } bind def
/c { curveto } bind def
/h { closepath } bind def
/re { exch dup neg 3 1 roll 5 3 roll moveto 0 rlineto
      0 exch rlineto 0 rlineto closepath } bind def
/S { stroke } bind def
/f { fill } bind def
/f* { eofill } bind def
/n { newpath } bind def
/W { clip } bind def
/W* { eoclip } bind def
/BT { } bind def
/ET { } bind def
/pdfmark where { pop globaldict /?pdfmark /exec load put }
    { globaldict begin /?pdfmark /pop load def /pdfmark
    /cleartomark load def end } ifelse
/BDC { mark 3 1 roll /BDC pdfmark } bind def
/EMC { mark /EMC pdfmark } bind def
/cairo_store_point { /cairo_point_y exch def /cairo_point_x exch def } def
/Tj { show currentpoint cairo_store_point } bind def
/TJ {
  {
    dup
    type /stringtype eq
    { show } { -0.001 mul 0 cairo_font_matrix dtransform rmoveto } ifelse
  } forall
  currentpoint cairo_store_point
} bind def
/cairo_selectfont { cairo_font_matrix aload pop pop pop 0 0 6 array astore
    cairo_font exch selectfont cairo_point_x cairo_point_y moveto } bind def
/Tf { pop /cairo_font exch def /cairo_font_matrix where
      { pop cairo_selectfont } if } bind def
/Td { matrix translate cairo_font_matrix matrix concatmatrix dup
      /cairo_font_matrix exch def dup 4 get exch 5 get cairo_store_point
      /cairo_font where { pop cairo_selectfont } if } bind def
/Tm { 2 copy 8 2 roll 6 array astore /cairo_font_matrix exch def
      cairo_store_point /cairo_font where { pop cairo_selectfont } if } bind def
/g { setgray } bind def
/rg { setrgbcolor } bind def
/d1 { setcachedevice } bind def
%%EndProlog
%%BeginSetup
%%EndSetup
%%Page: 1 1
%%BeginPageSetup
%%PageBoundingBox: 0 24 333 308
%%EndPageSetup
q 0 24 333 284 rectclip q
0 0.937255 0.819608 rg
332.895 130.326 m 332.895 71.47 l 332.898 65.267 327.867 60.236 321.664
 60.236 c 304.855 60.236 l 302.188 76.587 286.766 87.681 270.414 85.009 
c 257.691 82.935 247.719 72.958 245.641 60.236 c 223.047 60.236 l 223.047
 151.099 l 301.734 151.099 l 326.098 140.654 l 330.223 138.88 332.898 134.818
 332.895 130.326 c h
332.895 130.326 m f
0.831373 0.882353 0.956863 rg
304.855 60.236 m 305.109 58.642 305.238 57.029 305.238 55.412 c 305.215
 38.873 291.789 25.482 275.246 25.505 c 258.707 25.533 245.32 38.958 245.344
 55.498 c 245.367 72.041 258.793 85.427 275.336 85.404 c 290.012 85.384 
302.512 74.728 304.855 60.236 c h
304.855 60.236 m f
278.777 195.662 m 301.734 151.099 l 223.047 151.099 l 223.047 190.509 l
 223.047 196.712 228.074 201.744 234.281 201.748 c 268.785 201.748 l 272.992
 201.748 276.848 199.4 278.777 195.662 c h
278.777 195.662 m f
0 0.807843 0.705882 rg
223.047 128.38 m 223.047 60.236 l 87.496 60.236 l 86.953 60.142 l 84.344
 76.501 68.961 87.65 52.602 85.041 c 39.777 82.994 29.727 72.935 27.695 
60.107 c 26.953 60.236 l 0 60.236 l 0 128.38 l h
223.047 128.38 m f
0 0.67451 0.917647 rg
160.047 155.388 m 160.047 155.556 l 143.449 243.552 l 68.754 299.388 l 
39.07 299.388 l 40.848 297.865 l 97.309 243.646 l 80.848 155.556 l 80.848
 155.388 l 57.648 155.388 l 57.648 128.189 l 182.449 128.189 l 182.449 155.388
 l h
160.047 155.388 m f
0.831373 0.882353 0.956863 rg
86.953 60.142 m 87.195 58.576 87.32 56.998 87.32 55.412 c 87.293 38.873
 73.867 25.49 57.328 25.517 c 40.789 25.541 27.406 38.97 27.43 55.509 c 
27.457 72.048 40.887 85.431 57.422 85.404 c 72.137 85.38 84.652 74.673 86.953
 60.142 c h
86.953 60.142 m f
0.0313726 0.219608 0.388235 rg
40.754 198.142 m 28.613 198.142 18.359 208.802 18.359 221.419 c 18.359 
225.837 21.941 229.419 26.359 229.419 c 30.777 229.419 34.359 225.837 34.359
 221.419 c 34.359 217.677 37.465 214.142 40.754 214.142 c 44.438 214.142
 47.215 216.716 47.215 220.134 c 47.215 223.599 44.539 226.119 40.848 226.119
 c 36.43 226.119 32.848 229.697 32.848 234.119 c 32.848 299.388 l 32.848
 303.806 36.43 307.388 40.848 307.388 c 45.266 307.388 48.848 303.806 48.848
 299.388 c 48.848 240.72 l 57.516 237.595 63.273 229.349 63.215 220.134 
c 63.215 207.802 53.348 198.142 40.754 198.142 c h
40.754 198.142 m f
Q Q
showpage
%%Trailer
end restore
%%EOF
