%!PS-Adobe-3.0 EPSF-3.0
%%Creator: cairo 1.14.2 (http://cairographics.org)
%%CreationDate: Wed May  2 08:31:25 2018
%%Pages: 1
%%DocumentData: Clean7Bit
%%LanguageLevel: 2
%%BoundingBox: 5 -1 279 284
%%EndComments
%%BeginProlog
save
50 dict begin
/q { gsave } bind def
/Q { grestore } bind def
/cm { 6 array astore concat } bind def
/w { setlinewidth } bind def
/J { setlinecap } bind def
/j { setlinejoin } bind def
/M { setmiterlimit } bind def
/d { setdash } bind def
/m { moveto } bind def
/l { lineto } bind def
/c { curveto } bind def
/h { closepath } bind def
/re { exch dup neg 3 1 roll 5 3 roll moveto 0 rlineto
      0 exch rlineto 0 rlineto closepath } bind def
/S { stroke } bind def
/f { fill } bind def
/f* { eofill } bind def
/n { newpath } bind def
/W { clip } bind def
/W* { eoclip } bind def
/BT { } bind def
/ET { } bind def
/pdfmark where { pop globaldict /?pdfmark /exec load put }
    { globaldict begin /?pdfmark /pop load def /pdfmark
    /cleartomark load def end } ifelse
/BDC { mark 3 1 roll /BDC pdfmark } bind def
/EMC { mark /EMC pdfmark } bind def
/cairo_store_point { /cairo_point_y exch def /cairo_point_x exch def } def
/Tj { show currentpoint cairo_store_point } bind def
/TJ {
  {
    dup
    type /stringtype eq
    { show } { -0.001 mul 0 cairo_font_matrix dtransform rmoveto } ifelse
  } forall
  currentpoint cairo_store_point
} bind def
/cairo_selectfont { cairo_font_matrix aload pop pop pop 0 0 6 array astore
    cairo_font exch selectfont cairo_point_x cairo_point_y moveto } bind def
/Tf { pop /cairo_font exch def /cairo_font_matrix where
      { pop cairo_selectfont } if } bind def
/Td { matrix translate cairo_font_matrix matrix concatmatrix dup
      /cairo_font_matrix exch def dup 4 get exch 5 get cairo_store_point
      /cairo_font where { pop cairo_selectfont } if } bind def
/Tm { 2 copy 8 2 roll 6 array astore /cairo_font_matrix exch def
      cairo_store_point /cairo_font where { pop cairo_selectfont } if } bind def
/g { setgray } bind def
/rg { setrgbcolor } bind def
/d1 { setcachedevice } bind def
%%EndProlog
%%BeginSetup
%%EndSetup
%%Page: 1 1
%%BeginPageSetup
%%PageBoundingBox: 5 -1 279 284
%%EndPageSetup
q 5 -1 274 285 rectclip q
0 0.67451 0.917647 rg
278.098 154.528 m 278.098 124.024 l 255.762 121.841 l 253.566 111.946 249.602
 102.532 244.047 94.055 c 258.488 76.626 l 236.969 55.11 l 219.535 69.544
 l 211.086 63.946 201.66 59.973 191.754 57.833 c 189.574 35.223 l 156 35.223
 l 156 99.489 l 156.031 99.489 l 178.004 89.399 204 99.032 214.086 121.009
 c 224.176 142.981 214.543 168.973 192.566 179.063 c 180.961 184.391 167.602
 184.388 156 179.048 c 156 243.329 l 189.574 243.329 l 191.754 220.72 l 
201.645 218.524 211.059 214.555 219.535 209.009 c 236.969 223.438 l 258.215
 201.919 l 243.777 184.489 l 249.379 176.036 253.348 166.614 255.488 156.704
 c h
278.098 154.528 m f
0.831373 0.882353 0.956863 rg
156 179.048 m 156 174.231 l 131.633 174.231 l 131.324 195.657 113.707 212.778
 92.277 212.47 c 71.285 212.169 54.34 195.223 54.039 174.231 c 22.93 174.231
 l 46.871 238.841 l 49.918 247.067 57.762 252.528 66.535 252.528 c 156 252.528
 l h
156 179.048 m f
131.633 174.231 m 54.039 174.231 l 54.348 195.657 71.965 212.778 93.395
 212.47 c 114.387 212.169 131.332 195.223 131.633 174.231 c h
131.633 174.231 m f
0 0.67451 0.917647 rg
131.633 166.231 m 127.215 166.231 123.633 169.813 123.633 174.231 c 123.359
 191.239 109.348 204.805 92.34 204.532 c 75.719 204.263 62.309 190.856 62.039
 174.231 c 62.039 169.813 58.457 166.231 54.039 166.231 c 49.621 166.231
 46.039 169.813 46.039 174.231 c 46.379 200.075 67.602 220.755 93.449 220.415
 c 118.816 220.083 139.301 199.598 139.633 174.231 c 139.633 169.813 136.051
 166.231 131.633 166.231 c h
131.633 166.231 m f
0 0.937255 0.819608 rg
156 99.489 m 156 66.919 l 26.07 66.919 l 14.492 66.923 5.102 76.309 5.105
 87.891 c 5.105 142.497 l 5.102 151.149 8.668 159.423 14.961 165.36 c 23.977
 173.88 l 23.977 174.231 l 156 174.231 l h
156 99.489 m f
0.831373 0.882353 0.956863 rg
64.52 66.567 m 64.52 47.001 l 64.523 35.419 55.137 26.028 43.555 26.024
 c 26.07 26.024 l 14.492 26.024 5.102 35.415 5.105 46.997 c 5.105 87.895
 l 5.102 76.313 14.488 66.923 26.07 66.919 c 64.52 66.919 l h
64.52 66.567 m f
0 0.67451 0.917647 rg
151.879 99.122 m 121.32 99.122 l 116.902 99.122 113.32 102.7 113.32 107.122
 c 113.32 111.54 116.902 115.122 121.32 115.122 c 151.879 115.122 l 156.297
 115.122 159.879 111.54 159.879 107.122 c 159.879 102.7 156.297 99.122 151.879
 99.122 c h
151.879 99.122 m f
151.879 119.391 m 121.32 119.391 l 116.902 119.391 113.32 122.973 113.32
 127.391 c 113.32 131.809 116.902 135.391 121.32 135.391 c 151.879 135.391
 l 156.297 135.391 159.879 131.809 159.879 127.391 c 159.879 122.973 156.297
 119.391 151.879 119.391 c h
151.879 119.391 m f
0 0.807843 0.705882 rg
156 0.001 m 151.582 0.001 148 3.583 148 8.001 c 148 275.2 l 148 279.618
 151.582 283.2 156 283.2 c 160.418 283.2 164 279.618 164 275.2 c 164 8.001
 l 164 3.583 160.418 0.001 156 0.001 c h
156 0.001 m f
0.831373 0.882353 0.956863 rg
35.863 134.384 49.984 -34.254 re f
Q Q
showpage
%%Trailer
end restore
%%EOF
