%!PS-Adobe-3.0 EPSF-3.0
%%Creator: cairo 1.14.2 (http://cairographics.org)
%%CreationDate: Wed May  2 08:31:25 2018
%%Pages: 1
%%DocumentData: Clean7Bit
%%LanguageLevel: 2
%%BoundingBox: 0 14 366 351
%%EndComments
%%BeginProlog
save
50 dict begin
/q { gsave } bind def
/Q { grestore } bind def
/cm { 6 array astore concat } bind def
/w { setlinewidth } bind def
/J { setlinecap } bind def
/j { setlinejoin } bind def
/M { setmiterlimit } bind def
/d { setdash } bind def
/m { moveto } bind def
/l { lineto } bind def
/c { curveto } bind def
/h { closepath } bind def
/re { exch dup neg 3 1 roll 5 3 roll moveto 0 rlineto
      0 exch rlineto 0 rlineto closepath } bind def
/S { stroke } bind def
/f { fill } bind def
/f* { eofill } bind def
/n { newpath } bind def
/W { clip } bind def
/W* { eoclip } bind def
/BT { } bind def
/ET { } bind def
/pdfmark where { pop globaldict /?pdfmark /exec load put }
    { globaldict begin /?pdfmark /pop load def /pdfmark
    /cleartomark load def end } ifelse
/BDC { mark 3 1 roll /BDC pdfmark } bind def
/EMC { mark /EMC pdfmark } bind def
/cairo_store_point { /cairo_point_y exch def /cairo_point_x exch def } def
/Tj { show currentpoint cairo_store_point } bind def
/TJ {
  {
    dup
    type /stringtype eq
    { show } { -0.001 mul 0 cairo_font_matrix dtransform rmoveto } ifelse
  } forall
  currentpoint cairo_store_point
} bind def
/cairo_selectfont { cairo_font_matrix aload pop pop pop 0 0 6 array astore
    cairo_font exch selectfont cairo_point_x cairo_point_y moveto } bind def
/Tf { pop /cairo_font exch def /cairo_font_matrix where
      { pop cairo_selectfont } if } bind def
/Td { matrix translate cairo_font_matrix matrix concatmatrix dup
      /cairo_font_matrix exch def dup 4 get exch 5 get cairo_store_point
      /cairo_font where { pop cairo_selectfont } if } bind def
/Tm { 2 copy 8 2 roll 6 array astore /cairo_font_matrix exch def
      cairo_store_point /cairo_font where { pop cairo_selectfont } if } bind def
/g { setgray } bind def
/rg { setrgbcolor } bind def
/d1 { setcachedevice } bind def
%%EndProlog
%%BeginSetup
%%EndSetup
%%Page: 1 1
%%BeginPageSetup
%%PageBoundingBox: 0 14 366 351
%%EndPageSetup
q 0 14 366 337 rectclip q
0 0.937255 0.819608 rg
365.953 99.948 m 365.953 74.554 l 365.957 60.018 354.176 48.229 339.641
 48.225 c 324.426 48.225 l 323.703 48.292 l 323.793 49.284 323.832 50.284
 323.832 51.3 c 323.82 70.929 307.898 86.835 288.266 86.823 c 268.652 86.811
 252.754 70.913 252.742 51.3 c 252.742 50.284 252.785 49.276 252.871 48.276
 c 252.305 48.225 l 109.258 48.225 l 108.688 48.276 l 108.777 49.276 108.816
 50.284 108.816 51.3 c 108.816 70.925 92.906 86.839 73.277 86.843 c 53.652
 86.843 37.738 70.932 37.734 51.304 c 37.734 51.3 l 37.734 50.264 37.785
 49.233 37.871 48.225 c 26.328 48.225 l 11.793 48.222 0.004 60.003 0 74.538
 c 0 96.796 l -0.004 108.663 7.938 119.065 19.383 122.194 c 80.297 138.835
 l 116.711 186.651 l 123.352 195.37 133.68 200.491 144.641 200.491 c 259.641
 200.491 l 271.73 200.487 282.973 194.264 289.391 184.018 c 317.688 138.835
 l 350.52 123.913 l 359.918 119.643 365.953 110.272 365.953 99.948 c h
365.953 99.948 m f
0.831373 0.882353 0.956863 rg
323.832 51.3 m 323.832 50.284 323.793 49.284 323.703 48.292 c 322.043 28.729
 304.84 14.218 285.281 15.878 c 268.031 17.343 254.344 31.022 252.871 48.276
 c 252.785 49.276 252.742 50.284 252.742 51.3 c 252.742 70.929 268.656 86.843
 288.289 86.843 c 307.918 86.843 323.832 70.929 323.832 51.3 c h
323.832 51.3 m f
0 0.67451 0.917647 rg
319.77 317.577 m 286.945 320.307 l 286.754 320.057 l 279.582 310.628 279.656
 297.557 286.938 288.21 c 286.945 288.202 l 319.566 290.737 l 313.777 267.569
 295.824 256.186 274.594 256.186 c 255.09 255.995 238.297 268.921 231.152
 284.179 c 136.535 284.179 l 130.359 263.714 112.602 251.745 91.359 251.745
 c 70.121 251.745 52.176 263.522 46.184 284.179 c 79.008 281.452 l 79.199
 281.698 l 86.371 291.124 86.293 304.194 79.016 313.538 c 79.008 313.546
 l 46.383 311.011 l 51.785 334.561 69.742 345.956 90.977 345.956 c 110.281
 345.956 127.273 333.21 134.609 317.772 c 229.609 317.772 l 235.785 338.233
 253.543 350.202 274.785 350.202 c 295.824 350.011 313.777 338.233 319.77
 317.577 c h
319.77 317.577 m f
0.831373 0.882353 0.956863 rg
37.871 48.225 m 37.785 49.233 37.734 50.264 37.734 51.3 c 37.734 70.925
 53.645 86.839 73.273 86.843 c 92.902 86.843 108.812 70.932 108.816 51.304
 c 108.816 51.3 l 108.816 50.284 108.777 49.276 108.688 48.276 c 107.023
 28.718 89.816 14.214 70.262 15.882 c 53.035 17.35 39.363 31.003 37.871 
48.225 c h
37.871 48.225 m f
Q Q
showpage
%%Trailer
end restore
%%EOF
