%!PS-Adobe-3.0 EPSF-3.0
%%Creator: cairo 1.14.2 (http://cairographics.org)
%%CreationDate: Wed May  2 08:31:25 2018
%%Pages: 1
%%DocumentData: Clean7Bit
%%LanguageLevel: 2
%%BoundingBox: 26 -1 323 349
%%EndComments
%%BeginProlog
save
50 dict begin
/q { gsave } bind def
/Q { grestore } bind def
/cm { 6 array astore concat } bind def
/w { setlinewidth } bind def
/J { setlinecap } bind def
/j { setlinejoin } bind def
/M { setmiterlimit } bind def
/d { setdash } bind def
/m { moveto } bind def
/l { lineto } bind def
/c { curveto } bind def
/h { closepath } bind def
/re { exch dup neg 3 1 roll 5 3 roll moveto 0 rlineto
      0 exch rlineto 0 rlineto closepath } bind def
/S { stroke } bind def
/f { fill } bind def
/f* { eofill } bind def
/n { newpath } bind def
/W { clip } bind def
/W* { eoclip } bind def
/BT { } bind def
/ET { } bind def
/pdfmark where { pop globaldict /?pdfmark /exec load put }
    { globaldict begin /?pdfmark /pop load def /pdfmark
    /cleartomark load def end } ifelse
/BDC { mark 3 1 roll /BDC pdfmark } bind def
/EMC { mark /EMC pdfmark } bind def
/cairo_store_point { /cairo_point_y exch def /cairo_point_x exch def } def
/Tj { show currentpoint cairo_store_point } bind def
/TJ {
  {
    dup
    type /stringtype eq
    { show } { -0.001 mul 0 cairo_font_matrix dtransform rmoveto } ifelse
  } forall
  currentpoint cairo_store_point
} bind def
/cairo_selectfont { cairo_font_matrix aload pop pop pop 0 0 6 array astore
    cairo_font exch selectfont cairo_point_x cairo_point_y moveto } bind def
/Tf { pop /cairo_font exch def /cairo_font_matrix where
      { pop cairo_selectfont } if } bind def
/Td { matrix translate cairo_font_matrix matrix concatmatrix dup
      /cairo_font_matrix exch def dup 4 get exch 5 get cairo_store_point
      /cairo_font where { pop cairo_selectfont } if } bind def
/Tm { 2 copy 8 2 roll 6 array astore /cairo_font_matrix exch def
      cairo_store_point /cairo_font where { pop cairo_selectfont } if } bind def
/g { setgray } bind def
/rg { setrgbcolor } bind def
/d1 { setcachedevice } bind def
%%EndProlog
%%BeginSetup
%%EndSetup
%%Page: 1 1
%%BeginPageSetup
%%PageBoundingBox: 26 -1 323 349
%%EndPageSetup
q 26 -1 297 350 rectclip q
0.831373 0.882353 0.956863 rg
322.129 61.657 m 322.129 20.896 l 322.125 9.353 312.766 0.001 301.223 0.001
 c 283.809 0.001 l 272.27 0.005 262.914 9.357 262.91 20.896 c 262.91 40.751
 l 301.223 40.751 l 312.77 40.751 322.129 50.11 322.129 61.657 c h
322.129 61.657 m f
0 0.937255 0.819608 rg
322.129 65.278 m 322.129 60.056 l 322.129 48.513 312.77 39.153 301.223 
39.153 c 47.656 39.153 l 36.109 39.153 26.754 48.513 26.754 60.056 c 26.754
 112.064 l 26.75 121.271 30.801 130.013 37.824 135.97 c 49.742 146.087 l
 303.312 146.087 l 303.312 145.735 l 312.305 137.247 l 318.57 131.325 322.125
 123.087 322.129 114.466 c h
322.129 65.278 m f
0.831373 0.882353 0.956863 rg
280.504 210.474 m 304.359 146.087 l 273.359 146.087 l 273.359 167.443 256.051
 184.751 234.695 184.751 c 213.344 184.751 196.031 167.443 196.031 146.087
 c 48.695 146.087 l 72.551 210.474 l 75.594 218.669 83.41 224.11 92.152 
224.11 c 260.902 224.11 l 269.645 224.11 277.465 218.669 280.504 210.474
 c h
280.504 210.474 m f
0 0.67451 0.917647 rg
304.168 317.935 m 273.039 320.528 l 272.863 320.286 l 266.062 311.349 266.137
 298.95 273.039 290.087 c 273.039 290.079 l 303.984 292.489 l 298.496 270.513
 281.465 259.712 261.328 259.712 c 242.832 259.528 226.902 271.802 220.129
 286.263 c 130.398 286.263 l 124.543 266.857 107.695 255.505 87.551 255.505
 c 67.406 255.505 50.383 266.673 44.711 286.263 c 75.84 283.673 l 76.016
 283.911 l 82.816 292.853 82.742 305.251 75.84 314.11 c 75.84 314.118 l 
44.895 311.712 l 50.023 334.048 67.047 344.849 87.191 344.849 c 105.496 
344.849 121.609 332.767 128.566 318.118 c 218.664 318.118 l 224.52 337.528
 241.367 348.88 261.504 348.88 c 281.465 348.696 298.496 337.528 304.168
 317.935 c h
304.168 317.935 m f
0.831373 0.882353 0.956863 rg
273.359 146.087 m 196.031 146.087 l 196.031 167.443 213.344 184.751 234.695
 184.751 c 256.051 184.751 273.359 167.443 273.359 146.087 c h
273.359 146.087 m f
85.969 40.407 m 85.969 20.896 l 85.965 9.357 76.609 0.005 65.07 0.001 c
 47.656 0.001 l 36.113 0.001 26.758 9.353 26.754 20.896 c 26.754 61.657 
l 26.754 50.11 36.109 40.751 47.656 40.751 c 85.969 40.751 l h
85.969 40.407 m f
0 0.67451 0.917647 rg
281.359 146.087 m 265.359 146.087 l 265.355 163.025 251.625 176.751 234.691
 176.747 c 217.758 176.743 204.035 163.021 204.031 146.087 c 188.031 146.087
 l 188.035 171.86 208.93 192.751 234.703 192.747 c 260.469 192.743 281.355
 171.857 281.359 146.087 c h
281.359 146.087 m f
206.312 71.208 m 142.566 71.208 l 138.148 71.208 134.566 74.79 134.566 
79.208 c 134.566 83.626 138.148 87.208 142.566 87.208 c 206.312 87.208 l
 210.73 87.208 214.312 83.626 214.312 79.208 c 214.312 74.79 210.73 71.208
 206.312 71.208 c h
206.312 71.208 m f
206.312 91.407 m 142.566 91.407 l 138.148 91.407 134.566 94.989 134.566
 99.407 c 134.566 103.825 138.148 107.407 142.566 107.407 c 206.312 107.407
 l 210.73 107.407 214.312 103.825 214.312 99.407 c 214.312 94.989 210.73
 91.407 206.312 91.407 c h
206.312 91.407 m f
0.831373 0.882353 0.956863 rg
241.664 106.376 49.809 -34.137 re f
57.406 106.376 49.809 -34.137 re f
Q Q
showpage
%%Trailer
end restore
%%EOF
