%!PS-Adobe-3.0 EPSF-3.0
%%Creator: cairo 1.14.2 (http://cairographics.org)
%%CreationDate: Wed May  2 08:31:25 2018
%%Pages: 1
%%DocumentData: Clean7Bit
%%LanguageLevel: 2
%%BoundingBox: 0 15 371 355
%%EndComments
%%BeginProlog
save
50 dict begin
/q { gsave } bind def
/Q { grestore } bind def
/cm { 6 array astore concat } bind def
/w { setlinewidth } bind def
/J { setlinecap } bind def
/j { setlinejoin } bind def
/M { setmiterlimit } bind def
/d { setdash } bind def
/m { moveto } bind def
/l { lineto } bind def
/c { curveto } bind def
/h { closepath } bind def
/re { exch dup neg 3 1 roll 5 3 roll moveto 0 rlineto
      0 exch rlineto 0 rlineto closepath } bind def
/S { stroke } bind def
/f { fill } bind def
/f* { eofill } bind def
/n { newpath } bind def
/W { clip } bind def
/W* { eoclip } bind def
/BT { } bind def
/ET { } bind def
/pdfmark where { pop globaldict /?pdfmark /exec load put }
    { globaldict begin /?pdfmark /pop load def /pdfmark
    /cleartomark load def end } ifelse
/BDC { mark 3 1 roll /BDC pdfmark } bind def
/EMC { mark /EMC pdfmark } bind def
/cairo_store_point { /cairo_point_y exch def /cairo_point_x exch def } def
/Tj { show currentpoint cairo_store_point } bind def
/TJ {
  {
    dup
    type /stringtype eq
    { show } { -0.001 mul 0 cairo_font_matrix dtransform rmoveto } ifelse
  } forall
  currentpoint cairo_store_point
} bind def
/cairo_selectfont { cairo_font_matrix aload pop pop pop 0 0 6 array astore
    cairo_font exch selectfont cairo_point_x cairo_point_y moveto } bind def
/Tf { pop /cairo_font exch def /cairo_font_matrix where
      { pop cairo_selectfont } if } bind def
/Td { matrix translate cairo_font_matrix matrix concatmatrix dup
      /cairo_font_matrix exch def dup 4 get exch 5 get cairo_store_point
      /cairo_font where { pop cairo_selectfont } if } bind def
/Tm { 2 copy 8 2 roll 6 array astore /cairo_font_matrix exch def
      cairo_store_point /cairo_font where { pop cairo_selectfont } if } bind def
/g { setgray } bind def
/rg { setrgbcolor } bind def
/d1 { setcachedevice } bind def
%%EndProlog
%%BeginSetup
%%EndSetup
%%Page: 1 1
%%BeginPageSetup
%%PageBoundingBox: 0 15 371 355
%%EndPageSetup
q 0 15 371 340 rectclip q
0 0.807843 0.705882 rg
370.625 126.218 m 370.625 74.8 l 370.621 60.831 359.297 49.507 345.328 
49.507 c 332.68 49.507 l 332.559 49.515 l 332.641 50.483 332.68 51.464 332.68
 52.456 c 332.68 72.487 316.441 88.722 296.414 88.718 c 276.387 88.718 260.152
 72.483 260.152 52.456 c 260.152 51.464 260.191 50.483 260.273 49.515 c 
260.152 49.507 l 207.871 49.507 l 207.871 137.202 l 368.105 137.202 l 369.766
 133.78 370.625 130.022 370.625 126.218 c h
370.625 126.218 m f
0.831373 0.882353 0.956863 rg
332.68 52.456 m 332.68 51.464 332.641 50.483 332.559 49.515 c 330.934 29.554
 313.43 14.69 293.469 16.319 c 275.766 17.761 261.715 31.811 260.273 49.515
 c 260.191 50.483 260.152 51.464 260.152 52.456 c 260.152 72.487 276.391
 88.722 296.418 88.718 c 316.445 88.718 332.68 72.483 332.68 52.456 c h
332.68 52.456 m f
0 0.67451 0.917647 rg
316.543 323.081 m 285.008 325.706 l 284.824 325.464 l 277.938 316.405 278.008
 303.847 285 294.866 c 285.008 294.858 l 316.359 297.296 l 310.793 275.034
 293.535 264.089 273.137 264.089 c 254.398 263.905 238.258 276.339 231.391
 290.987 c 140.48 290.987 l 134.543 271.323 117.473 259.827 97.07 259.827
 c 76.672 259.827 59.406 271.136 53.656 290.987 c 85.199 288.37 l 85.383
 288.608 l 92.273 297.671 92.199 310.233 85.199 319.21 c 53.848 316.776 
l 59.039 339.409 76.297 350.354 96.695 350.354 c 115.246 350.354 131.574
 338.104 138.625 323.265 c 229.91 323.265 l 235.848 342.929 252.91 354.433
 273.32 354.433 c 293.535 354.249 310.793 342.929 316.543 323.081 c h
316.543 323.081 m f
0 0.937255 0.819608 rg
207.871 137.202 m 207.871 49.507 l 110.887 49.507 l 110.77 49.515 l 110.848
 50.483 110.887 51.464 110.887 52.456 c 110.887 72.483 94.652 88.718 74.625
 88.714 c 54.602 88.714 38.371 72.479 38.367 52.456 c 38.367 51.464 38.406
 50.483 38.488 49.515 c 38.367 49.507 l 25.297 49.507 l 11.328 49.507 0 
60.831 0 74.8 c 0 95.042 l 0 118.327 18.875 137.202 42.16 137.202 c 83.895
 137.202 l 84.879 137.198 85.863 137.257 86.84 137.378 c 86.855 137.202 
l h
207.871 137.202 m f
0.831373 0.882353 0.956863 rg
110.887 52.456 m 110.887 51.464 110.848 50.483 110.77 49.515 c 109.145 
29.554 91.648 14.69 71.691 16.311 c 53.984 17.749 39.926 31.808 38.488 49.515
 c 38.406 50.483 38.367 51.464 38.367 52.456 c 38.375 72.483 54.617 88.71
 74.645 88.702 c 94.656 88.694 110.879 72.472 110.887 52.456 c h
110.887 52.456 m f
0 0.67451 0.917647 rg
289.246 246.913 m 167.816 246.913 l 163.398 246.913 159.816 243.331 159.816
 238.913 c 159.816 234.495 163.398 230.913 167.816 230.913 c 181.312 230.913
 l 181.312 201.315 l 197.312 201.315 l 197.312 230.913 l 259.711 230.913
 l 259.711 201.315 l 275.711 201.315 l 275.711 230.913 l 289.246 230.913
 l 293.668 230.913 297.246 234.495 297.246 238.913 c 297.246 243.331 293.668
 246.913 289.246 246.913 c h
289.246 246.913 m f
0.831373 0.882353 0.956863 rg
368.105 137.202 m 286.719 137.202 l 256.359 202.561 l 256.359 202.987 l
 290.23 202.987 l 296.645 202.983 302.82 200.55 307.504 196.171 c 362.602
 144.706 l 364.891 142.573 366.758 140.026 368.105 137.202 c h
368.105 137.202 m f
0.772549 0.839216 0.917647 rg
256.359 202.561 m 286.719 137.202 l 207.871 137.202 l 207.871 202.987 l
 256.359 202.987 l h
256.359 202.561 m f
0.831373 0.882353 0.956863 rg
207.871 137.202 m 86.855 137.202 l 86.84 137.378 l 92.781 138.069 98.285
 140.847 102.367 145.218 c 148.93 194.968 l 153.711 200.081 160.398 202.983
 167.398 202.987 c 207.871 202.987 l h
207.871 137.202 m f
Q Q
showpage
%%Trailer
end restore
%%EOF
