%!PS-Adobe-3.0 EPSF-3.0
%%Creator: cairo 1.14.2 (http://cairographics.org)
%%CreationDate: Wed May  2 08:31:25 2018
%%Pages: 1
%%DocumentData: Clean7Bit
%%LanguageLevel: 2
%%BoundingBox: 2 -1 315 317
%%EndComments
%%BeginProlog
save
50 dict begin
/q { gsave } bind def
/Q { grestore } bind def
/cm { 6 array astore concat } bind def
/w { setlinewidth } bind def
/J { setlinecap } bind def
/j { setlinejoin } bind def
/M { setmiterlimit } bind def
/d { setdash } bind def
/m { moveto } bind def
/l { lineto } bind def
/c { curveto } bind def
/h { closepath } bind def
/re { exch dup neg 3 1 roll 5 3 roll moveto 0 rlineto
      0 exch rlineto 0 rlineto closepath } bind def
/S { stroke } bind def
/f { fill } bind def
/f* { eofill } bind def
/n { newpath } bind def
/W { clip } bind def
/W* { eoclip } bind def
/BT { } bind def
/ET { } bind def
/pdfmark where { pop globaldict /?pdfmark /exec load put }
    { globaldict begin /?pdfmark /pop load def /pdfmark
    /cleartomark load def end } ifelse
/BDC { mark 3 1 roll /BDC pdfmark } bind def
/EMC { mark /EMC pdfmark } bind def
/cairo_store_point { /cairo_point_y exch def /cairo_point_x exch def } def
/Tj { show currentpoint cairo_store_point } bind def
/TJ {
  {
    dup
    type /stringtype eq
    { show } { -0.001 mul 0 cairo_font_matrix dtransform rmoveto } ifelse
  } forall
  currentpoint cairo_store_point
} bind def
/cairo_selectfont { cairo_font_matrix aload pop pop pop 0 0 6 array astore
    cairo_font exch selectfont cairo_point_x cairo_point_y moveto } bind def
/Tf { pop /cairo_font exch def /cairo_font_matrix where
      { pop cairo_selectfont } if } bind def
/Td { matrix translate cairo_font_matrix matrix concatmatrix dup
      /cairo_font_matrix exch def dup 4 get exch 5 get cairo_store_point
      /cairo_font where { pop cairo_selectfont } if } bind def
/Tm { 2 copy 8 2 roll 6 array astore /cairo_font_matrix exch def
      cairo_store_point /cairo_font where { pop cairo_selectfont } if } bind def
/g { setgray } bind def
/rg { setrgbcolor } bind def
/d1 { setcachedevice } bind def
%%EndProlog
%%BeginSetup
%%EndSetup
%%Page: 1 1
%%BeginPageSetup
%%PageBoundingBox: 2 -1 315 317
%%EndPageSetup
q 2 -1 313 318 rectclip q
0 0.807843 0.705882 rg
303.176 99.162 m 303.793 99.376 l 305.219 96.513 305.961 93.357 305.961
 90.162 c 305.961 48.025 l 305.961 36.576 296.68 27.294 285.23 27.294 c 
274.863 27.294 l 274.77 27.302 l 274.832 28.095 274.863 28.904 274.863 29.712
 c 274.863 46.123 261.559 59.427 245.148 59.427 c 228.734 59.427 215.434
 46.123 215.434 29.712 c 215.434 28.904 215.465 28.095 215.527 27.302 c 
215.434 27.294 l 172.594 27.294 l 172.594 99.162 l h
303.176 99.162 m f
0.831373 0.882353 0.956863 rg
299.383 105.31 m 263.344 138.974 l 261.703 139.455 l 259.52 138.337 257.281
 137.291 254.992 136.322 c 216.246 146.33 l 216.23 146.15 l 237.199 98.849
 l 303.176 98.849 l 303.793 99.22 l 302.695 101.498 301.203 103.56 299.383
 105.31 c h
299.383 105.31 m f
274.863 29.712 m 274.863 28.904 274.832 28.095 274.77 27.302 c 273.434 
10.947 259.09 -1.233 242.73 0.099 c 228.227 1.283 216.711 12.798 215.527
 27.302 c 215.465 28.095 215.434 28.904 215.434 29.712 c 215.434 46.123 
228.734 59.427 245.148 59.427 c 261.559 59.427 274.863 46.123 274.863 29.712
 c h
274.863 29.712 m f
216.23 146.302 m 237.199 99.162 l 172.594 99.162 l 172.594 153.064 l 207.344
 153.064 l 207.609 153.353 l 210.352 150.849 213.238 148.501 216.246 146.33
 c h
216.23 146.302 m f
0 0.937255 0.819608 rg
172.594 99.162 m 172.594 27.294 l 93.121 27.294 l 93.023 27.302 l 93.09
 28.095 93.121 28.904 93.121 29.712 c 93.117 46.123 79.809 59.427 63.398
 59.423 c 46.992 59.419 33.691 46.119 33.688 29.712 c 33.688 28.904 33.719
 28.095 33.785 27.302 c 33.688 27.294 l 22.984 27.294 l 11.535 27.294 2.25
 36.572 2.246 48.021 c 2.246 64.607 l 2.246 83.689 17.715 99.158 36.797 
99.162 c 71 99.162 l 71.805 99.162 72.609 99.208 73.406 99.302 c 73.426 
99.162 l h
172.594 99.162 m f
0.831373 0.882353 0.956863 rg
93.121 29.712 m 93.121 28.904 93.09 28.095 93.023 27.302 c 91.691 10.947
 77.348 -1.233 60.988 0.099 c 46.48 1.283 34.969 12.798 33.785 27.302 c 
33.719 28.095 33.688 28.904 33.688 29.712 c 33.691 46.123 46.996 59.427 
63.41 59.423 c 79.816 59.419 93.117 46.119 93.121 29.712 c h
93.121 29.712 m f
172.594 99.162 m 73.426 99.162 l 73.406 99.302 l 78.277 99.869 82.789 102.146
 86.137 105.728 c 124.297 146.498 l 128.215 150.685 133.695 153.064 139.434
 153.064 c 172.594 153.064 l h
172.594 99.162 m f
0 0.67451 0.917647 rg
184.711 186.849 m 139.77 186.849 l 135.348 186.849 131.77 183.267 131.77
 178.849 c 131.77 174.431 135.348 170.849 139.77 170.849 c 149.246 170.849
 l 149.246 153.248 l 165.246 153.248 l 165.246 170.849 l 184.711 170.849
 l 189.129 170.849 192.711 174.431 192.711 178.849 c 192.711 183.267 189.129
 186.849 184.711 186.849 c h
184.711 186.849 m f
314.648 279.048 m 314.648 226.455 l 314.645 189.419 293.887 155.505 260.902
 138.658 c 258.719 137.537 256.48 136.49 254.191 135.521 c 243.375 130.857
 l 233.793 135.033 l 197.852 150.755 174.609 186.244 174.559 225.47 c 174.559
 279.048 l 243.625 316.896 l h
314.648 279.048 m f
0.831373 0.882353 0.956863 rg
283.254 244.041 m 280.465 247.466 275.426 247.986 272 245.197 c 234.555
 214.736 l 220.945 230.666 l 218.078 234.029 213.027 234.423 209.668 231.556
 c 206.309 228.689 205.91 223.638 208.777 220.275 c 227.461 198.404 l 227.547
 198.302 227.645 198.212 227.738 198.115 c 227.832 198.017 227.926 197.908
 228.023 197.814 c 228.145 197.701 228.27 197.599 228.395 197.494 c 228.496
 197.408 228.598 197.314 228.707 197.232 c 228.836 197.13 228.973 197.044
 229.105 196.955 c 229.215 196.88 229.32 196.806 229.43 196.736 c 229.574
 196.65 229.727 196.576 229.875 196.498 c 229.984 196.443 230.09 196.38 
230.199 196.33 c 230.359 196.255 230.527 196.197 230.691 196.134 c 230.797
 196.095 230.898 196.048 231.004 196.009 c 231.18 195.955 231.359 195.908
 231.539 195.865 c 231.637 195.837 231.734 195.806 231.836 195.783 c 232.035
 195.74 232.234 195.712 232.438 195.685 c 232.52 195.673 232.598 195.654
 232.688 195.646 c 232.969 195.615 233.258 195.599 233.543 195.599 c 233.77
 195.599 233.996 195.607 234.223 195.626 c 234.289 195.634 234.359 195.646
 234.426 195.654 c 234.586 195.669 234.738 195.689 234.895 195.716 c 234.984
 195.728 235.07 195.751 235.16 195.771 c 235.293 195.798 235.426 195.826
 235.559 195.857 c 235.66 195.884 235.758 195.919 235.855 195.947 c 235.973
 195.982 236.094 196.017 236.215 196.06 c 236.32 196.095 236.418 196.138
 236.523 196.181 c 236.625 196.224 236.746 196.271 236.855 196.318 c 236.965
 196.369 237.062 196.423 237.168 196.478 c 237.27 196.537 237.375 196.583
 237.477 196.638 c 237.578 196.697 237.684 196.763 237.785 196.83 c 237.887
 196.892 237.98 196.951 238.078 197.017 c 238.172 197.083 238.273 197.162
 238.371 197.236 c 238.441 197.291 238.516 197.337 238.586 197.396 c 282.09
 232.787 l 285.52 235.572 286.039 240.611 283.254 244.041 c h
283.254 244.041 m f
Q Q
showpage
%%Trailer
end restore
%%EOF
