%!PS-Adobe-3.0 EPSF-3.0
%%Creator: cairo 1.14.2 (http://cairographics.org)
%%CreationDate: Wed May  2 08:31:25 2018
%%Pages: 1
%%DocumentData: Clean7Bit
%%LanguageLevel: 2
%%BoundingBox: 0 4 324 319
%%EndComments
%%BeginProlog
save
50 dict begin
/q { gsave } bind def
/Q { grestore } bind def
/cm { 6 array astore concat } bind def
/w { setlinewidth } bind def
/J { setlinecap } bind def
/j { setlinejoin } bind def
/M { setmiterlimit } bind def
/d { setdash } bind def
/m { moveto } bind def
/l { lineto } bind def
/c { curveto } bind def
/h { closepath } bind def
/re { exch dup neg 3 1 roll 5 3 roll moveto 0 rlineto
      0 exch rlineto 0 rlineto closepath } bind def
/S { stroke } bind def
/f { fill } bind def
/f* { eofill } bind def
/n { newpath } bind def
/W { clip } bind def
/W* { eoclip } bind def
/BT { } bind def
/ET { } bind def
/pdfmark where { pop globaldict /?pdfmark /exec load put }
    { globaldict begin /?pdfmark /pop load def /pdfmark
    /cleartomark load def end } ifelse
/BDC { mark 3 1 roll /BDC pdfmark } bind def
/EMC { mark /EMC pdfmark } bind def
/cairo_store_point { /cairo_point_y exch def /cairo_point_x exch def } def
/Tj { show currentpoint cairo_store_point } bind def
/TJ {
  {
    dup
    type /stringtype eq
    { show } { -0.001 mul 0 cairo_font_matrix dtransform rmoveto } ifelse
  } forall
  currentpoint cairo_store_point
} bind def
/cairo_selectfont { cairo_font_matrix aload pop pop pop 0 0 6 array astore
    cairo_font exch selectfont cairo_point_x cairo_point_y moveto } bind def
/Tf { pop /cairo_font exch def /cairo_font_matrix where
      { pop cairo_selectfont } if } bind def
/Td { matrix translate cairo_font_matrix matrix concatmatrix dup
      /cairo_font_matrix exch def dup 4 get exch 5 get cairo_store_point
      /cairo_font where { pop cairo_selectfont } if } bind def
/Tm { 2 copy 8 2 roll 6 array astore /cairo_font_matrix exch def
      cairo_store_point /cairo_font where { pop cairo_selectfont } if } bind def
/g { setgray } bind def
/rg { setrgbcolor } bind def
/d1 { setcachedevice } bind def
%%EndProlog
%%BeginSetup
%%EndSetup
%%Page: 1 1
%%BeginPageSetup
%%PageBoundingBox: 0 4 324 319
%%EndPageSetup
q 0 4 324 315 rectclip q
0 0.937255 0.819608 rg
323.227 69.707 m 323.227 53.125 l 323.227 41.676 313.945 32.394 302.5 32.394
 c 291.785 32.394 l 291.691 32.402 l 291.754 33.195 291.785 34.004 291.785
 34.812 c 291.785 51.223 278.48 64.527 262.07 64.527 c 245.66 64.527 232.355
 51.223 232.355 34.812 c 232.355 34.004 232.387 33.195 232.449 32.402 c 
232.355 32.394 l 152.891 32.394 l 152.891 104.262 l 252.051 104.262 l 252.066
 104.402 l 252.867 104.308 253.676 104.262 254.48 104.262 c 288.676 104.262
 l 307.754 104.265 323.223 88.801 323.227 69.723 c h
323.227 69.707 m f
0.831373 0.882353 0.956863 rg
291.785 34.812 m 291.785 34.004 291.754 33.195 291.691 32.402 c 290.355
 16.047 276.012 3.867 259.656 5.199 c 245.148 6.383 233.633 17.898 232.449
 32.402 c 232.387 33.195 232.355 34.004 232.355 34.812 c 232.355 51.223 
245.66 64.527 262.07 64.527 c 278.48 64.527 291.785 51.223 291.785 34.812
 c h
291.785 34.812 m f
252.051 104.262 m 152.891 104.262 l 152.891 158.164 l 186.051 158.164 l
 191.789 158.164 197.27 155.785 201.188 151.598 c 239.34 110.828 l 242.688
 107.246 247.195 104.969 252.066 104.402 c h
252.051 104.262 m f
0 0.807843 0.705882 rg
88.273 104.262 m 152.891 104.262 l 152.891 32.394 l 110.043 32.394 l 109.945
 32.402 l 110.012 33.195 110.043 34.004 110.043 34.812 c 110.039 51.223 
96.734 64.527 80.32 64.523 c 63.914 64.519 50.613 51.219 50.609 34.812 c
 50.609 34.004 50.641 33.195 50.707 32.402 c 50.609 32.394 l 40.25 32.394
 l 28.801 32.394 19.52 41.672 19.516 53.121 c 19.516 95.262 l 19.516 101.004
 21.898 106.492 26.098 110.414 c 61.906 143.965 l 62.121 145.461 l 76.473
 141.023 91.715 140.293 106.426 143.34 c h
88.273 104.262 m f
0.756863 0.827451 0.909804 rg
152.891 158.164 m 152.891 104.262 l 88.273 104.262 l 106.426 143.34 l 118.789
 145.91 130.453 151.117 140.617 158.605 c 140.938 158.164 l h
152.891 158.164 m f
0 0.67451 0.917647 rg
106.426 143.34 m 58.684 133.351 11.879 163.957 1.891 211.699 c -8.098 259.445
 22.504 306.246 70.25 316.234 c 117.992 326.226 164.797 295.621 174.785 
247.875 c 181.875 213.996 168.52 179.094 140.617 158.601 c 130.453 151.117
 118.789 145.91 106.426 143.34 c h
106.426 143.34 m f
0.831373 0.882353 0.956863 rg
110.043 34.812 m 110.043 34.004 110.012 33.195 109.945 32.402 c 108.613
 16.047 94.27 3.867 77.91 5.199 c 63.406 6.383 51.891 17.898 50.707 32.402
 c 50.641 33.195 50.609 34.004 50.609 34.812 c 50.613 51.223 63.922 64.527
 80.332 64.523 c 96.738 64.519 110.039 51.219 110.043 34.812 c h
110.043 34.812 m f
132.172 265.949 m 29.312 241.058 l 69.562 218.523 l 79.516 173.453 l 133.953
 266.379 l h
132.172 265.949 m f
Q Q
showpage
%%Trailer
end restore
%%EOF
