%!PS-Adobe-3.0 EPSF-3.0
%%Creator: cairo 1.14.2 (http://cairographics.org)
%%CreationDate: Wed May  2 08:31:25 2018
%%Pages: 1
%%DocumentData: Clean7Bit
%%LanguageLevel: 2
%%BoundingBox: 0 5 302 297
%%EndComments
%%BeginProlog
save
50 dict begin
/q { gsave } bind def
/Q { grestore } bind def
/cm { 6 array astore concat } bind def
/w { setlinewidth } bind def
/J { setlinecap } bind def
/j { setlinejoin } bind def
/M { setmiterlimit } bind def
/d { setdash } bind def
/m { moveto } bind def
/l { lineto } bind def
/c { curveto } bind def
/h { closepath } bind def
/re { exch dup neg 3 1 roll 5 3 roll moveto 0 rlineto
      0 exch rlineto 0 rlineto closepath } bind def
/S { stroke } bind def
/f { fill } bind def
/f* { eofill } bind def
/n { newpath } bind def
/W { clip } bind def
/W* { eoclip } bind def
/BT { } bind def
/ET { } bind def
/pdfmark where { pop globaldict /?pdfmark /exec load put }
    { globaldict begin /?pdfmark /pop load def /pdfmark
    /cleartomark load def end } ifelse
/BDC { mark 3 1 roll /BDC pdfmark } bind def
/EMC { mark /EMC pdfmark } bind def
/cairo_store_point { /cairo_point_y exch def /cairo_point_x exch def } def
/Tj { show currentpoint cairo_store_point } bind def
/TJ {
  {
    dup
    type /stringtype eq
    { show } { -0.001 mul 0 cairo_font_matrix dtransform rmoveto } ifelse
  } forall
  currentpoint cairo_store_point
} bind def
/cairo_selectfont { cairo_font_matrix aload pop pop pop 0 0 6 array astore
    cairo_font exch selectfont cairo_point_x cairo_point_y moveto } bind def
/Tf { pop /cairo_font exch def /cairo_font_matrix where
      { pop cairo_selectfont } if } bind def
/Td { matrix translate cairo_font_matrix matrix concatmatrix dup
      /cairo_font_matrix exch def dup 4 get exch 5 get cairo_store_point
      /cairo_font where { pop cairo_selectfont } if } bind def
/Tm { 2 copy 8 2 roll 6 array astore /cairo_font_matrix exch def
      cairo_store_point /cairo_font where { pop cairo_selectfont } if } bind def
/g { setgray } bind def
/rg { setrgbcolor } bind def
/d1 { setcachedevice } bind def
%%EndProlog
%%BeginSetup
%%EndSetup
%%Page: 1 1
%%BeginPageSetup
%%PageBoundingBox: 0 5 302 297
%%EndPageSetup
q 0 5 302 292 rectclip q
0.831373 0.882353 0.956863 rg
147.848 116.713 m 147.664 116.537 l 116.754 85.623 l 100.832 80.322 l 87.246
 66.737 l 87.703 41.256 l 57.488 36.979 l 52.328 5.881 l 0 6.026 l 0.602
 31.959 l 116.414 147.776 l 116.602 147.959 l h
147.848 116.713 m f
0 0.937255 0.819608 rg
294.188 218.795 m 300.934 212.053 303.262 202.061 300.195 193.03 c 285.738
 150.459 l 282.711 141.541 275.574 134.627 266.562 131.885 c 162.141 100.158
 l 146.715 115.58 l 115.469 146.83 l 103.086 159.213 l 137.516 261.342 l
 140.422 269.975 147.191 276.76 155.82 279.686 c 198.906 294.319 l 207.941
 297.381 217.934 295.053 224.684 288.307 c h
242.531 180.549 m 249.051 187.072 249.051 197.647 242.531 204.174 c 210.051
 236.655 l 203.504 243.155 192.93 243.115 186.43 236.569 c 179.961 230.053
 179.961 219.541 186.43 213.03 c 218.906 180.549 l 225.426 174.026 235.996
 174.022 242.52 180.537 c 242.523 180.541 242.527 180.545 242.531 180.549
 c h
242.531 180.549 m f
Q Q
showpage
%%Trailer
end restore
%%EOF
