%!PS-Adobe-3.0 EPSF-3.0
%%Creator: cairo 1.14.2 (http://cairographics.org)
%%CreationDate: Wed May  2 08:31:25 2018
%%Pages: 1
%%DocumentData: Clean7Bit
%%LanguageLevel: 2
%%BoundingBox: 48 -1 321 369
%%EndComments
%%BeginProlog
save
50 dict begin
/q { gsave } bind def
/Q { grestore } bind def
/cm { 6 array astore concat } bind def
/w { setlinewidth } bind def
/J { setlinecap } bind def
/j { setlinejoin } bind def
/M { setmiterlimit } bind def
/d { setdash } bind def
/m { moveto } bind def
/l { lineto } bind def
/c { curveto } bind def
/h { closepath } bind def
/re { exch dup neg 3 1 roll 5 3 roll moveto 0 rlineto
      0 exch rlineto 0 rlineto closepath } bind def
/S { stroke } bind def
/f { fill } bind def
/f* { eofill } bind def
/n { newpath } bind def
/W { clip } bind def
/W* { eoclip } bind def
/BT { } bind def
/ET { } bind def
/pdfmark where { pop globaldict /?pdfmark /exec load put }
    { globaldict begin /?pdfmark /pop load def /pdfmark
    /cleartomark load def end } ifelse
/BDC { mark 3 1 roll /BDC pdfmark } bind def
/EMC { mark /EMC pdfmark } bind def
/cairo_store_point { /cairo_point_y exch def /cairo_point_x exch def } def
/Tj { show currentpoint cairo_store_point } bind def
/TJ {
  {
    dup
    type /stringtype eq
    { show } { -0.001 mul 0 cairo_font_matrix dtransform rmoveto } ifelse
  } forall
  currentpoint cairo_store_point
} bind def
/cairo_selectfont { cairo_font_matrix aload pop pop pop 0 0 6 array astore
    cairo_font exch selectfont cairo_point_x cairo_point_y moveto } bind def
/Tf { pop /cairo_font exch def /cairo_font_matrix where
      { pop cairo_selectfont } if } bind def
/Td { matrix translate cairo_font_matrix matrix concatmatrix dup
      /cairo_font_matrix exch def dup 4 get exch 5 get cairo_store_point
      /cairo_font where { pop cairo_selectfont } if } bind def
/Tm { 2 copy 8 2 roll 6 array astore /cairo_font_matrix exch def
      cairo_store_point /cairo_font where { pop cairo_selectfont } if } bind def
/g { setgray } bind def
/rg { setrgbcolor } bind def
/d1 { setcachedevice } bind def
%%EndProlog
%%BeginSetup
%%EndSetup
%%Page: 1 1
%%BeginPageSetup
%%PageBoundingBox: 48 -1 321 369
%%EndPageSetup
q 48 -1 273 370 rectclip q
0.831373 0.882353 0.956863 rg
320.52 289.408 m 320.52 25.057 l 320.52 11.217 309.301 0.002 295.465 -0.002
 c 73.289 -0.002 l 59.449 0.002 48.234 11.217 48.23 25.057 c 48.23 289.408
 l 48.238 303.244 59.453 314.459 73.289 314.463 c 118.391 314.463 l 118.391
 287.318 l 249.945 287.318 l 249.945 314.463 l 295.465 314.463 l 309.301
 314.459 320.516 303.244 320.52 289.408 c h
320.52 289.408 m f
0 0.67451 0.917647 rg
249.945 314.463 m 249.945 287.318 l 118.391 287.318 l 118.391 326.99 l 
118.395 336.217 125.871 343.693 135.098 343.697 c 153.055 343.697 l 156.398
 357.897 168.504 368.752 183.961 368.752 c 198.906 368.811 211.828 358.334
 214.863 343.697 c 233.238 343.697 l 242.465 343.693 249.941 336.217 249.945
 326.99 c h
249.945 314.463 m f
193.559 73.018 m 100.016 73.018 l 95.598 73.018 92.016 76.596 92.016 81.018
 c 92.016 85.436 95.598 89.018 100.016 89.018 c 193.559 89.018 l 197.977
 89.018 201.559 85.436 201.559 81.018 c 201.559 76.596 197.977 73.018 193.559
 73.018 c h
193.559 73.018 m f
268.734 39.607 m 100.016 39.607 l 95.598 39.607 92.016 43.19 92.016 47.607
 c 92.016 52.025 95.598 55.607 100.016 55.607 c 268.734 55.607 l 273.156
 55.607 276.734 52.025 276.734 47.607 c 276.734 43.19 273.156 39.607 268.734
 39.607 c h
268.734 39.607 m f
271.711 152.873 m 271.711 128.775 l 271.715 121.951 266.18 116.416 259.355
 116.416 c 249.055 116.416 l 242.23 116.416 236.699 121.947 236.695 128.772
 c 236.695 140.514 l 259.352 140.514 l 266.176 140.514 271.711 146.045 271.711
 152.873 c h
271.711 152.873 m f
0 0.937255 0.819608 rg
271.711 155.959 m 271.711 152.873 l 271.711 146.045 266.176 140.514 259.352
 140.514 c 109.398 140.514 l 102.574 140.514 97.043 146.045 97.039 152.873
 c 97.039 183.631 l 97.039 189.076 99.43 194.248 103.586 197.768 c 110.633
 203.752 l 260.594 203.752 l 260.594 203.545 l 265.902 198.529 l 269.609
 195.025 271.711 190.15 271.711 185.049 c h
249.406 160.08 m 249.406 180.264 l 224.129 180.264 l 224.129 160.08 l h
144.625 160.08 m 144.625 180.264 l 119.344 180.264 l 119.344 160.08 l h
144.625 160.08 m f
0 0.67451 0.917647 rg
247.398 235.912 m 261.207 203.752 l 233.273 203.752 l 233.281 215.111 224.078
 224.326 212.719 224.334 c 201.359 224.346 192.145 215.143 192.137 203.783
 c 192.137 203.752 l 110.016 203.752 l 123.824 235.912 l 125.82 240.557 
130.387 243.565 135.441 243.568 c 235.785 243.568 l 240.836 243.565 245.406
 240.557 247.398 235.912 c h
247.398 235.912 m f
132.055 140.303 m 132.055 128.775 l 132.059 121.951 126.527 116.416 119.699
 116.416 c 109.398 116.416 l 102.574 116.416 97.043 121.947 97.039 128.772
 c 97.039 152.873 l 97.043 146.045 102.574 140.514 109.398 140.514 c 132.055
 140.514 l h
132.055 140.303 m f
0 0.937255 0.819608 rg
241.273 203.752 m 225.273 203.752 l 225.273 210.693 219.645 216.318 212.703
 216.318 c 205.762 216.318 200.137 210.693 200.137 203.752 c 184.137 203.752
 l 184.137 219.529 196.926 232.318 212.703 232.318 c 228.48 232.318 241.273
 219.529 241.273 203.752 c h
241.273 203.752 m f
0 0.67451 0.917647 rg
199.047 159.799 m 169.703 159.799 l 165.285 159.799 161.703 163.381 161.703
 167.799 c 161.703 172.217 165.285 175.799 169.703 175.799 c 199.047 175.799
 l 203.465 175.799 207.047 172.217 207.047 167.799 c 207.047 163.381 203.465
 159.799 199.047 159.799 c h
199.047 159.799 m f
Q Q
showpage
%%Trailer
end restore
%%EOF
