%!PS-Adobe-3.0 EPSF-3.0
%%Creator: cairo 1.14.2 (http://cairographics.org)
%%CreationDate: Wed May  2 08:31:25 2018
%%Pages: 1
%%DocumentData: Clean7Bit
%%LanguageLevel: 2
%%BoundingBox: 48 -1 321 369
%%EndComments
%%BeginProlog
save
50 dict begin
/q { gsave } bind def
/Q { grestore } bind def
/cm { 6 array astore concat } bind def
/w { setlinewidth } bind def
/J { setlinecap } bind def
/j { setlinejoin } bind def
/M { setmiterlimit } bind def
/d { setdash } bind def
/m { moveto } bind def
/l { lineto } bind def
/c { curveto } bind def
/h { closepath } bind def
/re { exch dup neg 3 1 roll 5 3 roll moveto 0 rlineto
      0 exch rlineto 0 rlineto closepath } bind def
/S { stroke } bind def
/f { fill } bind def
/f* { eofill } bind def
/n { newpath } bind def
/W { clip } bind def
/W* { eoclip } bind def
/BT { } bind def
/ET { } bind def
/pdfmark where { pop globaldict /?pdfmark /exec load put }
    { globaldict begin /?pdfmark /pop load def /pdfmark
    /cleartomark load def end } ifelse
/BDC { mark 3 1 roll /BDC pdfmark } bind def
/EMC { mark /EMC pdfmark } bind def
/cairo_store_point { /cairo_point_y exch def /cairo_point_x exch def } def
/Tj { show currentpoint cairo_store_point } bind def
/TJ {
  {
    dup
    type /stringtype eq
    { show } { -0.001 mul 0 cairo_font_matrix dtransform rmoveto } ifelse
  } forall
  currentpoint cairo_store_point
} bind def
/cairo_selectfont { cairo_font_matrix aload pop pop pop 0 0 6 array astore
    cairo_font exch selectfont cairo_point_x cairo_point_y moveto } bind def
/Tf { pop /cairo_font exch def /cairo_font_matrix where
      { pop cairo_selectfont } if } bind def
/Td { matrix translate cairo_font_matrix matrix concatmatrix dup
      /cairo_font_matrix exch def dup 4 get exch 5 get cairo_store_point
      /cairo_font where { pop cairo_selectfont } if } bind def
/Tm { 2 copy 8 2 roll 6 array astore /cairo_font_matrix exch def
      cairo_store_point /cairo_font where { pop cairo_selectfont } if } bind def
/g { setgray } bind def
/rg { setrgbcolor } bind def
/d1 { setcachedevice } bind def
%%EndProlog
%%BeginSetup
%%EndSetup
%%Page: 1 1
%%BeginPageSetup
%%PageBoundingBox: 48 -1 321 369
%%EndPageSetup
q 48 -1 273 370 rectclip q
0.831373 0.882353 0.956863 rg
320.52 289.408 m 320.52 25.057 l 320.52 11.217 309.301 0.002 295.465 -0.002
 c 73.289 -0.002 l 59.449 0.002 48.234 11.217 48.23 25.057 c 48.23 289.408
 l 48.238 303.244 59.453 314.459 73.289 314.463 c 118.391 314.463 l 118.391
 287.318 l 249.945 287.318 l 249.945 314.463 l 295.465 314.463 l 309.301
 314.459 320.516 303.244 320.52 289.408 c h
320.52 289.408 m f
0 0.67451 0.917647 rg
249.945 314.463 m 249.945 287.318 l 118.391 287.318 l 118.391 326.99 l 
118.395 336.217 125.871 343.693 135.098 343.697 c 153.055 343.697 l 156.398
 357.897 168.504 368.752 183.961 368.752 c 198.906 368.811 211.828 358.334
 214.863 343.697 c 233.238 343.697 l 242.465 343.693 249.941 336.217 249.945
 326.99 c h
249.945 314.463 m f
193.559 77.193 m 100.016 77.193 l 95.598 77.193 92.016 80.775 92.016 85.193
 c 92.016 89.611 95.598 93.193 100.016 93.193 c 193.559 93.193 l 197.977
 93.193 201.559 89.611 201.559 85.193 c 201.559 80.775 197.977 77.193 193.559
 77.193 c h
193.559 77.193 m f
268.734 43.783 m 100.016 43.783 l 95.598 43.783 92.016 47.365 92.016 51.783
 c 92.016 56.201 95.598 59.783 100.016 59.783 c 268.734 59.783 l 273.156
 59.783 276.734 56.201 276.734 51.783 c 276.734 47.365 273.156 43.783 268.734
 43.783 c h
268.734 43.783 m f
268.344 148.815 m 268.344 148.201 268.32 147.6 268.266 146.998 c 267.266
 134.76 256.535 125.65 244.297 126.647 c 233.477 127.529 224.871 136.1 223.953
 146.92 c 223.891 147.549 223.859 148.182 223.863 148.815 c 223.863 161.1
 233.82 171.057 246.102 171.057 c 258.387 171.057 268.344 161.1 268.344 
148.815 c h
268.344 148.815 m f
0 0.937255 0.819608 rg
223.586 146.897 m 142.414 146.897 l 142.055 146.92 l 142.117 147.549 142.148
 148.182 142.145 148.815 c 142.145 161.1 132.184 171.061 119.898 171.061
 c 107.613 171.061 97.656 161.1 97.656 148.815 c 97.652 148.174 97.684 147.533
 97.742 146.897 c 90.52 146.897 l 81.422 146.897 74.047 154.272 74.047 163.369
 c 74.047 177.287 l 74.047 184.713 79.012 191.225 86.176 193.186 c 124.297
 203.6 l 147.09 233.522 l 151.242 238.975 157.703 242.178 164.559 242.178
 c 228.176 242.178 l 235.742 242.178 242.777 238.287 246.793 231.873 c 264.504
 203.6 l 285.047 194.256 l 290.93 191.584 294.707 185.717 294.703 179.256
 c 294.703 163.369 l 294.703 154.272 287.328 146.897 278.23 146.897 c 269.719
 146.897 l 268.266 146.998 l 268.32 147.6 268.344 148.201 268.344 148.815
 c 268.344 161.1 258.387 171.057 246.105 171.057 c 233.82 171.057 223.863
 161.1 223.863 148.815 c 223.859 148.182 223.891 147.549 223.953 146.92 
c h
223.586 146.897 m f
0 0.67451 0.917647 rg
97.742 146.897 m 97.684 147.533 97.652 148.174 97.656 148.815 c 97.656 
161.1 107.613 171.061 119.898 171.061 c 132.184 171.061 142.145 161.1 142.145
 148.815 c 142.148 148.182 142.117 147.549 142.055 146.92 c 140.996 134.682
 130.219 125.623 117.98 126.682 c 107.223 127.615 98.688 136.139 97.742 
146.897 c h
97.742 146.897 m f
Q Q
showpage
%%Trailer
end restore
%%EOF
