%!PS-Adobe-3.0 EPSF-3.0
%%Creator: cairo 1.14.2 (http://cairographics.org)
%%CreationDate: Wed May  2 08:31:25 2018
%%Pages: 1
%%DocumentData: Clean7Bit
%%LanguageLevel: 2
%%BoundingBox: 0 0 334 334
%%EndComments
%%BeginProlog
save
50 dict begin
/q { gsave } bind def
/Q { grestore } bind def
/cm { 6 array astore concat } bind def
/w { setlinewidth } bind def
/J { setlinecap } bind def
/j { setlinejoin } bind def
/M { setmiterlimit } bind def
/d { setdash } bind def
/m { moveto } bind def
/l { lineto } bind def
/c { curveto } bind def
/h { closepath } bind def
/re { exch dup neg 3 1 roll 5 3 roll moveto 0 rlineto
      0 exch rlineto 0 rlineto closepath } bind def
/S { stroke } bind def
/f { fill } bind def
/f* { eofill } bind def
/n { newpath } bind def
/W { clip } bind def
/W* { eoclip } bind def
/BT { } bind def
/ET { } bind def
/pdfmark where { pop globaldict /?pdfmark /exec load put }
    { globaldict begin /?pdfmark /pop load def /pdfmark
    /cleartomark load def end } ifelse
/BDC { mark 3 1 roll /BDC pdfmark } bind def
/EMC { mark /EMC pdfmark } bind def
/cairo_store_point { /cairo_point_y exch def /cairo_point_x exch def } def
/Tj { show currentpoint cairo_store_point } bind def
/TJ {
  {
    dup
    type /stringtype eq
    { show } { -0.001 mul 0 cairo_font_matrix dtransform rmoveto } ifelse
  } forall
  currentpoint cairo_store_point
} bind def
/cairo_selectfont { cairo_font_matrix aload pop pop pop 0 0 6 array astore
    cairo_font exch selectfont cairo_point_x cairo_point_y moveto } bind def
/Tf { pop /cairo_font exch def /cairo_font_matrix where
      { pop cairo_selectfont } if } bind def
/Td { matrix translate cairo_font_matrix matrix concatmatrix dup
      /cairo_font_matrix exch def dup 4 get exch 5 get cairo_store_point
      /cairo_font where { pop cairo_selectfont } if } bind def
/Tm { 2 copy 8 2 roll 6 array astore /cairo_font_matrix exch def
      cairo_store_point /cairo_font where { pop cairo_selectfont } if } bind def
/g { setgray } bind def
/rg { setrgbcolor } bind def
/d1 { setcachedevice } bind def
%%EndProlog
%%BeginSetup
%%EndSetup
%%Page: 1 1
%%BeginPageSetup
%%PageBoundingBox: 0 0 334 334
%%EndPageSetup
q 0 0 334 334 rectclip q
0.831373 0.882353 0.956863 rg
333.984 175.48 m 317.398 155.359 l 298.559 172.695 l 298.559 0.992 l 32.961
 0.992 l 32.961 172.367 l 15.199 155.273 l 0 175.57 l 169.816 320.543 l 
207.359 288.922 l 207.359 332.992 l 260.961 332.992 l 260.961 238.879 l 
h
333.984 175.48 m f
0 0.67451 0.917647 rg
264.879 71.824 m 264.879 44.441 l 264.879 36.687 258.594 30.402 250.84 
30.398 c 239.137 30.398 l 231.383 30.402 225.098 36.687 225.098 44.441 c
 225.098 57.785 l 250.84 57.785 l 258.594 57.781 264.879 64.066 264.879 
71.82 c h
264.879 71.824 m f
0 0.937255 0.819608 rg
264.879 75.336 m 264.879 71.824 l 264.883 64.07 258.598 57.785 250.844 
57.785 c 80.465 57.785 l 72.711 57.781 66.422 64.062 66.414 71.816 c 66.414
 106.769 l 66.414 112.957 69.137 118.832 73.855 122.832 c 81.863 129.632
 l 252.238 129.632 l 252.238 129.39 l 258.281 123.695 l 262.488 119.714 
264.875 114.179 264.879 108.382 c h
244.289 80.015 m 244.289 102.953 l 210.816 102.953 l 210.816 80.015 l h
120.48 80.015 m 120.48 102.953 l 87.016 102.953 l 87.016 80.015 l h
120.48 80.015 m f
0 0.67451 0.917647 rg
236.91 172.886 m 252.945 129.632 l 232.113 129.632 l 232.109 143.98 220.477
 155.605 206.129 155.601 c 191.789 155.597 180.164 143.972 180.16 129.632
 c 81.16 129.632 l 97.191 172.886 l 99.23 178.398 104.484 182.054 110.359
 182.054 c 223.742 182.054 l 229.621 182.058 234.875 178.398 236.91 172.886
 c h
236.91 172.886 m f
0.831373 0.882353 0.956863 rg
210.816 102.953 33.473 -22.938 re f
0 0.67451 0.917647 rg
232.113 129.632 m 180.16 129.632 l 180.164 143.98 191.797 155.605 206.141
 155.601 c 220.484 155.597 232.109 143.972 232.113 129.632 c h
232.113 129.632 m f
0.831373 0.882353 0.956863 rg
87.016 102.953 33.465 -22.938 re f
0 0.67451 0.917647 rg
106.207 57.543 m 106.207 44.441 l 106.207 36.683 99.914 30.398 92.16 30.398
 c 80.465 30.398 l 72.707 30.398 66.418 36.683 66.414 44.441 c 66.414 71.824
 l 66.414 64.07 72.699 57.785 80.453 57.785 c 106.207 57.785 l h
106.207 57.543 m f
0 0.807843 0.705882 rg
240.113 129.632 m 224.113 129.632 l 224.113 139.558 216.062 147.609 206.137
 147.609 c 196.207 147.609 188.16 139.558 188.16 129.632 c 172.16 129.632
 l 172.164 148.398 187.375 163.605 206.141 163.601 c 224.902 163.597 240.109
 148.39 240.113 129.632 c h
240.113 129.632 m f
0 0.67451 0.917647 rg
187.062 72.543 m 144.23 72.543 l 139.812 72.543 136.23 76.125 136.23 80.543
 c 136.23 84.961 139.812 88.543 144.23 88.543 c 187.062 88.543 l 191.48 
88.543 195.062 84.961 195.062 80.543 c 195.062 76.125 191.48 72.543 187.062
 72.543 c h
187.062 72.543 m f
187.062 94.418 m 144.23 94.418 l 139.812 94.418 136.23 97.996 136.23 102.418
 c 136.23 106.836 139.812 110.418 144.23 110.418 c 187.062 110.418 l 191.48
 110.418 195.062 106.836 195.062 102.418 c 195.062 97.996 191.48 94.418 
187.062 94.418 c h
187.062 94.418 m f
Q Q
showpage
%%Trailer
end restore
%%EOF
