%!PS-Adobe-3.0 EPSF-3.0
%%Creator: cairo 1.14.2 (http://cairographics.org)
%%CreationDate: Wed May  2 08:31:25 2018
%%Pages: 1
%%DocumentData: Clean7Bit
%%LanguageLevel: 2
%%BoundingBox: 35 -1 329 364
%%EndComments
%%BeginProlog
save
50 dict begin
/q { gsave } bind def
/Q { grestore } bind def
/cm { 6 array astore concat } bind def
/w { setlinewidth } bind def
/J { setlinecap } bind def
/j { setlinejoin } bind def
/M { setmiterlimit } bind def
/d { setdash } bind def
/m { moveto } bind def
/l { lineto } bind def
/c { curveto } bind def
/h { closepath } bind def
/re { exch dup neg 3 1 roll 5 3 roll moveto 0 rlineto
      0 exch rlineto 0 rlineto closepath } bind def
/S { stroke } bind def
/f { fill } bind def
/f* { eofill } bind def
/n { newpath } bind def
/W { clip } bind def
/W* { eoclip } bind def
/BT { } bind def
/ET { } bind def
/pdfmark where { pop globaldict /?pdfmark /exec load put }
    { globaldict begin /?pdfmark /pop load def /pdfmark
    /cleartomark load def end } ifelse
/BDC { mark 3 1 roll /BDC pdfmark } bind def
/EMC { mark /EMC pdfmark } bind def
/cairo_store_point { /cairo_point_y exch def /cairo_point_x exch def } def
/Tj { show currentpoint cairo_store_point } bind def
/TJ {
  {
    dup
    type /stringtype eq
    { show } { -0.001 mul 0 cairo_font_matrix dtransform rmoveto } ifelse
  } forall
  currentpoint cairo_store_point
} bind def
/cairo_selectfont { cairo_font_matrix aload pop pop pop 0 0 6 array astore
    cairo_font exch selectfont cairo_point_x cairo_point_y moveto } bind def
/Tf { pop /cairo_font exch def /cairo_font_matrix where
      { pop cairo_selectfont } if } bind def
/Td { matrix translate cairo_font_matrix matrix concatmatrix dup
      /cairo_font_matrix exch def dup 4 get exch 5 get cairo_store_point
      /cairo_font where { pop cairo_selectfont } if } bind def
/Tm { 2 copy 8 2 roll 6 array astore /cairo_font_matrix exch def
      cairo_store_point /cairo_font where { pop cairo_selectfont } if } bind def
/g { setgray } bind def
/rg { setrgbcolor } bind def
/d1 { setcachedevice } bind def
%%EndProlog
%%BeginSetup
%%EndSetup
%%Page: 1 1
%%BeginPageSetup
%%PageBoundingBox: 35 -1 329 364
%%EndPageSetup
q 35 -1 294 365 rectclip q
0.831373 0.882353 0.956863 rg
298.207 28.591 m 298.207 27.81 298.176 27.041 298.117 26.271 c 296.832 
10.529 283.023 -1.19 267.277 0.095 c 253.32 1.24 242.242 12.318 241.102 
26.271 c 241.047 27.041 241.016 27.81 241.016 28.591 c 241.023 44.384 253.832
 57.181 269.625 57.173 c 285.406 57.169 298.199 44.376 298.207 28.591 c 
h
298.207 28.591 m f
0 0.807843 0.705882 rg
241.016 28.591 m 241.016 27.81 241.047 27.041 241.102 26.271 c 241.016 
26.263 l 199.789 26.263 l 199.789 95.423 l 326.152 95.423 l 327.457 92.724
 328.137 89.763 328.133 86.759 c 328.133 46.216 l 328.133 35.197 319.199
 26.267 308.184 26.263 c 298.207 26.263 l 298.117 26.271 l 298.176 27.041
 298.207 27.81 298.207 28.591 c 298.199 44.384 285.391 57.181 269.598 57.173
 c 253.812 57.169 241.023 44.376 241.016 28.591 c h
241.016 28.591 m f
0 0.67451 0.917647 rg
163.949 283.279 m 189.199 293.228 217.734 280.826 227.684 255.576 c 229.961
 249.794 231.121 243.63 231.102 237.416 c 132.703 237.416 l 132.703 257.673
 145.098 275.869 163.949 283.279 c h
163.949 283.279 m f
199.855 292.787 m 199.855 281.728 l 188.305 286.216 175.488 286.197 163.949
 281.681 c 163.949 292.787 l 163.957 300.822 170.469 307.334 178.504 307.337
 c 185.301 307.337 l 193.336 307.334 199.852 300.822 199.855 292.787 c h
199.855 292.787 m f
0.831373 0.882353 0.956863 rg
194.797 351.185 m 194.797 303.986 l 194.008 303.642 l 191.496 305.525 188.441
 306.541 185.301 306.537 c 178.504 306.537 l 175.105 306.541 171.816 305.353
 169.207 303.177 c 169.199 303.185 l 169.199 351.185 l 169.191 358.255 174.918
 363.99 181.988 363.998 c 189.055 364.005 194.793 358.279 194.801 351.209
 c 194.797 351.201 194.797 351.193 194.797 351.185 c h
194.797 351.185 m f
123.309 28.591 m 123.309 27.81 123.277 27.041 123.223 26.271 c 121.934 
10.529 108.129 -1.19 92.383 0.095 c 78.426 1.24 67.348 12.318 66.207 26.271
 c 66.152 27.041 66.117 27.81 66.117 28.591 c 66.121 44.384 78.922 57.189
 94.719 57.185 c 110.508 57.185 123.309 44.384 123.309 28.591 c h
123.309 28.591 m f
0 0.937255 0.819608 rg
104.359 95.423 m 199.789 95.423 l 199.789 26.263 l 123.309 26.263 l 123.223
 26.271 l 123.277 27.041 123.309 27.81 123.309 28.591 c 123.309 44.384 110.504
 57.189 94.711 57.185 c 78.922 57.185 66.121 44.384 66.117 28.591 c 66.117
 27.81 66.152 27.041 66.207 26.271 c 66.117 26.263 l 55.812 26.263 l 44.797
 26.267 35.863 35.197 35.863 46.216 c 35.863 62.177 l 35.863 80.537 50.75
 95.423 69.109 95.423 c 102.023 95.423 l 102.797 95.427 103.57 95.47 104.344
 95.56 c h
104.359 95.423 m f
0 0.67451 0.917647 rg
131.535 193.162 m 127.117 193.162 123.535 196.744 123.535 201.162 c 123.535
 213.787 l 123.535 218.205 127.117 221.787 131.535 221.787 c 135.953 221.787
 139.535 218.205 139.535 213.787 c 139.535 201.162 l 139.535 196.744 135.953
 193.162 131.535 193.162 c h
131.535 193.162 m f
156.766 193.162 m 152.348 193.162 148.766 196.744 148.766 201.162 c 148.766
 213.787 l 148.766 218.205 152.348 221.787 156.766 221.787 c 161.184 221.787
 164.766 218.205 164.766 213.787 c 164.766 201.162 l 164.766 196.744 161.184
 193.162 156.766 193.162 c h
156.766 193.162 m f
182 193.162 m 177.578 193.162 174 196.744 174 201.162 c 174 213.787 l 174
 218.205 177.578 221.787 182 221.787 c 186.418 221.787 190 218.205 190 213.787
 c 190 201.162 l 190 196.744 186.418 193.162 182 193.162 c h
182 193.162 m f
207.23 193.162 m 202.812 193.162 199.23 196.744 199.23 201.162 c 199.23
 213.787 l 199.23 218.205 202.812 221.787 207.23 221.787 c 211.648 221.787
 215.23 218.205 215.23 213.787 c 215.23 201.162 l 215.23 196.744 211.648
 193.162 207.23 193.162 c h
207.23 193.162 m f
232.461 193.162 m 228.043 193.162 224.461 196.744 224.461 201.162 c 224.461
 213.787 l 224.461 218.205 228.043 221.787 232.461 221.787 c 236.879 221.787
 240.461 218.205 240.461 213.787 c 240.461 201.162 l 240.461 196.744 236.879
 193.162 232.461 193.162 c h
232.461 193.162 m f
263.957 179.591 m 168.199 179.591 l 163.781 179.591 160.199 176.009 160.199
 171.591 c 160.199 167.173 163.781 163.591 168.199 163.591 c 177.199 163.591
 l 177.199 146.794 l 193.199 146.794 l 193.199 163.591 l 238.797 163.591
 l 238.797 146.794 l 254.797 146.794 l 254.797 163.591 l 263.957 163.591
 l 268.375 163.591 271.957 167.173 271.957 171.591 c 271.957 176.009 268.375
 179.591 263.957 179.591 c h
263.957 179.591 m f
0.831373 0.882353 0.956863 rg
326.152 95.423 m 261.965 95.423 l 238.023 146.962 l 238.023 147.298 l 264.734
 147.298 l 269.793 147.294 274.66 145.376 278.359 141.927 c 321.805 101.337
 l 323.609 99.654 325.082 97.65 326.152 95.423 c h
326.152 95.423 m f
0.74902 0.819608 0.909804 rg
238.023 146.962 m 261.965 95.423 l 199.789 95.423 l 199.789 147.298 l 238.023
 147.298 l h
238.023 146.962 m f
0.831373 0.882353 0.956863 rg
104.344 95.56 m 109.027 96.107 113.367 98.298 116.59 101.744 c 153.309 
140.978 l 157.082 145.009 162.355 147.298 167.879 147.298 c 199.789 147.298
 l 199.789 95.423 l 104.359 95.423 l h
104.344 95.56 m f
Q Q
showpage
%%Trailer
end restore
%%EOF
