%!PS-Adobe-3.0 EPSF-3.0
%%Creator: cairo 1.14.2 (http://cairographics.org)
%%CreationDate: Wed May  2 08:31:24 2018
%%Pages: 1
%%DocumentData: Clean7Bit
%%LanguageLevel: 2
%%BoundingBox: 7 -1 339 346
%%EndComments
%%BeginProlog
save
50 dict begin
/q { gsave } bind def
/Q { grestore } bind def
/cm { 6 array astore concat } bind def
/w { setlinewidth } bind def
/J { setlinecap } bind def
/j { setlinejoin } bind def
/M { setmiterlimit } bind def
/d { setdash } bind def
/m { moveto } bind def
/l { lineto } bind def
/c { curveto } bind def
/h { closepath } bind def
/re { exch dup neg 3 1 roll 5 3 roll moveto 0 rlineto
      0 exch rlineto 0 rlineto closepath } bind def
/S { stroke } bind def
/f { fill } bind def
/f* { eofill } bind def
/n { newpath } bind def
/W { clip } bind def
/W* { eoclip } bind def
/BT { } bind def
/ET { } bind def
/pdfmark where { pop globaldict /?pdfmark /exec load put }
    { globaldict begin /?pdfmark /pop load def /pdfmark
    /cleartomark load def end } ifelse
/BDC { mark 3 1 roll /BDC pdfmark } bind def
/EMC { mark /EMC pdfmark } bind def
/cairo_store_point { /cairo_point_y exch def /cairo_point_x exch def } def
/Tj { show currentpoint cairo_store_point } bind def
/TJ {
  {
    dup
    type /stringtype eq
    { show } { -0.001 mul 0 cairo_font_matrix dtransform rmoveto } ifelse
  } forall
  currentpoint cairo_store_point
} bind def
/cairo_selectfont { cairo_font_matrix aload pop pop pop 0 0 6 array astore
    cairo_font exch selectfont cairo_point_x cairo_point_y moveto } bind def
/Tf { pop /cairo_font exch def /cairo_font_matrix where
      { pop cairo_selectfont } if } bind def
/Td { matrix translate cairo_font_matrix matrix concatmatrix dup
      /cairo_font_matrix exch def dup 4 get exch 5 get cairo_store_point
      /cairo_font where { pop cairo_selectfont } if } bind def
/Tm { 2 copy 8 2 roll 6 array astore /cairo_font_matrix exch def
      cairo_store_point /cairo_font where { pop cairo_selectfont } if } bind def
/g { setgray } bind def
/rg { setrgbcolor } bind def
/d1 { setcachedevice } bind def
%%EndProlog
%%BeginSetup
%%EndSetup
%%Page: 1 1
%%BeginPageSetup
%%PageBoundingBox: 7 -1 339 346
%%EndPageSetup
q 7 -1 332 347 rectclip q
0 0.807843 0.705882 rg
338.391 98.343 m 338.391 52.382 l 338.387 39.893 328.262 29.772 315.773
 29.776 c 304.461 29.776 l 304.359 29.784 l 304.43 30.655 304.461 31.526
 304.461 32.417 c 304.461 50.315 289.945 64.823 272.043 64.823 c 254.148
 64.819 239.641 50.311 239.637 32.417 c 239.637 31.526 239.668 30.655 239.742
 29.784 c 239.637 29.776 l 192.902 29.776 l 192.902 108.167 l 336.133 108.167
 l 337.621 105.104 338.391 101.745 338.391 98.343 c h
338.391 98.343 m f
0.831373 0.882353 0.956863 rg
304.461 32.417 m 304.461 31.526 304.43 30.655 304.359 29.784 c 302.902 
11.94 287.258 -1.345 269.414 0.108 c 253.594 1.401 241.031 13.96 239.742
 29.784 c 239.668 30.655 239.637 31.526 239.637 32.417 c 239.641 50.315 
254.152 64.823 272.055 64.823 c 289.953 64.819 304.461 50.311 304.461 32.417
 c h
304.461 32.417 m f
0 0.937255 0.819608 rg
192.902 108.167 m 192.902 29.776 l 106.223 29.776 l 106.117 29.784 l 106.191
 30.655 106.223 31.526 106.223 32.417 c 106.219 50.315 91.707 64.823 73.805
 64.823 c 55.906 64.819 41.398 50.311 41.398 32.417 c 41.398 31.526 41.43
 30.655 41.5 29.784 c 41.398 29.776 l 29.711 29.776 l 17.223 29.772 7.098
 39.893 7.094 52.382 c 7.094 70.479 l 7.098 91.296 23.973 108.171 44.789
 108.167 c 82.094 108.167 l 82.969 108.163 83.84 108.218 84.711 108.327 
c 84.734 108.167 l h
192.902 108.167 m f
0.831373 0.882353 0.956863 rg
106.223 32.417 m 106.223 31.526 106.191 30.655 106.117 29.784 c 104.664
 11.94 89.02 -1.345 71.176 0.108 c 55.352 1.401 42.793 13.96 41.5 29.784
 c 41.43 30.655 41.398 31.526 41.398 32.417 c 41.398 50.315 55.914 64.823
 73.812 64.823 c 91.711 64.819 106.219 50.311 106.223 32.417 c h
106.223 32.417 m f
0 0.67451 0.917647 rg
265.645 192.503 m 157.102 192.503 l 152.684 192.503 149.102 196.085 149.102
 200.503 c 149.102 204.921 152.684 208.503 157.102 208.503 c 265.645 208.503
 l 270.062 208.503 273.645 204.921 273.645 200.503 c 273.645 196.085 270.062
 192.503 265.645 192.503 c h
265.645 192.503 m f
168.324 200.507 16 -33.543 re f
238.422 200.507 16 -33.543 re f
0 0.807843 0.705882 rg
324.109 118.061 m 308.109 118.061 l 308.109 208.518 l 308.102 216.589 301.562
 223.128 293.492 223.136 c 221.887 223.136 l 204.988 223.151 191.289 236.846
 191.27 253.745 c 191.27 272.593 l 207.27 272.593 l 207.27 253.745 l 207.281
 245.678 213.82 239.143 221.887 239.136 c 293.492 239.136 l 310.395 239.116
 324.09 225.421 324.109 208.518 c h
324.109 118.061 m f
0.831373 0.882353 0.956863 rg
336.133 108.167 m 263.383 108.167 l 236.246 166.585 l 236.246 166.96 l 
266.527 166.96 l 272.258 166.956 277.773 164.784 281.965 160.87 c 331.207
 114.87 l 333.25 112.964 334.922 110.69 336.133 108.167 c h
336.133 108.167 m f
0.737255 0.815686 0.909804 rg
236.246 166.585 m 263.383 108.167 l 192.902 108.167 l 192.902 166.96 l 
236.246 166.96 l h
236.246 166.585 m f
0.831373 0.882353 0.956863 rg
84.711 108.327 m 90.023 108.94 94.945 111.421 98.598 115.327 c 140.223 
159.8 l 144.5 164.366 150.477 166.96 156.734 166.96 c 192.902 166.96 l 192.902
 108.167 l 84.734 108.167 l h
84.711 108.327 m f
0 0.67451 0.917647 rg
233.398 322.284 m 224.387 322.284 l 224.477 337.276 l 224.516 341.694 220.965
 345.307 216.547 345.343 c 212.129 345.382 208.516 341.831 208.477 337.413
 c 208.387 322.284 l 193.551 322.284 l 193.461 337.542 l 193.434 341.94 
189.859 345.487 185.461 345.483 c 185.414 345.483 l 181.012 345.471 177.449
 341.893 177.461 337.491 c 177.461 337.448 l 177.551 322.284 l 168.543 322.284
 l 164.125 322.284 160.543 318.702 160.543 314.284 c 160.543 309.866 164.125
 306.284 168.543 306.284 c 175.141 306.284 l 175.141 292.71 l 175.191 279.835
 185.668 269.432 198.547 269.483 c 198.598 269.483 198.645 269.483 198.695
 269.483 c 203.246 269.483 l 215.91 269.389 226.25 279.581 226.344 292.245
 c 226.344 292.401 226.344 292.557 226.34 292.71 c 226.34 306.284 l 233.398
 306.284 l 237.816 306.284 241.398 309.866 241.398 314.284 c 241.398 318.702
 237.816 322.284 233.398 322.284 c h
233.398 322.284 m f
Q Q
showpage
%%Trailer
end restore
%%EOF
