%!PS-Adobe-3.0 EPSF-3.0
%%Creator: cairo 1.14.2 (http://cairographics.org)
%%CreationDate: Wed May  2 08:31:24 2018
%%Pages: 1
%%DocumentData: Clean7Bit
%%LanguageLevel: 2
%%BoundingBox: 0 19 373 354
%%EndComments
%%BeginProlog
save
50 dict begin
/q { gsave } bind def
/Q { grestore } bind def
/cm { 6 array astore concat } bind def
/w { setlinewidth } bind def
/J { setlinecap } bind def
/j { setlinejoin } bind def
/M { setmiterlimit } bind def
/d { setdash } bind def
/m { moveto } bind def
/l { lineto } bind def
/c { curveto } bind def
/h { closepath } bind def
/re { exch dup neg 3 1 roll 5 3 roll moveto 0 rlineto
      0 exch rlineto 0 rlineto closepath } bind def
/S { stroke } bind def
/f { fill } bind def
/f* { eofill } bind def
/n { newpath } bind def
/W { clip } bind def
/W* { eoclip } bind def
/BT { } bind def
/ET { } bind def
/pdfmark where { pop globaldict /?pdfmark /exec load put }
    { globaldict begin /?pdfmark /pop load def /pdfmark
    /cleartomark load def end } ifelse
/BDC { mark 3 1 roll /BDC pdfmark } bind def
/EMC { mark /EMC pdfmark } bind def
/cairo_store_point { /cairo_point_y exch def /cairo_point_x exch def } def
/Tj { show currentpoint cairo_store_point } bind def
/TJ {
  {
    dup
    type /stringtype eq
    { show } { -0.001 mul 0 cairo_font_matrix dtransform rmoveto } ifelse
  } forall
  currentpoint cairo_store_point
} bind def
/cairo_selectfont { cairo_font_matrix aload pop pop pop 0 0 6 array astore
    cairo_font exch selectfont cairo_point_x cairo_point_y moveto } bind def
/Tf { pop /cairo_font exch def /cairo_font_matrix where
      { pop cairo_selectfont } if } bind def
/Td { matrix translate cairo_font_matrix matrix concatmatrix dup
      /cairo_font_matrix exch def dup 4 get exch 5 get cairo_store_point
      /cairo_font where { pop cairo_selectfont } if } bind def
/Tm { 2 copy 8 2 roll 6 array astore /cairo_font_matrix exch def
      cairo_store_point /cairo_font where { pop cairo_selectfont } if } bind def
/g { setgray } bind def
/rg { setrgbcolor } bind def
/d1 { setcachedevice } bind def
%%EndProlog
%%BeginSetup
%%EndSetup
%%Page: 1 1
%%BeginPageSetup
%%PageBoundingBox: 0 19 373 354
%%EndPageSetup
q 0 19 373 335 rectclip q
0 0.67451 0.917647 rg
362.453 207.612 m 369.625 205.616 373.855 198.217 371.934 191.026 c 351.582
 117.338 l 350.32 113.104 347.512 109.502 343.711 107.252 c 266.543 62.057
 l 256.238 19.78 l 197.68 42.858 l 222.68 122.627 l 223.992 125.909 226.184
 128.764 229.016 130.881 c 280.461 170.233 l 286.09 174.651 294.18 173.928
 298.934 168.588 c 303.648 163.237 303.449 155.162 298.477 150.049 c 271.16
 122.268 l 291.109 113.108 l 328.125 140.705 l 328.125 140.705 338.965 177.69
 344.926 198.307 c 347.094 205.631 354.758 209.842 362.102 207.744 c h
362.453 207.612 m f
0 0.937255 0.819608 rg
329.902 273.651 m 329.902 253.705 l 329.902 242.287 320.645 233.034 309.227
 233.034 c 298.543 233.034 l 296.734 233.194 l 296.789 233.94 296.824 234.682
 296.824 235.444 c 297.082 250.862 284.797 263.569 269.379 263.83 c 253.961
 264.092 241.254 251.807 240.992 236.389 c 240.984 236.073 240.984 235.76
 240.992 235.444 c 240.992 234.643 241.023 233.85 241.094 233.076 c 240.645
 233.034 l 128.301 233.034 l 127.855 233.076 l 127.926 233.85 127.957 234.643
 127.957 235.444 c 127.957 250.858 115.461 263.354 100.047 263.354 c 84.633
 263.354 72.133 250.858 72.133 235.444 c 72.133 234.635 72.168 233.826 72.238
 233.034 c 63.176 233.034 l 51.758 233.034 42.496 242.287 42.496 253.705
 c 42.496 271.178 l 42.492 280.498 48.727 288.666 57.719 291.123 c 105.559
 304.194 l 134.16 341.748 l 139.371 348.596 147.48 352.616 156.086 352.619
 c 246.406 352.619 l 255.902 352.619 264.73 347.729 269.773 339.682 c 292
 304.194 l 317.781 292.475 l 325.164 289.119 329.906 281.76 329.902 273.651
 c h
329.902 273.651 m f
0.831373 0.882353 0.956863 rg
296.824 235.444 m 296.824 234.682 296.789 233.94 296.734 233.194 c 295.492
 217.826 282.023 206.377 266.656 207.623 c 253.062 208.721 242.254 219.487
 241.094 233.073 c 241.023 233.85 240.992 234.643 240.992 235.444 c 240.73
 250.862 253.016 263.569 268.434 263.83 c 283.852 264.092 296.562 251.807
 296.824 236.389 c 296.828 236.073 296.828 235.756 296.824 235.444 c h
296.824 235.444 m f
0 0.67451 0.917647 rg
149.719 122.627 m 174.719 42.858 l 116.16 19.78 l 105.855 62.057 l 28.688
 107.252 l 24.887 109.502 22.074 113.104 20.812 117.338 c 0.461 191.026 
l -1.457 198.217 2.77 205.616 9.941 207.612 c 10.293 207.744 l 17.641 209.842
 25.305 205.631 27.469 198.307 c 33.43 177.69 44.27 140.705 44.27 140.705
 c 81.285 113.108 l 101.238 122.268 l 73.918 150.049 l 71.43 152.553 70.039
 155.944 70.055 159.475 c 70.055 162.823 71.266 166.061 73.461 168.588 c
 78.215 173.932 86.309 174.655 91.934 170.233 c 143.383 130.881 l 146.215
 128.764 148.406 125.909 149.719 122.627 c h
149.719 122.627 m f
0.831373 0.882353 0.956863 rg
72.238 233.034 m 72.168 233.826 72.133 234.635 72.133 235.444 c 72.133 
250.858 84.633 263.354 100.047 263.354 c 115.461 263.354 127.957 250.858
 127.957 235.444 c 127.957 234.643 127.926 233.85 127.855 233.073 c 126.547
 217.717 113.035 206.326 97.676 207.635 c 84.148 208.787 73.41 219.506 72.238
 233.034 c h
72.238 233.034 m f
Q Q
showpage
%%Trailer
end restore
%%EOF
