%!PS-Adobe-3.0 EPSF-3.0
%%Creator: cairo 1.14.2 (http://cairographics.org)
%%CreationDate: Wed May  2 08:31:24 2018
%%Pages: 1
%%DocumentData: Clean7Bit
%%LanguageLevel: 2
%%BoundingBox: 12 -1 336 348
%%EndComments
%%BeginProlog
save
50 dict begin
/q { gsave } bind def
/Q { grestore } bind def
/cm { 6 array astore concat } bind def
/w { setlinewidth } bind def
/J { setlinecap } bind def
/j { setlinejoin } bind def
/M { setmiterlimit } bind def
/d { setdash } bind def
/m { moveto } bind def
/l { lineto } bind def
/c { curveto } bind def
/h { closepath } bind def
/re { exch dup neg 3 1 roll 5 3 roll moveto 0 rlineto
      0 exch rlineto 0 rlineto closepath } bind def
/S { stroke } bind def
/f { fill } bind def
/f* { eofill } bind def
/n { newpath } bind def
/W { clip } bind def
/W* { eoclip } bind def
/BT { } bind def
/ET { } bind def
/pdfmark where { pop globaldict /?pdfmark /exec load put }
    { globaldict begin /?pdfmark /pop load def /pdfmark
    /cleartomark load def end } ifelse
/BDC { mark 3 1 roll /BDC pdfmark } bind def
/EMC { mark /EMC pdfmark } bind def
/cairo_store_point { /cairo_point_y exch def /cairo_point_x exch def } def
/Tj { show currentpoint cairo_store_point } bind def
/TJ {
  {
    dup
    type /stringtype eq
    { show } { -0.001 mul 0 cairo_font_matrix dtransform rmoveto } ifelse
  } forall
  currentpoint cairo_store_point
} bind def
/cairo_selectfont { cairo_font_matrix aload pop pop pop 0 0 6 array astore
    cairo_font exch selectfont cairo_point_x cairo_point_y moveto } bind def
/Tf { pop /cairo_font exch def /cairo_font_matrix where
      { pop cairo_selectfont } if } bind def
/Td { matrix translate cairo_font_matrix matrix concatmatrix dup
      /cairo_font_matrix exch def dup 4 get exch 5 get cairo_store_point
      /cairo_font where { pop cairo_selectfont } if } bind def
/Tm { 2 copy 8 2 roll 6 array astore /cairo_font_matrix exch def
      cairo_store_point /cairo_font where { pop cairo_selectfont } if } bind def
/g { setgray } bind def
/rg { setrgbcolor } bind def
/d1 { setcachedevice } bind def
%%EndProlog
%%BeginSetup
%%EndSetup
%%Page: 1 1
%%BeginPageSetup
%%PageBoundingBox: 12 -1 336 348
%%EndPageSetup
q 12 -1 324 349 rectclip q
0 0.67451 0.917647 rg
329.238 162.568 m 336.836 155.244 337.121 143.166 329.871 135.494 c 254.785
 57.346 l 250.355 52.912 244.418 50.318 238.16 50.072 c 111.449 45.775 l
 70.07 -0.002 l 12.625 68.287 l 97.617 150.889 l 101.465 154.104 106.129
 156.186 111.09 156.912 c 201.785 171.272 l 211.785 173.029 221.414 166.654
 223.703 156.76 c 225.879 147.057 220.406 136.889 210.633 133.959 c 157.816
 117.744 l 176.527 92.865 l 241.297 102.303 l 241.297 102.303 279.762 141.111
 301.105 162.799 c 308.754 170.467 321.145 170.549 328.895 162.982 c h
329.238 162.568 m f
0.831373 0.882353 0.956863 rg
136.719 206.83 m 136.719 206.096 136.688 205.361 136.633 204.639 c 135.422
 189.76 122.379 178.678 107.5 179.885 c 94.297 180.959 83.816 191.44 82.742
 204.639 c 82.688 205.361 82.656 206.096 82.656 206.83 c 82.656 221.76 94.758
 233.865 109.688 233.865 c 124.617 233.865 136.719 221.76 136.719 206.83
 c h
136.719 206.83 m f
0 0.937255 0.819608 rg
118.801 270.01 m 209.008 270.01 l 209.008 204.631 l 136.719 204.631 l 136.633
 204.639 l 136.688 205.361 136.719 206.096 136.719 206.83 c 136.719 221.76
 124.617 233.865 109.688 233.865 c 94.758 233.865 82.656 221.76 82.656 206.83
 c 82.656 206.096 82.688 205.361 82.742 204.639 c 82.656 204.631 l 72.91
 204.631 l 62.496 204.631 54.051 213.072 54.047 223.486 c 54.047 238.576
 l 54.047 255.936 68.121 270.006 85.477 270.01 c 116.594 270.01 l 117.324
 270.006 118.059 270.049 118.785 270.143 c h
118.801 270.01 m f
0 0.67451 0.917647 rg
269.672 347.752 m 179.152 347.752 l 174.734 347.752 171.152 344.17 171.152
 339.752 c 171.152 335.334 174.734 331.752 179.152 331.752 c 187.184 331.752
 l 187.184 315.752 l 203.184 315.752 l 203.184 331.752 l 245.586 331.752
 l 245.586 315.752 l 261.586 315.752 l 261.586 331.752 l 269.672 331.752
 l 274.09 331.752 277.672 335.334 277.672 339.752 c 277.672 344.17 274.09
 347.752 269.672 347.752 c h
269.672 347.752 m f
0.831373 0.882353 0.956863 rg
245.16 318.729 m 267.785 270.01 l 209.008 270.01 l 209.008 319.041 l 245.16
 319.041 l h
245.16 318.729 m f
0 0.807843 0.705882 rg
267.785 270.01 m 245.16 318.729 l 245.16 319.041 l 270.406 319.041 l 275.188
 319.041 279.789 317.225 283.281 313.959 c 324.352 275.6 l 328.168 272.033
 330.336 267.041 330.336 261.815 c 330.336 223.486 l 330.336 213.076 321.898
 204.635 311.484 204.631 c 302.047 204.631 l 301.961 204.639 l 302.016 205.361
 302.047 206.096 302.047 206.83 c 302.059 221.76 289.965 233.873 275.035
 233.881 c 260.105 233.893 247.996 221.799 247.984 206.869 c 247.984 206.834
 l 247.984 206.096 248.016 205.361 248.07 204.643 c 247.984 204.631 l 209.008
 204.631 l 209.008 270.01 l h
267.785 270.01 m f
0.831373 0.882353 0.956863 rg
209.008 270.01 m 118.801 270.01 l 118.785 270.143 l 123.211 270.654 127.312
 272.721 130.359 275.975 c 165.07 313.072 l 168.641 316.881 173.625 319.041
 178.84 319.041 c 209.008 319.041 l h
209.008 270.01 m f
302.047 206.83 m 302.047 206.096 302.016 205.361 301.961 204.639 c 300.75
 189.76 287.707 178.678 272.828 179.885 c 259.625 180.959 249.145 191.44
 248.07 204.639 c 248.016 205.361 247.984 206.096 247.984 206.83 c 247.984
 221.76 260.086 233.865 275.016 233.865 c 289.945 233.865 302.047 221.76
 302.047 206.83 c h
302.047 206.83 m f
Q Q
showpage
%%Trailer
end restore
%%EOF
