%!PS-Adobe-3.0 EPSF-3.0
%%Creator: cairo 1.14.2 (http://cairographics.org)
%%CreationDate: Wed May  2 08:31:24 2018
%%Pages: 1
%%DocumentData: Clean7Bit
%%LanguageLevel: 2
%%BoundingBox: 0 20 340 320
%%EndComments
%%BeginProlog
save
50 dict begin
/q { gsave } bind def
/Q { grestore } bind def
/cm { 6 array astore concat } bind def
/w { setlinewidth } bind def
/J { setlinecap } bind def
/j { setlinejoin } bind def
/M { setmiterlimit } bind def
/d { setdash } bind def
/m { moveto } bind def
/l { lineto } bind def
/c { curveto } bind def
/h { closepath } bind def
/re { exch dup neg 3 1 roll 5 3 roll moveto 0 rlineto
      0 exch rlineto 0 rlineto closepath } bind def
/S { stroke } bind def
/f { fill } bind def
/f* { eofill } bind def
/n { newpath } bind def
/W { clip } bind def
/W* { eoclip } bind def
/BT { } bind def
/ET { } bind def
/pdfmark where { pop globaldict /?pdfmark /exec load put }
    { globaldict begin /?pdfmark /pop load def /pdfmark
    /cleartomark load def end } ifelse
/BDC { mark 3 1 roll /BDC pdfmark } bind def
/EMC { mark /EMC pdfmark } bind def
/cairo_store_point { /cairo_point_y exch def /cairo_point_x exch def } def
/Tj { show currentpoint cairo_store_point } bind def
/TJ {
  {
    dup
    type /stringtype eq
    { show } { -0.001 mul 0 cairo_font_matrix dtransform rmoveto } ifelse
  } forall
  currentpoint cairo_store_point
} bind def
/cairo_selectfont { cairo_font_matrix aload pop pop pop 0 0 6 array astore
    cairo_font exch selectfont cairo_point_x cairo_point_y moveto } bind def
/Tf { pop /cairo_font exch def /cairo_font_matrix where
      { pop cairo_selectfont } if } bind def
/Td { matrix translate cairo_font_matrix matrix concatmatrix dup
      /cairo_font_matrix exch def dup 4 get exch 5 get cairo_store_point
      /cairo_font where { pop cairo_selectfont } if } bind def
/Tm { 2 copy 8 2 roll 6 array astore /cairo_font_matrix exch def
      cairo_store_point /cairo_font where { pop cairo_selectfont } if } bind def
/g { setgray } bind def
/rg { setrgbcolor } bind def
/d1 { setcachedevice } bind def
%%EndProlog
%%BeginSetup
%%EndSetup
%%Page: 1 1
%%BeginPageSetup
%%PageBoundingBox: 0 20 340 320
%%EndPageSetup
q 0 20 340 300 rectclip q
0 0.67451 0.917647 rg
229.961 318.44 70.48 -45.527 re f
38.824 318.44 70.48 -45.527 re f
0 0.937255 0.819608 rg
0 274.51 339.266 -253.688 re f
0.831373 0.882353 0.956863 rg
92.832 221.631 m 82.434 221.631 l 82.434 232.83 l 82.434 237.252 78.852
 240.83 74.434 240.83 c 70.012 240.83 66.434 237.252 66.434 232.83 c 66.434
 221.631 l 55.23 221.631 l 50.812 221.631 47.23 218.049 47.23 213.631 c 
47.23 209.213 50.812 205.631 55.23 205.631 c 66.434 205.631 l 66.434 194.432
 l 66.434 190.014 70.012 186.432 74.434 186.432 c 78.852 186.432 82.434 
190.014 82.434 194.432 c 82.434 205.631 l 92.832 205.631 l 97.25 205.631
 100.832 209.213 100.832 213.631 c 100.832 218.049 97.25 221.631 92.832 
221.631 c h
92.832 221.631 m f
284.031 205.631 m 246.434 205.631 l 242.012 205.631 238.434 209.213 238.434
 213.631 c 238.434 218.049 242.012 221.631 246.434 221.631 c 284.031 221.631
 l 288.449 221.631 292.031 218.049 292.031 213.631 c 292.031 209.213 288.449
 205.631 284.031 205.631 c h
284.031 205.631 m f
0 0.67451 0.917647 rg
47.785 155.057 243.695 -86.449 re f
Q Q
showpage
%%Trailer
end restore
%%EOF
