%!PS-Adobe-3.0 EPSF-3.0
%%Creator: cairo 1.14.2 (http://cairographics.org)
%%CreationDate: Wed May  2 08:31:25 2018
%%Pages: 1
%%DocumentData: Clean7Bit
%%LanguageLevel: 2
%%BoundingBox: 0 -1 366 366
%%EndComments
%%BeginProlog
save
50 dict begin
/q { gsave } bind def
/Q { grestore } bind def
/cm { 6 array astore concat } bind def
/w { setlinewidth } bind def
/J { setlinecap } bind def
/j { setlinejoin } bind def
/M { setmiterlimit } bind def
/d { setdash } bind def
/m { moveto } bind def
/l { lineto } bind def
/c { curveto } bind def
/h { closepath } bind def
/re { exch dup neg 3 1 roll 5 3 roll moveto 0 rlineto
      0 exch rlineto 0 rlineto closepath } bind def
/S { stroke } bind def
/f { fill } bind def
/f* { eofill } bind def
/n { newpath } bind def
/W { clip } bind def
/W* { eoclip } bind def
/BT { } bind def
/ET { } bind def
/pdfmark where { pop globaldict /?pdfmark /exec load put }
    { globaldict begin /?pdfmark /pop load def /pdfmark
    /cleartomark load def end } ifelse
/BDC { mark 3 1 roll /BDC pdfmark } bind def
/EMC { mark /EMC pdfmark } bind def
/cairo_store_point { /cairo_point_y exch def /cairo_point_x exch def } def
/Tj { show currentpoint cairo_store_point } bind def
/TJ {
  {
    dup
    type /stringtype eq
    { show } { -0.001 mul 0 cairo_font_matrix dtransform rmoveto } ifelse
  } forall
  currentpoint cairo_store_point
} bind def
/cairo_selectfont { cairo_font_matrix aload pop pop pop 0 0 6 array astore
    cairo_font exch selectfont cairo_point_x cairo_point_y moveto } bind def
/Tf { pop /cairo_font exch def /cairo_font_matrix where
      { pop cairo_selectfont } if } bind def
/Td { matrix translate cairo_font_matrix matrix concatmatrix dup
      /cairo_font_matrix exch def dup 4 get exch 5 get cairo_store_point
      /cairo_font where { pop cairo_selectfont } if } bind def
/Tm { 2 copy 8 2 roll 6 array astore /cairo_font_matrix exch def
      cairo_store_point /cairo_font where { pop cairo_selectfont } if } bind def
/g { setgray } bind def
/rg { setrgbcolor } bind def
/d1 { setcachedevice } bind def
%%EndProlog
%%BeginSetup
%%EndSetup
%%Page: 1 1
%%BeginPageSetup
%%PageBoundingBox: 0 -1 366 366
%%EndPageSetup
q 0 -1 366 367 rectclip q
0.831373 0.882353 0.956863 rg
306.727 211.398 m 310.883 193.418 311.102 174.754 307.371 156.679 c 245.574
 156.136 l 289.125 112.589 l 278.879 97.043 265.375 83.906 249.547 74.093
 c 206.539 117.101 l 207.398 58.711 l 207.621 57.582 l 189.688 53.996 171.195
 54.296 153.391 58.472 c 153.637 59.504 l 153.691 119.543 l 111.805 77.648
 l 111.277 76.863 l 95.801 87.339 82.793 101.07 73.164 117.086 c 114.66 
158.574 l 57.531 157.734 l 54.059 175.277 54.305 193.351 58.254 210.789 
c 59.531 210.504 l 114.078 209.566 l 74.094 249.55 l 83.906 265.375 97.039
 278.879 112.59 289.125 c 153.18 248.527 l 153.781 306.742 l 171.285 310.781
 189.445 311.089 207.078 307.648 c 206.539 250.453 l 248.027 291.949 l 264.047
 282.32 277.773 269.316 288.254 253.839 c 287.469 253.312 l 245.574 211.421
 l 305.188 211.054 l h
207.363 157.75 m 221.066 171.453 221.066 193.664 207.363 207.367 c 193.664
 221.066 171.449 221.07 157.75 207.367 c 144.047 193.664 144.047 171.453
 157.75 157.75 c 171.453 144.054 193.66 144.054 207.363 157.75 c h
207.363 157.75 m f
0 0.937255 0.819608 rg
153.781 306.742 m 139.113 303.367 125.164 297.402 112.59 289.125 c 69.195
 260.625 47.418 208.656 57.531 157.734 c 62.414 132.98 74.562 110.246 92.43
 92.429 c 98.203 86.652 104.512 81.441 111.277 76.863 c 169.629 37.492 248.848
 52.879 288.219 111.226 c 297.5 124.988 304.008 140.425 307.371 156.679 
c 311.102 174.754 310.883 193.418 306.727 211.398 c 303.227 226.558 296.965
 240.949 288.254 253.839 c 277.773 269.316 264.047 282.32 248.027 291.949
 c 235.395 299.527 221.535 304.839 207.078 307.648 c 189.445 311.089 171.285
 310.781 153.781 306.742 c h
311.645 311.648 m 382.941 240.359 382.941 124.757 311.645 53.472 c 240.348
 -17.817 124.758 -17.825 53.469 53.472 c -17.82 124.765 -17.828 240.359 
53.469 311.648 c 124.766 382.933 240.355 382.941 311.645 311.648 c h
311.645 311.648 m f
Q Q
showpage
%%Trailer
end restore
%%EOF
