%!PS-Adobe-3.0 EPSF-3.0
%%Creator: cairo 1.14.2 (http://cairographics.org)
%%CreationDate: Wed May  2 08:31:25 2018
%%Pages: 1
%%DocumentData: Clean7Bit
%%LanguageLevel: 2
%%BoundingBox: 32 -1 342 374
%%EndComments
%%BeginProlog
save
50 dict begin
/q { gsave } bind def
/Q { grestore } bind def
/cm { 6 array astore concat } bind def
/w { setlinewidth } bind def
/J { setlinecap } bind def
/j { setlinejoin } bind def
/M { setmiterlimit } bind def
/d { setdash } bind def
/m { moveto } bind def
/l { lineto } bind def
/c { curveto } bind def
/h { closepath } bind def
/re { exch dup neg 3 1 roll 5 3 roll moveto 0 rlineto
      0 exch rlineto 0 rlineto closepath } bind def
/S { stroke } bind def
/f { fill } bind def
/f* { eofill } bind def
/n { newpath } bind def
/W { clip } bind def
/W* { eoclip } bind def
/BT { } bind def
/ET { } bind def
/pdfmark where { pop globaldict /?pdfmark /exec load put }
    { globaldict begin /?pdfmark /pop load def /pdfmark
    /cleartomark load def end } ifelse
/BDC { mark 3 1 roll /BDC pdfmark } bind def
/EMC { mark /EMC pdfmark } bind def
/cairo_store_point { /cairo_point_y exch def /cairo_point_x exch def } def
/Tj { show currentpoint cairo_store_point } bind def
/TJ {
  {
    dup
    type /stringtype eq
    { show } { -0.001 mul 0 cairo_font_matrix dtransform rmoveto } ifelse
  } forall
  currentpoint cairo_store_point
} bind def
/cairo_selectfont { cairo_font_matrix aload pop pop pop 0 0 6 array astore
    cairo_font exch selectfont cairo_point_x cairo_point_y moveto } bind def
/Tf { pop /cairo_font exch def /cairo_font_matrix where
      { pop cairo_selectfont } if } bind def
/Td { matrix translate cairo_font_matrix matrix concatmatrix dup
      /cairo_font_matrix exch def dup 4 get exch 5 get cairo_store_point
      /cairo_font where { pop cairo_selectfont } if } bind def
/Tm { 2 copy 8 2 roll 6 array astore /cairo_font_matrix exch def
      cairo_store_point /cairo_font where { pop cairo_selectfont } if } bind def
/g { setgray } bind def
/rg { setrgbcolor } bind def
/d1 { setcachedevice } bind def
%%EndProlog
%%BeginSetup
%%EndSetup
%%Page: 1 1
%%BeginPageSetup
%%PageBoundingBox: 32 -1 342 374
%%EndPageSetup
q 32 -1 310 375 rectclip q
0 0.67451 0.917647 rg
320.918 334.638 m 320.918 317.505 307.027 303.615 289.895 303.615 c 272.758
 303.615 258.867 317.505 258.867 334.638 c 258.867 351.775 272.758 365.665
 289.895 365.665 c 307.027 365.665 320.918 351.775 320.918 334.638 c h
320.918 334.638 m f
0.831373 0.882353 0.956863 rg
275.422 170.681 m 278.391 157.849 278.547 144.525 275.887 131.622 c 231.789
 131.24 l 262.859 100.169 l 255.551 89.072 245.914 79.701 234.621 72.704
 c 203.941 103.384 l 204.547 61.728 l 204.715 60.919 l 191.922 58.365 178.727
 58.583 166.02 61.56 c 166.188 62.286 l 166.238 105.126 l 136.348 75.24 
l 135.973 74.689 l 124.926 82.154 115.645 91.947 108.781 103.376 c 138.379
 132.978 l 97.621 132.384 l 95.145 144.904 95.32 157.802 98.141 170.247 
c 99.055 170.033 l 137.965 169.361 l 109.445 197.888 l 116.445 209.177 125.816
 218.81 136.91 226.119 c 165.867 197.161 l 166.301 238.697 l 178.789 241.572
 191.746 241.794 204.324 239.345 c 203.941 198.536 l 233.539 228.134 l 244.969
 221.271 254.758 211.994 262.23 200.951 c 261.676 200.576 l 231.789 170.681
 l 274.324 170.423 l h
204.523 132.392 m 214.301 142.165 214.301 158.013 204.527 167.786 c 194.754
 177.564 178.906 177.564 169.133 167.79 c 159.359 158.017 159.355 142.169
 169.129 132.396 c 169.133 132.392 l 178.906 122.622 194.75 122.622 204.523
 132.392 c h
204.523 132.392 m f
0 0.67451 0.917647 rg
333.23 0.001 m 40.43 0.001 l 36.012 0.001 32.43 3.583 32.43 8.001 c 32.43
 12.419 36.012 16.001 40.43 16.001 c 333.23 16.001 l 337.648 16.001 341.23
 12.419 341.23 8.001 c 341.23 3.583 337.648 0.001 333.23 0.001 c h
333.23 0.001 m f
0 0.807843 0.705882 rg
328.988 334.638 m 328.992 356.189 311.523 373.658 289.977 373.658 c 268.426
 373.658 250.957 356.193 250.957 334.642 c 250.957 316.158 263.93 300.204
 282.031 296.443 c 282.031 274.4 l 282.031 270.064 278.367 266.033 274.031
 266.033 c 242.293 266.033 l 237.875 266.033 234.293 262.451 234.293 258.033
 c 234.293 253.615 237.875 250.033 242.293 250.033 c 274.031 250.033 l 287.188
 250.033 298.031 261.24 298.031 274.4 c 298.031 296.443 l 316.059 300.29
 328.957 316.204 328.988 334.638 c h
289.895 311.615 m 277.176 311.615 266.867 321.923 266.867 334.638 c 266.867
 347.357 277.176 357.665 289.891 357.665 c 302.605 357.665 312.914 347.357
 312.918 334.642 c 312.918 334.638 l 312.902 321.931 302.602 311.63 289.895
 311.615 c h
289.895 311.615 m f
0.831373 0.882353 0.956863 rg
290.027 325.599 m 285.609 325.599 282.027 329.181 282.027 333.599 c 282.027
 345.599 l 282.027 350.017 285.609 353.599 290.027 353.599 c 294.445 353.599
 298.027 350.017 298.027 345.599 c 298.027 333.599 l 298.027 329.181 294.445
 325.599 290.027 325.599 c h
290.027 325.599 m f
0 0.937255 0.819608 rg
109.445 197.888 m 104.164 189.369 100.344 180.025 98.141 170.247 c 95.32
 157.802 95.145 144.904 97.621 132.384 c 104.559 97.404 131.305 69.708 166.02
 61.56 c 178.727 58.583 191.922 58.365 204.715 60.919 c 240.473 68.079 268.492
 95.915 275.887 131.622 c 278.547 144.525 278.391 157.849 275.422 170.681
 c 267.316 205.576 239.48 232.458 204.324 239.345 c 191.746 241.794 178.789
 241.572 166.301 238.697 c 142.676 233.197 122.215 218.509 109.445 197.888
 c h
278.934 242.201 m 329.801 191.333 329.805 108.857 278.938 57.99 c 228.07
 7.119 145.594 7.115 94.727 57.986 c 43.855 108.853 43.852 191.326 94.723
 242.197 c 94.727 242.201 l 145.594 293.068 228.066 293.068 278.934 242.201
 c h
278.934 242.201 m f
Q Q
showpage
%%Trailer
end restore
%%EOF
