%!PS-Adobe-3.0 EPSF-3.0
%%Creator: cairo 1.14.2 (http://cairographics.org)
%%CreationDate: Wed May  2 08:31:25 2018
%%Pages: 1
%%DocumentData: Clean7Bit
%%LanguageLevel: 2
%%BoundingBox: 26 -1 245 272
%%EndComments
%%BeginProlog
save
50 dict begin
/q { gsave } bind def
/Q { grestore } bind def
/cm { 6 array astore concat } bind def
/w { setlinewidth } bind def
/J { setlinecap } bind def
/j { setlinejoin } bind def
/M { setmiterlimit } bind def
/d { setdash } bind def
/m { moveto } bind def
/l { lineto } bind def
/c { curveto } bind def
/h { closepath } bind def
/re { exch dup neg 3 1 roll 5 3 roll moveto 0 rlineto
      0 exch rlineto 0 rlineto closepath } bind def
/S { stroke } bind def
/f { fill } bind def
/f* { eofill } bind def
/n { newpath } bind def
/W { clip } bind def
/W* { eoclip } bind def
/BT { } bind def
/ET { } bind def
/pdfmark where { pop globaldict /?pdfmark /exec load put }
    { globaldict begin /?pdfmark /pop load def /pdfmark
    /cleartomark load def end } ifelse
/BDC { mark 3 1 roll /BDC pdfmark } bind def
/EMC { mark /EMC pdfmark } bind def
/cairo_store_point { /cairo_point_y exch def /cairo_point_x exch def } def
/Tj { show currentpoint cairo_store_point } bind def
/TJ {
  {
    dup
    type /stringtype eq
    { show } { -0.001 mul 0 cairo_font_matrix dtransform rmoveto } ifelse
  } forall
  currentpoint cairo_store_point
} bind def
/cairo_selectfont { cairo_font_matrix aload pop pop pop 0 0 6 array astore
    cairo_font exch selectfont cairo_point_x cairo_point_y moveto } bind def
/Tf { pop /cairo_font exch def /cairo_font_matrix where
      { pop cairo_selectfont } if } bind def
/Td { matrix translate cairo_font_matrix matrix concatmatrix dup
      /cairo_font_matrix exch def dup 4 get exch 5 get cairo_store_point
      /cairo_font where { pop cairo_selectfont } if } bind def
/Tm { 2 copy 8 2 roll 6 array astore /cairo_font_matrix exch def
      cairo_store_point /cairo_font where { pop cairo_selectfont } if } bind def
/g { setgray } bind def
/rg { setrgbcolor } bind def
/d1 { setcachedevice } bind def
%%EndProlog
%%BeginSetup
%%EndSetup
%%Page: 1 1
%%BeginPageSetup
%%PageBoundingBox: 26 -1 245 272
%%EndPageSetup
q 26 -1 219 273 rectclip q
0 0.807843 0.705882 rg
91.25 271.094 m 124.891 268.856 151.84 209.04 151.84 135.583 c 151.84 62.239
 124.969 2.504 91.41 0.079 c 90.703 0.024 90 0.001 89.289 0.001 c 54.746
 0.001 26.746 60.704 26.746 135.583 c 26.746 210.465 54.746 271.169 89.289
 271.169 c 89.945 271.169 90.602 271.145 91.25 271.094 c h
91.25 271.094 m f
0 0.67451 0.917647 rg
115.586 135.583 m 115.586 99.942 103.812 71.047 89.289 71.047 c 74.766 
71.047 62.992 99.942 62.992 135.583 c 62.992 171.227 74.766 200.122 89.289
 200.122 c 103.812 200.122 115.586 171.227 115.586 135.583 c h
115.586 135.583 m f
0 0.937255 0.819608 rg
152.473 6.11 m 152.512 6.149 152.555 6.188 152.594 6.223 c 153.043 6.704
 153.457 7.223 153.82 7.774 c 151.746 6.903 149.617 6.172 147.449 5.587 
c 145.922 5.208 144.434 4.688 143.004 4.036 c 141.965 2.872 141.02 1.629
 140.176 0.321 c 140.07 0.169 l 157.242 0.2 l 152.629 6.251 l 152.582 6.212
 152.531 6.165 152.473 6.11 c h
152.473 6.11 m f
127.008 9.411 m 129.035 12.344 131.328 15.669 134.602 17.657 c 137.238 
19.122 140.059 20.227 142.984 20.954 c 145.648 21.727 148.406 22.528 149.402
 23.719 c 149.922 24.411 150.383 27.18 150.688 29.012 c 151.273 32.532 151.941
 36.512 154.031 40.313 c 155.957 43.817 158.891 46.321 161.48 48.528 c 163.359
 50.129 165.48 51.942 166.012 53.29 c 166.379 54.227 166.098 56.969 165.891
 58.969 c 165.504 62.672 165.066 66.872 166.301 71.235 c 167.465 75.344 
169.965 78.555 172.172 81.387 c 173.641 83.27 175.305 85.407 175.566 86.739
 c 175.781 87.813 175.078 90.383 174.516 92.446 c 173.523 96.067 172.398
 100.176 172.965 104.708 c 173.512 109.063 175.574 112.669 177.398 115.848
 c 178.566 117.883 179.887 120.196 179.969 121.501 c 180.039 122.649 179.008
 125.122 178.172 127.102 c 176.719 130.571 175.07 134.501 175.07 139.063
 c 175.07 143.626 176.719 147.559 178.172 151.028 c 179.004 153.016 180.039
 155.489 179.969 156.629 c 179.887 157.95 178.562 160.258 177.398 162.301
 c 175.574 165.481 173.512 169.087 172.965 173.442 c 172.398 177.973 173.527
 182.083 174.516 185.7 c 175.078 187.762 175.781 190.325 175.57 191.395 
c 175.305 192.735 173.641 194.868 172.172 196.751 c 169.961 199.583 167.457
 202.79 166.293 206.903 c 165.059 211.274 165.5 215.473 165.887 219.18 c
 166.094 221.18 166.379 223.911 166.016 224.84 c 165.488 226.184 163.363
 227.997 161.488 229.594 c 158.895 231.805 155.957 234.309 154.027 237.817
 c 151.941 241.622 151.273 245.602 150.688 249.118 c 150.383 250.95 149.922
 253.719 149.395 254.419 c 147.254 256.985 142.641 259.493 138.934 261.508
 c 137.391 262.348 135.934 263.141 134.605 263.946 c 138.938 271.075 l 90.305
 271.192 l 90.375 271.102 l 124.012 268.864 150.926 209.047 150.926 135.59
 c 150.926 62.247 124.059 2.512 90.457 0.087 c 90.457 0.079 l 130.098 0.149
 l 124.406 5.95 l 125.355 7.04 126.227 8.196 127.008 9.411 c h
127.008 9.411 m f
161.691 264.657 m 164.969 260.723 165.77 255.958 166.473 251.754 c 166.867
 249.387 167.27 246.938 168.051 245.524 c 168.566 244.583 170.32 243.09 
171.867 241.774 c 175.012 239.094 178.926 235.758 180.914 230.672 c 182.695
 226.122 182.219 221.555 181.797 217.52 c 181.547 215.133 181.293 212.669
 181.691 211.254 c 182 210.165 183.477 208.266 184.781 206.594 c 187.227
 203.469 190.262 199.575 191.262 194.501 c 192.207 189.739 191.004 185.352
 189.945 181.477 c 189.316 179.184 188.664 176.813 188.84 175.434 c 188.988
 174.258 190.207 172.126 191.281 170.247 c 193.219 166.864 195.629 162.649
 195.938 157.602 c 196.234 152.747 194.477 148.551 192.93 144.848 c 192.016
 142.669 191.07 140.411 191.07 139.063 c 191.07 137.715 192.012 135.465 
192.926 133.286 c 194.477 129.583 196.234 125.391 195.938 120.524 c 195.629
 115.489 193.215 111.278 191.281 107.891 c 190.203 106.016 188.988 103.891
 188.84 102.715 c 188.668 101.337 189.32 98.962 189.945 96.665 c 191.004
 92.79 192.207 88.399 191.262 83.629 c 190.262 78.567 187.23 74.676 184.793
 71.551 c 183.488 69.876 182.008 67.977 181.695 66.879 c 181.297 65.469 
181.555 63.004 181.801 60.618 c 182.219 56.587 182.695 52.012 180.91 47.458
 c 178.926 42.376 175.008 39.036 171.863 36.352 c 170.316 35.036 168.566
 33.544 168.051 32.606 c 167.273 31.188 166.863 28.743 166.469 26.376 c 
166.117 23.825 165.531 21.309 164.719 18.864 c 166.688 19.7 168.715 20.399
 170.781 20.954 c 173.449 21.727 176.207 22.528 177.203 23.719 c 177.719
 24.407 178.18 27.176 178.488 29.012 c 179.074 32.532 179.738 36.512 181.828
 40.313 c 183.754 43.817 186.691 46.321 189.281 48.532 c 191.25 50.212 193.281
 51.946 193.812 53.297 c 194.176 54.223 193.895 56.962 193.684 58.962 c 
193.297 62.669 192.859 66.868 194.094 71.235 c 195.254 75.344 197.762 78.555
 199.969 81.391 c 201.438 83.274 203.105 85.407 203.367 86.735 c 203.578
 87.813 202.875 90.379 202.312 92.442 c 201.32 96.067 200.199 100.172 200.766
 104.708 c 201.312 109.063 203.375 112.665 205.195 115.844 c 206.363 117.883
 207.688 120.192 207.766 121.501 c 207.832 122.641 206.801 125.114 205.969
 127.102 c 204.516 130.571 202.871 134.504 202.871 139.067 c 202.871 143.629
 204.516 147.563 205.969 151.036 c 206.801 153.024 207.836 155.497 207.766
 156.645 c 207.684 157.954 206.363 160.262 205.195 162.305 c 203.375 165.485
 201.312 169.09 200.766 173.446 c 200.191 177.977 201.316 182.09 202.309
 185.719 c 202.871 187.778 203.574 190.34 203.367 191.411 c 203.102 192.739
 201.438 194.872 199.969 196.754 c 197.762 199.587 195.254 202.794 194.094
 206.907 c 192.859 211.278 193.297 215.477 193.684 219.184 c 193.891 221.184
 194.176 223.915 193.812 224.844 c 193.289 226.188 191.164 228.001 189.285
 229.598 c 186.695 231.809 183.758 234.313 181.828 237.821 c 179.738 241.626
 179.074 245.606 178.488 249.122 c 178.18 250.954 177.719 253.723 177.195
 254.422 c 175.051 256.989 170.434 259.501 166.727 261.516 c 165.188 262.352
 163.73 263.145 162.406 263.95 c 166.695 271.008 l 154.316 271.04 l 157.066
 269.274 159.551 267.126 161.691 264.657 c h
161.691 264.657 m f
182.484 270.782 m 185.09 269.079 187.445 267.016 189.488 264.665 c 192.773
 260.723 193.566 255.958 194.273 251.754 c 194.668 249.387 195.07 246.938
 195.852 245.524 c 196.367 244.583 198.121 243.09 199.668 241.774 c 202.812
 239.094 206.727 235.758 208.715 230.672 c 210.496 226.122 210.02 221.555
 209.598 217.52 c 209.348 215.133 209.094 212.669 209.492 211.254 c 209.801
 210.165 211.277 208.266 212.586 206.594 c 215.027 203.469 218.062 199.575
 219.062 194.501 c 220 189.739 218.801 185.36 217.742 181.493 c 217.113 
179.196 216.465 176.821 216.641 175.446 c 216.789 174.258 218.008 172.126
 219.082 170.247 c 221.02 166.86 223.43 162.645 223.738 157.602 c 224.027
 152.743 222.273 148.551 220.73 144.856 c 219.816 142.669 218.871 140.411
 218.871 139.059 c 218.871 137.712 219.816 135.454 220.73 133.27 c 222.273
 129.575 224.027 125.387 223.738 120.532 c 223.43 115.485 221.02 111.274
 219.082 107.895 c 218.004 106.016 216.789 103.887 216.641 102.715 c 216.469
 101.337 217.121 98.962 217.746 96.665 c 218.805 92.79 220.008 88.399 219.062
 83.629 c 218.062 78.567 215.027 74.672 212.582 71.551 c 211.277 69.876 
209.797 67.977 209.484 66.883 c 209.086 65.477 209.344 63.008 209.594 60.626
 c 210.016 56.59 210.492 52.016 208.707 47.462 c 206.715 42.376 202.805 
39.04 199.66 36.36 c 198.117 35.04 196.363 33.547 195.848 32.606 c 195.07
 31.192 194.66 28.747 194.266 26.379 c 193.566 22.176 192.77 17.411 189.484
 13.469 c 185.355 8.528 179.512 6.829 175.242 5.59 c 173.734 5.215 172.266
 4.704 170.848 4.071 c 169.914 2.969 169.059 1.809 168.289 0.59 c 168.234
 0.508 168.18 0.43 168.129 0.348 c 181.641 0.391 l 216.184 0.391 244.449
 60.712 244.449 135.59 c 244.449 210.235 216.875 270.407 182.484 270.782
 c h
182.484 270.782 m f
0 0.807843 0.705882 rg
162.406 17.657 m 163.152 18.106 163.926 18.508 164.723 18.86 c 165.535 
21.305 166.121 23.821 166.473 26.376 c 166.867 28.743 167.27 31.188 168.055
 32.602 c 168.57 33.544 170.32 35.036 171.863 36.352 c 175.012 39.036 178.93
 42.376 180.914 47.458 c 182.695 52.012 182.223 56.583 181.805 60.618 c 
181.555 63.004 181.301 65.469 181.699 66.879 c 182.008 67.977 183.488 69.876
 184.793 71.551 c 187.23 74.676 190.266 78.567 191.266 83.629 c 192.207 
88.399 191.008 92.79 189.945 96.665 c 189.32 98.962 188.668 101.337 188.84
 102.715 c 188.988 103.887 190.207 106.016 191.281 107.891 c 193.223 111.278
 195.633 115.493 195.938 120.524 c 196.238 125.387 194.48 129.583 192.93
 133.282 c 192.016 135.462 191.074 137.715 191.074 139.063 c 191.074 140.411
 192.016 142.665 192.93 144.848 c 194.48 148.551 196.238 152.747 195.938
 157.602 c 195.633 162.649 193.219 166.86 191.285 170.247 c 190.207 172.126
 188.992 174.254 188.844 175.434 c 188.672 176.809 189.324 179.184 189.945
 181.477 c 191.008 185.348 192.211 189.739 191.266 194.501 c 190.266 199.575
 187.227 203.465 184.785 206.594 c 183.48 208.266 182.004 210.161 181.691
 211.254 c 181.293 212.665 181.551 215.133 181.801 217.516 c 182.223 221.551
 182.699 226.122 180.914 230.672 c 178.93 235.758 175.012 239.094 171.867
 241.774 c 170.324 243.09 168.57 244.583 168.055 245.524 c 167.277 246.938
 166.867 249.387 166.473 251.751 c 165.77 255.958 164.977 260.723 161.691
 264.657 c 159.551 267.126 157.066 269.274 154.316 271.036 c 138.938 271.075
 l 134.605 263.95 l 135.934 263.141 137.391 262.348 138.934 261.512 c 142.641
 259.497 147.254 256.985 149.398 254.419 c 149.922 253.723 150.383 250.95
 150.691 249.118 c 151.277 245.606 151.941 241.622 154.031 237.821 c 155.957
 234.309 158.898 231.805 161.488 229.594 c 163.363 227.997 165.488 226.188
 166.016 224.844 c 166.379 223.911 166.094 221.176 165.887 219.18 c 165.5
 215.473 165.059 211.274 166.293 206.903 c 167.457 202.79 169.961 199.583
 172.172 196.751 c 173.641 194.868 175.305 192.735 175.57 191.395 c 175.781
 190.329 175.078 187.762 174.516 185.704 c 173.523 182.079 172.398 177.973
 172.969 173.442 c 173.512 169.087 175.578 165.481 177.398 162.301 c 178.566
 160.262 179.887 157.95 179.969 156.629 c 180.039 155.489 179.004 153.016
 178.172 151.028 c 176.719 147.559 175.074 143.626 175.074 139.063 c 175.074
 134.504 176.719 130.571 178.172 127.102 c 179.004 125.118 180.039 122.649
 179.969 121.504 c 179.887 120.196 178.566 117.887 177.398 115.848 c 175.578
 112.669 173.512 109.063 172.965 104.708 c 172.398 100.176 173.527 96.067
 174.516 92.446 c 175.078 90.383 175.781 87.817 175.57 86.739 c 175.305 
85.407 173.641 83.27 172.172 81.387 c 169.969 78.555 167.465 75.348 166.301
 71.235 c 165.07 66.876 165.504 62.676 165.891 58.969 c 166.098 56.969 166.379
 54.231 166.012 53.29 c 165.488 51.946 163.359 50.129 161.484 48.532 c 158.895
 46.321 155.957 43.817 154.031 40.313 c 151.941 36.516 151.277 32.528 150.691
 29.012 c 150.383 27.18 149.922 24.411 149.402 23.723 c 148.406 22.528 145.652
 21.727 142.984 20.954 c 140.059 20.231 137.238 19.122 134.602 17.657 c 
131.328 15.672 129.035 12.348 127.008 9.411 c 126.227 8.2 125.355 7.044 
124.406 5.954 c 130.098 0.153 l 140.07 0.169 l 140.176 0.321 l 141.02 1.633
 141.965 2.876 143.004 4.04 c 144.434 4.692 145.922 5.212 147.449 5.587 
c 149.621 6.176 151.746 6.907 153.82 7.778 c 154.238 8.364 154.672 9.004
 155.02 9.528 c 156.973 12.422 159.188 15.704 162.406 17.657 c h
162.406 17.657 m f
219.082 107.895 m 221.02 111.278 223.434 115.493 223.738 120.532 c 224.031
 125.387 222.277 129.575 220.73 133.27 c 219.816 135.454 218.871 137.712
 218.871 139.059 c 218.871 140.411 219.816 142.669 220.73 144.856 c 222.277
 148.551 224.031 152.743 223.738 157.602 c 223.434 162.645 221.02 166.86
 219.086 170.247 c 218.008 172.126 216.789 174.254 216.641 175.446 c 216.469
 176.821 217.117 179.196 217.746 181.493 c 218.805 185.36 220.004 189.739
 219.066 194.501 c 218.062 199.575 215.027 203.469 212.586 206.594 c 211.281
 208.266 209.801 210.165 209.492 211.254 c 209.094 212.669 209.352 215.133
 209.602 217.52 c 210.023 221.551 210.5 226.122 208.715 230.672 c 206.727
 235.758 202.812 239.094 199.668 241.774 c 198.121 243.09 196.371 244.583
 195.855 245.524 c 195.074 246.938 194.668 249.387 194.273 251.754 c 193.57
 255.958 192.773 260.723 189.488 264.665 c 187.449 267.016 185.094 269.079
 182.488 270.782 c 182.379 270.782 182.27 270.794 182.164 270.794 c 176.059
 270.821 l 176.059 270.985 l 166.695 271.004 l 162.406 263.95 l 163.734 
263.141 165.188 262.348 166.727 261.512 c 170.434 259.497 175.051 256.985
 177.195 254.419 c 177.719 253.723 178.18 250.95 178.488 249.118 c 179.074
 245.606 179.738 241.622 181.828 237.821 c 183.758 234.309 186.695 231.805
 189.289 229.594 c 191.164 227.997 193.289 226.188 193.812 224.84 c 194.18
 223.911 193.895 221.176 193.684 219.18 c 193.297 215.473 192.859 211.274
 194.094 206.903 c 195.258 202.79 197.762 199.583 199.969 196.751 c 201.438
 194.868 203.105 192.735 203.367 191.407 c 203.574 190.337 202.875 187.778
 202.312 185.719 c 201.316 182.087 200.191 177.973 200.766 173.442 c 201.312
 169.087 203.375 165.481 205.195 162.301 c 206.363 160.262 207.688 157.95
 207.766 156.641 c 207.836 155.493 206.801 153.02 205.969 151.032 c 204.516
 147.559 202.871 143.626 202.871 139.063 c 202.871 134.501 204.516 130.567
 205.969 127.098 c 206.801 125.114 207.836 122.641 207.766 121.497 c 207.688
 120.192 206.363 117.879 205.195 115.84 c 203.375 112.661 201.312 109.059
 200.766 104.704 c 200.199 100.172 201.324 96.063 202.312 92.438 c 202.879
 90.376 203.578 87.809 203.367 86.731 c 203.105 85.403 201.438 83.27 199.973
 81.387 c 197.762 78.555 195.258 75.344 194.094 71.231 c 192.859 66.864 
193.293 62.665 193.684 58.958 c 193.895 56.958 194.18 54.223 193.816 53.294
 c 193.285 51.942 191.25 50.208 189.281 48.528 c 186.691 46.317 183.754 
43.813 181.832 40.309 c 179.738 36.508 179.074 32.524 178.488 29.008 c 178.18
 27.172 177.719 24.403 177.203 23.715 c 176.207 22.524 173.449 21.723 170.785
 20.95 c 168.715 20.395 166.691 19.696 164.719 18.86 c 163.922 18.504 163.148
 18.102 162.402 17.653 c 159.184 15.704 156.973 12.419 155.02 9.524 c 154.668
 9.001 154.238 8.36 153.82 7.77 c 153.457 7.223 153.043 6.704 152.594 6.219
 c 152.555 6.184 152.512 6.145 152.473 6.11 c 152.531 6.161 152.582 6.212
 152.629 6.247 c 157.242 0.196 l 167.258 0.215 l 167.258 0.239 l 167.258
 0.274 167.496 0.309 167.516 0.344 c 168.129 0.344 l 168.18 0.426 168.238
 0.504 168.289 0.587 c 169.059 1.805 169.914 2.965 170.848 4.067 c 172.266
 4.7 173.738 5.212 175.242 5.587 c 179.512 6.825 185.355 8.524 189.484 13.465
 c 192.77 17.403 193.562 22.172 194.266 26.376 c 194.664 28.743 195.066 
31.188 195.848 32.602 c 196.367 33.544 198.117 35.036 199.664 36.356 c 202.805
 39.036 206.715 42.372 208.711 47.458 c 210.492 52.012 210.016 56.587 209.594
 60.622 c 209.344 63.004 209.09 65.469 209.488 66.879 c 209.797 67.973 211.277
 69.872 212.586 71.547 c 215.023 74.672 218.059 78.567 219.062 83.626 c 
220.008 88.395 218.805 92.786 217.746 96.661 c 217.117 98.958 216.465 101.333
 216.641 102.712 c 216.789 103.887 218.008 106.016 219.082 107.895 c h
219.082 107.895 m f
Q Q
showpage
%%Trailer
end restore
%%EOF
