%!PS-Adobe-3.0 EPSF-3.0
%%Creator: cairo 1.14.2 (http://cairographics.org)
%%CreationDate: Wed May  2 08:31:25 2018
%%Pages: 1
%%DocumentData: Clean7Bit
%%LanguageLevel: 2
%%BoundingBox: 0 75 345 269
%%EndComments
%%BeginProlog
save
50 dict begin
/q { gsave } bind def
/Q { grestore } bind def
/cm { 6 array astore concat } bind def
/w { setlinewidth } bind def
/J { setlinecap } bind def
/j { setlinejoin } bind def
/M { setmiterlimit } bind def
/d { setdash } bind def
/m { moveto } bind def
/l { lineto } bind def
/c { curveto } bind def
/h { closepath } bind def
/re { exch dup neg 3 1 roll 5 3 roll moveto 0 rlineto
      0 exch rlineto 0 rlineto closepath } bind def
/S { stroke } bind def
/f { fill } bind def
/f* { eofill } bind def
/n { newpath } bind def
/W { clip } bind def
/W* { eoclip } bind def
/BT { } bind def
/ET { } bind def
/pdfmark where { pop globaldict /?pdfmark /exec load put }
    { globaldict begin /?pdfmark /pop load def /pdfmark
    /cleartomark load def end } ifelse
/BDC { mark 3 1 roll /BDC pdfmark } bind def
/EMC { mark /EMC pdfmark } bind def
/cairo_store_point { /cairo_point_y exch def /cairo_point_x exch def } def
/Tj { show currentpoint cairo_store_point } bind def
/TJ {
  {
    dup
    type /stringtype eq
    { show } { -0.001 mul 0 cairo_font_matrix dtransform rmoveto } ifelse
  } forall
  currentpoint cairo_store_point
} bind def
/cairo_selectfont { cairo_font_matrix aload pop pop pop 0 0 6 array astore
    cairo_font exch selectfont cairo_point_x cairo_point_y moveto } bind def
/Tf { pop /cairo_font exch def /cairo_font_matrix where
      { pop cairo_selectfont } if } bind def
/Td { matrix translate cairo_font_matrix matrix concatmatrix dup
      /cairo_font_matrix exch def dup 4 get exch 5 get cairo_store_point
      /cairo_font where { pop cairo_selectfont } if } bind def
/Tm { 2 copy 8 2 roll 6 array astore /cairo_font_matrix exch def
      cairo_store_point /cairo_font where { pop cairo_selectfont } if } bind def
/g { setgray } bind def
/rg { setrgbcolor } bind def
/d1 { setcachedevice } bind def
%%EndProlog
%%BeginSetup
%%EndSetup
%%Page: 1 1
%%BeginPageSetup
%%PageBoundingBox: 0 75 345 269
%%EndPageSetup
q 0 75 345 194 rectclip q
0 0.937255 0.819608 rg
344.91 188.818 m 344.91 127.818 l 344.914 120.9 339.305 115.291 332.387
 115.291 c 313.641 115.291 l 310.664 133.525 293.469 145.892 275.234 142.92
 c 261.047 140.603 249.926 129.478 247.609 115.291 c 222.414 115.291 l 222.414
 211.986 l 310.168 211.986 l 337.328 200.33 l 341.93 198.353 344.91 193.826
 344.91 188.818 c h
344.91 188.818 m f
0.831373 0.882353 0.956863 rg
247.609 115.291 m 250.57 133.537 267.762 145.932 286.008 142.971 c 304.258
 140.01 316.648 122.818 313.688 104.568 c 310.727 86.322 293.535 73.928 
275.289 76.889 c 259.09 79.517 247.188 93.498 247.176 109.908 c 247.176 
111.709 247.32 113.51 247.609 115.291 c h
247.609 115.291 m f
284.559 261.666 m 310.168 211.986 l 222.414 211.986 l 222.414 255.932 l
 222.418 262.849 228.027 268.455 234.945 268.459 c 273.426 268.459 l 278.113
 268.455 282.41 265.834 284.559 261.666 c h
284.559 261.666 m f
0 0.807843 0.705882 rg
222.414 182.474 m 222.414 115.291 l 101.328 115.291 l 98.352 133.525 81.156
 145.896 62.922 142.92 c 48.645 140.588 37.48 129.346 35.258 115.049 c 33.785
 115.291 l 12.527 115.291 l 5.609 115.291 0 120.896 0 127.814 c 0 169.947
 l 0 176.865 5.605 182.474 12.523 182.474 c h
222.414 182.474 m f
0.831373 0.882353 0.956863 rg
101.328 115.291 m 104.297 97.057 91.926 79.869 73.691 76.896 c 55.457 73.928
 38.27 86.303 35.301 104.533 c 35.008 106.31 34.863 108.107 34.863 109.908
 c 34.863 111.627 34.996 113.349 35.258 115.049 c 38.098 133.307 55.203 
145.803 73.461 142.959 c 87.754 140.732 98.996 129.568 101.328 115.291 c
 h
101.328 115.291 m f
Q Q
showpage
%%Trailer
end restore
%%EOF
