%!PS-Adobe-3.0 EPSF-3.0
%%Creator: cairo 1.14.2 (http://cairographics.org)
%%CreationDate: Wed May  2 08:31:25 2018
%%Pages: 1
%%DocumentData: Clean7Bit
%%LanguageLevel: 2
%%BoundingBox: 0 58 390 332
%%EndComments
%%BeginProlog
save
50 dict begin
/q { gsave } bind def
/Q { grestore } bind def
/cm { 6 array astore concat } bind def
/w { setlinewidth } bind def
/J { setlinecap } bind def
/j { setlinejoin } bind def
/M { setmiterlimit } bind def
/d { setdash } bind def
/m { moveto } bind def
/l { lineto } bind def
/c { curveto } bind def
/h { closepath } bind def
/re { exch dup neg 3 1 roll 5 3 roll moveto 0 rlineto
      0 exch rlineto 0 rlineto closepath } bind def
/S { stroke } bind def
/f { fill } bind def
/f* { eofill } bind def
/n { newpath } bind def
/W { clip } bind def
/W* { eoclip } bind def
/BT { } bind def
/ET { } bind def
/pdfmark where { pop globaldict /?pdfmark /exec load put }
    { globaldict begin /?pdfmark /pop load def /pdfmark
    /cleartomark load def end } ifelse
/BDC { mark 3 1 roll /BDC pdfmark } bind def
/EMC { mark /EMC pdfmark } bind def
/cairo_store_point { /cairo_point_y exch def /cairo_point_x exch def } def
/Tj { show currentpoint cairo_store_point } bind def
/TJ {
  {
    dup
    type /stringtype eq
    { show } { -0.001 mul 0 cairo_font_matrix dtransform rmoveto } ifelse
  } forall
  currentpoint cairo_store_point
} bind def
/cairo_selectfont { cairo_font_matrix aload pop pop pop 0 0 6 array astore
    cairo_font exch selectfont cairo_point_x cairo_point_y moveto } bind def
/Tf { pop /cairo_font exch def /cairo_font_matrix where
      { pop cairo_selectfont } if } bind def
/Td { matrix translate cairo_font_matrix matrix concatmatrix dup
      /cairo_font_matrix exch def dup 4 get exch 5 get cairo_store_point
      /cairo_font where { pop cairo_selectfont } if } bind def
/Tm { 2 copy 8 2 roll 6 array astore /cairo_font_matrix exch def
      cairo_store_point /cairo_font where { pop cairo_selectfont } if } bind def
/g { setgray } bind def
/rg { setrgbcolor } bind def
/d1 { setcachedevice } bind def
%%EndProlog
%%BeginSetup
%%EndSetup
%%Page: 1 1
%%BeginPageSetup
%%PageBoundingBox: 0 58 390 332
%%EndPageSetup
q 0 58 390 274 rectclip q
0 0.937255 0.819608 rg
389.062 169.72 m 389.062 109.103 l 389.066 102.228 383.492 96.654 376.621
 96.654 c 357.984 96.654 l 355.027 114.771 337.945 127.064 319.828 124.107
 c 305.73 121.806 294.676 110.755 292.375 96.654 c 267.336 96.654 l 267.336
 192.744 l 354.535 192.744 l 381.527 181.158 l 386.102 179.193 389.066 174.697
 389.062 169.72 c h
389.062 169.72 m f
0.831373 0.882353 0.956863 rg
292.375 96.654 m 295.332 114.771 312.414 127.064 330.531 124.107 c 344.633
 121.806 355.684 110.755 357.984 96.654 c 358.273 94.884 358.418 93.095 
358.414 91.302 c 358.414 72.947 343.535 58.068 325.18 58.068 c 306.824 58.068
 291.945 72.947 291.945 91.302 c 291.941 93.095 292.086 94.884 292.375 96.654
 c h
292.375 96.654 m f
329.09 242.111 m 354.535 192.744 l 267.336 192.744 l 267.336 236.408 l 
267.336 243.287 272.91 248.861 279.789 248.861 c 318.023 248.861 l 322.684
 248.857 326.953 246.255 329.09 242.111 c h
329.09 242.111 m f
0 0.807843 0.705882 rg
267.336 163.416 m 267.336 96.654 l 122.105 96.654 l 119.148 114.771 102.066
 127.064 83.949 124.107 c 69.758 121.794 58.668 110.619 56.457 96.416 c 
54.984 96.654 l 33.863 96.654 l 26.992 96.65 21.418 102.22 21.414 109.091
 c 21.414 150.966 l 21.414 157.837 26.98 163.412 33.852 163.416 c h
267.336 163.416 m f
0.831373 0.882353 0.956863 rg
202.352 217.158 m 202.352 216.584 202.328 216.013 202.281 215.455 c 201.34
 203.869 191.188 195.236 179.598 196.173 c 169.316 197.009 161.152 205.173
 160.32 215.455 c 160.273 216.013 160.246 216.584 160.246 217.158 c 160.238
 228.787 169.66 238.216 181.285 238.224 c 192.914 238.232 202.344 228.814
 202.352 217.185 c h
202.352 217.158 m f
0 0.937255 0.819608 rg
174.199 266.357 m 174.215 266.462 l 174.781 266.392 175.352 266.357 175.922
 266.357 c 200.152 266.357 l 213.668 266.357 224.629 255.404 224.633 241.888
 c 224.633 230.134 l 224.633 222.021 218.055 215.447 209.945 215.447 c 202.352
 215.447 l 202.281 215.455 l 202.328 216.013 202.352 216.584 202.352 217.158
 c 202.352 228.787 192.926 238.209 181.301 238.209 c 169.672 238.209 160.246
 228.787 160.246 217.158 c 160.246 216.584 160.273 216.013 160.32 215.455
 c 160.246 215.447 l 103.953 215.447 l 103.953 266.357 l h
174.199 266.357 m f
0.831373 0.882353 0.956863 rg
122.105 96.654 m 122.395 94.884 122.539 93.095 122.535 91.302 c 122.535
 72.947 107.656 58.068 89.301 58.068 c 70.945 58.068 56.062 72.947 56.062
 91.302 c 56.066 93.013 56.195 94.724 56.457 96.416 c 59.277 114.552 76.27
 126.97 94.41 124.146 c 108.613 121.935 119.789 110.841 122.105 96.654 c
 h
122.105 96.654 m f
0 0.807843 0.705882 rg
103.953 217.263 m 103.953 215.447 l 73.602 215.447 l 73.527 215.455 l 73.574
 216.013 73.602 216.584 73.602 217.158 c 73.602 228.787 64.176 238.209 52.547
 238.209 c 40.922 238.209 31.496 228.787 31.496 217.158 c 31.496 216.584
 31.52 216.013 31.566 215.455 c 31.496 215.447 l 24.152 215.447 l 16.039
 215.447 9.465 222.021 9.465 230.134 c 9.465 259.982 l 9.461 262.189 9.961
 264.369 10.922 266.357 c 103.953 266.357 l h
103.953 217.263 m f
0.831373 0.882353 0.956863 rg
73.602 217.158 m 73.602 216.584 73.574 216.013 73.527 215.455 c 72.59 203.869
 62.434 195.236 50.848 196.173 c 40.562 197.009 32.402 205.173 31.566 215.455
 c 31.52 216.013 31.496 216.584 31.496 217.158 c 31.492 228.787 40.914 238.212
 52.539 238.22 c 64.168 238.224 73.598 228.798 73.602 217.173 c h
73.602 217.158 m f
0 0.67451 0.917647 rg
244 172.935 m 8 172.935 l 3.582 172.935 0 176.517 0 180.935 c 0 185.353
 3.582 188.935 8 188.935 c 236 188.935 l 236 215.334 l 236 219.751 239.582
 223.334 244 223.334 c 248.418 223.334 252 219.751 252 215.334 c 252 180.935
 l 252 176.517 248.418 172.935 244 172.935 c h
244 172.935 m f
127.207 314.998 m 56.703 314.998 l 52.285 314.998 48.703 318.58 48.703 
322.998 c 48.703 327.416 52.285 330.998 56.703 330.998 c 127.207 330.998
 l 131.625 330.998 135.207 327.416 135.207 322.998 c 135.207 318.58 131.625
 314.998 127.207 314.998 c h
127.207 314.998 m f
114.719 296.552 m 110.301 296.552 106.719 300.13 106.719 304.552 c 106.719
 322.998 l 106.719 327.416 110.301 330.998 114.719 330.998 c 119.137 330.998
 122.719 327.416 122.719 322.998 c 122.719 304.552 l 122.719 300.13 119.137
 296.552 114.719 296.552 c h
114.719 296.552 m f
69.191 296.552 m 64.773 296.552 61.191 300.13 61.191 304.552 c 61.191 322.998
 l 61.191 327.416 64.773 330.998 69.191 330.998 c 73.609 330.998 77.191 
327.416 77.191 322.998 c 77.191 304.552 l 77.191 300.13 73.609 296.552 69.191
 296.552 c h
69.191 296.552 m f
0.831373 0.882353 0.956863 rg
165.199 271.013 m 167.57 268.478 170.766 266.865 174.215 266.462 c 174.199
 266.357 l 103.953 266.357 l 103.953 304.552 l 127.441 304.552 l 131.508
 304.548 135.391 302.865 138.168 299.896 c h
165.199 271.013 m f
0.729412 0.811765 0.909804 rg
103.953 304.552 m 103.953 266.357 l 58.176 266.357 l 75.801 304.302 l 75.801
 304.552 l h
103.953 304.552 m f
0.831373 0.882353 0.956863 rg
75.801 304.552 m 75.801 304.302 l 58.176 266.357 l 10.922 266.357 l 11.711
 267.998 12.797 269.474 14.129 270.72 c 46.113 300.591 l 48.832 303.134 
52.414 304.548 56.137 304.552 c h
75.801 304.552 m f
Q Q
showpage
%%Trailer
end restore
%%EOF
