%!PS-Adobe-3.0 EPSF-3.0
%%Creator: cairo 1.14.2 (http://cairographics.org)
%%CreationDate: Wed May  2 08:31:25 2018
%%Pages: 1
%%DocumentData: Clean7Bit
%%LanguageLevel: 2
%%BoundingBox: 0 3 366 363
%%EndComments
%%BeginProlog
save
50 dict begin
/q { gsave } bind def
/Q { grestore } bind def
/cm { 6 array astore concat } bind def
/w { setlinewidth } bind def
/J { setlinecap } bind def
/j { setlinejoin } bind def
/M { setmiterlimit } bind def
/d { setdash } bind def
/m { moveto } bind def
/l { lineto } bind def
/c { curveto } bind def
/h { closepath } bind def
/re { exch dup neg 3 1 roll 5 3 roll moveto 0 rlineto
      0 exch rlineto 0 rlineto closepath } bind def
/S { stroke } bind def
/f { fill } bind def
/f* { eofill } bind def
/n { newpath } bind def
/W { clip } bind def
/W* { eoclip } bind def
/BT { } bind def
/ET { } bind def
/pdfmark where { pop globaldict /?pdfmark /exec load put }
    { globaldict begin /?pdfmark /pop load def /pdfmark
    /cleartomark load def end } ifelse
/BDC { mark 3 1 roll /BDC pdfmark } bind def
/EMC { mark /EMC pdfmark } bind def
/cairo_store_point { /cairo_point_y exch def /cairo_point_x exch def } def
/Tj { show currentpoint cairo_store_point } bind def
/TJ {
  {
    dup
    type /stringtype eq
    { show } { -0.001 mul 0 cairo_font_matrix dtransform rmoveto } ifelse
  } forall
  currentpoint cairo_store_point
} bind def
/cairo_selectfont { cairo_font_matrix aload pop pop pop 0 0 6 array astore
    cairo_font exch selectfont cairo_point_x cairo_point_y moveto } bind def
/Tf { pop /cairo_font exch def /cairo_font_matrix where
      { pop cairo_selectfont } if } bind def
/Td { matrix translate cairo_font_matrix matrix concatmatrix dup
      /cairo_font_matrix exch def dup 4 get exch 5 get cairo_store_point
      /cairo_font where { pop cairo_selectfont } if } bind def
/Tm { 2 copy 8 2 roll 6 array astore /cairo_font_matrix exch def
      cairo_store_point /cairo_font where { pop cairo_selectfont } if } bind def
/g { setgray } bind def
/rg { setrgbcolor } bind def
/d1 { setcachedevice } bind def
%%EndProlog
%%BeginSetup
%%EndSetup
%%Page: 1 1
%%BeginPageSetup
%%PageBoundingBox: 0 3 366 363
%%EndPageSetup
q 0 3 366 360 rectclip q
0 0.67451 0.917647 rg
202.352 164.634 m 202.352 153.817 193.582 145.048 182.77 145.048 c 171.953
 145.048 163.184 153.817 163.184 164.634 c 163.184 175.446 171.953 184.216
 182.77 184.216 c 193.582 184.216 202.352 175.446 202.352 164.634 c h
202.352 164.634 m f
182.77 184.216 m 171.953 184.216 163.184 175.446 163.184 164.634 c 163.184
 153.817 171.953 145.048 182.77 145.048 c 193.586 145.048 202.352 153.817
 202.352 164.634 c 202.352 175.446 193.586 184.216 182.77 184.216 c h
7.551 178.993 m 7.551 275.759 86 354.208 182.77 354.208 c 279.535 354.208
 357.984 275.759 357.984 178.993 c 357.984 82.224 279.535 3.774 182.77 3.774
 c 86 3.774 7.551 82.224 7.551 178.993 c h
7.551 178.993 m f
0.831373 0.882353 0.956863 rg
190.77 191.028 m 190.77 278.313 l 190.77 282.731 187.188 286.313 182.77
 286.313 c 178.348 286.313 174.77 282.731 174.77 278.313 c 174.77 191.032
 l 160.188 186.614 151.953 171.212 156.371 156.634 c 160.789 142.056 176.188
 133.817 190.77 138.235 c 205.348 142.653 213.586 158.056 209.168 172.634
 c 206.492 181.454 199.59 188.36 190.77 191.032 c h
182.77 153.048 m 176.371 153.048 171.184 158.235 171.184 164.634 c 171.184
 171.028 176.371 176.216 182.77 176.216 c 189.164 176.216 194.352 171.028
 194.352 164.634 c 194.344 158.239 189.164 153.056 182.77 153.048 c h
182.77 153.048 m f
182.77 310.809 m 178.348 310.809 174.77 314.391 174.77 318.809 c 174.77
 353.759 l 174.77 358.177 178.348 361.759 182.77 361.759 c 187.188 361.759
 190.77 358.177 190.77 353.759 c 190.77 318.809 l 190.77 314.391 187.188
 310.809 182.77 310.809 c h
182.77 310.809 m f
357.535 170.993 m 322.586 170.993 l 318.164 170.993 314.586 174.575 314.586
 178.993 c 314.586 183.411 318.164 186.993 322.586 186.993 c 357.535 186.993
 l 361.953 186.993 365.535 183.411 365.535 178.993 c 365.535 174.575 361.953
 170.993 357.535 170.993 c h
357.535 170.993 m f
42.953 170.993 m 8 170.993 l 3.582 170.993 0 174.575 0 178.993 c 0 183.411
 3.582 186.993 8 186.993 c 42.953 186.993 l 47.371 186.993 50.953 183.411
 50.953 178.993 c 50.953 174.575 47.371 170.993 42.953 170.993 c h
42.953 170.993 m f
281.801 270.024 m 277.383 270.024 273.801 273.606 273.801 278.024 c 273.801
 280.145 274.645 282.181 276.145 283.681 c 300.789 308.329 l 303.914 311.454
 308.98 311.454 312.105 308.329 c 315.23 305.204 315.23 300.138 312.105 
297.013 c 287.457 272.368 l 285.957 270.864 283.922 270.02 281.801 270.024
 c h
281.801 270.024 m f
83.734 270.024 m 81.613 270.02 79.578 270.864 78.078 272.368 c 53.43 297.013
 l 50.309 300.138 50.305 305.204 53.43 308.329 c 56.555 311.454 61.621 311.454
 64.746 308.329 c 89.395 283.681 l 92.516 280.556 92.516 275.493 89.395 
272.368 c 87.895 270.868 85.859 270.024 83.734 270.024 c h
83.734 270.024 m f
309.707 54.298 m 307.32 54.294 305.055 55.36 303.535 57.204 c 248.543 123.899
 149.891 133.388 83.195 78.395 c 75.969 72.438 69.289 65.841 63.242 58.688
 c 60.414 55.294 55.367 54.837 51.977 57.665 c 48.582 60.493 48.125 65.54
 50.953 68.931 c 50.977 68.962 51.004 68.993 51.031 69.024 c 112.551 141.782
 221.406 150.891 294.164 89.372 c 302.043 82.708 309.309 75.352 315.875 
67.391 c 318.688 63.985 318.203 58.942 314.797 56.13 c 313.363 54.946 311.566
 54.302 309.707 54.298 c h
309.707 54.298 m f
Q Q
showpage
%%Trailer
end restore
%%EOF
