%!PS-Adobe-3.0 EPSF-3.0
%%Creator: cairo 1.14.2 (http://cairographics.org)
%%CreationDate: Wed May  2 08:31:25 2018
%%Pages: 1
%%DocumentData: Clean7Bit
%%LanguageLevel: 2
%%BoundingBox: 35 -1 314 350
%%EndComments
%%BeginProlog
save
50 dict begin
/q { gsave } bind def
/Q { grestore } bind def
/cm { 6 array astore concat } bind def
/w { setlinewidth } bind def
/J { setlinecap } bind def
/j { setlinejoin } bind def
/M { setmiterlimit } bind def
/d { setdash } bind def
/m { moveto } bind def
/l { lineto } bind def
/c { curveto } bind def
/h { closepath } bind def
/re { exch dup neg 3 1 roll 5 3 roll moveto 0 rlineto
      0 exch rlineto 0 rlineto closepath } bind def
/S { stroke } bind def
/f { fill } bind def
/f* { eofill } bind def
/n { newpath } bind def
/W { clip } bind def
/W* { eoclip } bind def
/BT { } bind def
/ET { } bind def
/pdfmark where { pop globaldict /?pdfmark /exec load put }
    { globaldict begin /?pdfmark /pop load def /pdfmark
    /cleartomark load def end } ifelse
/BDC { mark 3 1 roll /BDC pdfmark } bind def
/EMC { mark /EMC pdfmark } bind def
/cairo_store_point { /cairo_point_y exch def /cairo_point_x exch def } def
/Tj { show currentpoint cairo_store_point } bind def
/TJ {
  {
    dup
    type /stringtype eq
    { show } { -0.001 mul 0 cairo_font_matrix dtransform rmoveto } ifelse
  } forall
  currentpoint cairo_store_point
} bind def
/cairo_selectfont { cairo_font_matrix aload pop pop pop 0 0 6 array astore
    cairo_font exch selectfont cairo_point_x cairo_point_y moveto } bind def
/Tf { pop /cairo_font exch def /cairo_font_matrix where
      { pop cairo_selectfont } if } bind def
/Td { matrix translate cairo_font_matrix matrix concatmatrix dup
      /cairo_font_matrix exch def dup 4 get exch 5 get cairo_store_point
      /cairo_font where { pop cairo_selectfont } if } bind def
/Tm { 2 copy 8 2 roll 6 array astore /cairo_font_matrix exch def
      cairo_store_point /cairo_font where { pop cairo_selectfont } if } bind def
/g { setgray } bind def
/rg { setrgbcolor } bind def
/d1 { setcachedevice } bind def
%%EndProlog
%%BeginSetup
%%EndSetup
%%Page: 1 1
%%BeginPageSetup
%%PageBoundingBox: 35 -1 314 350
%%EndPageSetup
q 35 -1 279 351 rectclip q
0 0.67451 0.917647 rg
148.734 294.843 m 148.969 271.425 133.434 251.265 115.121 242.691 c 115.121
 109.433 l 139.688 102.019 154.062 80.691 154.062 55.195 c 154.062 29.699
 139.922 8.14 115.121 0.953 c 118.398 40.363 l 118.098 40.586 l 106.781 
49.199 91.082 49.109 79.863 40.371 c 79.855 40.363 l 82.902 1.187 l 54.625
 7.675 40.945 29.234 40.945 54.73 c 40.945 77.914 56.238 98.308 74.785 107.121
 c 74.785 240.836 l 50.215 248.25 35.848 269.578 35.848 295.074 c 36.078
 320.339 50.215 341.898 75.016 349.082 c 71.742 309.675 l 72.039 309.449
 l 83.359 300.839 99.059 300.925 110.281 309.668 c 110.289 309.675 l 107.238
 348.851 l 135.055 341.898 148.734 320.339 148.734 294.843 c h
148.734 294.843 m f
0.0313726 0.219608 0.388235 rg
247.359 299.152 16 -158.117 re f
0 0.937255 0.819608 rg
305.246 149.109 m 201.59 149.632 l 201.566 149.632 l 197.113 149.527 193.562
 145.882 193.566 141.429 c 193.547 136.988 197.109 133.359 201.551 133.293
 c 224.938 133.113 l 224.938 29.113 l 224.938 12.785 238.113 0.035 254.441
 0.035 c 254.473 0.035 l 270.91 -0.766 284.137 12.675 284.137 29.113 c 284.137
 132.941 l 305.203 132.836 l 305.223 132.836 l 309.719 132.906 313.305 136.605
 313.234 141.101 c 313.164 145.488 309.633 149.027 305.246 149.109 c h
305.246 149.109 m f
0 0.67451 0.917647 rg
272.543 348.988 m 279.887 297.644 l 229.305 297.644 l 236.641 348.988 l
 h
272.543 348.988 m f
Q Q
showpage
%%Trailer
end restore
%%EOF
