%!PS-Adobe-3.0 EPSF-3.0
%%Creator: cairo 1.14.2 (http://cairographics.org)
%%CreationDate: Wed May  2 08:31:25 2018
%%Pages: 1
%%DocumentData: Clean7Bit
%%LanguageLevel: 2
%%BoundingBox: 84 -1 273 358
%%EndComments
%%BeginProlog
save
50 dict begin
/q { gsave } bind def
/Q { grestore } bind def
/cm { 6 array astore concat } bind def
/w { setlinewidth } bind def
/J { setlinecap } bind def
/j { setlinejoin } bind def
/M { setmiterlimit } bind def
/d { setdash } bind def
/m { moveto } bind def
/l { lineto } bind def
/c { curveto } bind def
/h { closepath } bind def
/re { exch dup neg 3 1 roll 5 3 roll moveto 0 rlineto
      0 exch rlineto 0 rlineto closepath } bind def
/S { stroke } bind def
/f { fill } bind def
/f* { eofill } bind def
/n { newpath } bind def
/W { clip } bind def
/W* { eoclip } bind def
/BT { } bind def
/ET { } bind def
/pdfmark where { pop globaldict /?pdfmark /exec load put }
    { globaldict begin /?pdfmark /pop load def /pdfmark
    /cleartomark load def end } ifelse
/BDC { mark 3 1 roll /BDC pdfmark } bind def
/EMC { mark /EMC pdfmark } bind def
/cairo_store_point { /cairo_point_y exch def /cairo_point_x exch def } def
/Tj { show currentpoint cairo_store_point } bind def
/TJ {
  {
    dup
    type /stringtype eq
    { show } { -0.001 mul 0 cairo_font_matrix dtransform rmoveto } ifelse
  } forall
  currentpoint cairo_store_point
} bind def
/cairo_selectfont { cairo_font_matrix aload pop pop pop 0 0 6 array astore
    cairo_font exch selectfont cairo_point_x cairo_point_y moveto } bind def
/Tf { pop /cairo_font exch def /cairo_font_matrix where
      { pop cairo_selectfont } if } bind def
/Td { matrix translate cairo_font_matrix matrix concatmatrix dup
      /cairo_font_matrix exch def dup 4 get exch 5 get cairo_store_point
      /cairo_font where { pop cairo_selectfont } if } bind def
/Tm { 2 copy 8 2 roll 6 array astore /cairo_font_matrix exch def
      cairo_store_point /cairo_font where { pop cairo_selectfont } if } bind def
/g { setgray } bind def
/rg { setrgbcolor } bind def
/d1 { setcachedevice } bind def
%%EndProlog
%%BeginSetup
%%EndSetup
%%Page: 1 1
%%BeginPageSetup
%%PageBoundingBox: 84 -1 273 358
%%EndPageSetup
q 84 -1 189 359 rectclip q
0 0.67451 0.917647 rg
229.527 345.599 m 246.434 328.696 246.434 300.185 229.527 283.278 c 225.91
 279.825 221.73 277.009 217.168 274.95 c 217.168 244.087 l 179.824 244.087
 l 179.824 274.95 l 175.211 276.915 171.012 279.743 167.457 283.278 c 150.551
 300.185 150.551 328.696 167.457 345.599 c 171.738 349.868 176.91 353.142
 182.602 355.185 c 188.902 357.712 l 188.902 327.064 l 188.902 321.771 193.195
 317.478 198.492 317.478 c 203.789 317.478 208.078 321.771 208.078 327.064
 c 208.078 357.712 l 214.391 355.185 l 220.695 352.665 225.496 349.634 229.527
 345.599 c h
229.527 345.599 m f
229.527 74.431 m 246.434 57.528 246.434 29.017 229.527 12.11 c 225.25 7.841
 220.082 4.571 214.391 2.528 c 208.078 0.001 l 208.078 30.65 l 208.078 35.942
 203.789 40.235 198.492 40.235 c 193.195 40.235 188.902 35.942 188.902 30.65
 c 188.902 0.001 l 182.602 2.528 l 176.289 5.048 171.496 8.079 167.457 12.11
 c 150.551 29.017 150.551 57.528 167.457 74.431 c 171.078 77.884 175.262
 80.7 179.824 82.759 c 179.824 103.216 l 217.168 103.216 l 217.168 82.759
 l 221.781 80.798 225.977 77.97 229.527 74.431 c h
229.527 74.431 m f
0 0.937255 0.819608 rg
233.855 138.321 m 233.855 137.56 l 243.52 137.45 251.324 129.646 251.434
 119.985 c 251.359 115.427 249.668 111.044 246.656 107.622 c 243.887 104.423
 240.352 102.415 237.297 102.415 c 131.496 102.415 l 105.801 102.517 85 
123.321 84.895 149.017 c 84.895 222.735 l 85 248.431 105.801 269.235 131.496
 269.337 c 179.824 269.337 l 179.824 244.888 l 255.246 244.888 l 264.906
 244.778 272.707 236.978 272.816 227.321 c 272.711 217.661 264.906 209.853
 255.246 209.743 c 247.992 209.743 l 247.992 209.368 l 257.652 209.255 265.453
 201.45 265.559 191.79 c 265.441 182.138 257.645 174.341 247.992 174.224
 c 241.113 174.224 l 241.113 173.466 l 250.773 173.353 258.578 165.548 258.688
 155.888 c 258.617 151.333 256.922 146.95 253.91 143.528 c 251.145 140.329
 247.609 138.321 244.551 138.321 c h
233.855 138.321 m f
Q Q
showpage
%%Trailer
end restore
%%EOF
