%!PS-Adobe-3.0 EPSF-3.0
%%Creator: cairo 1.14.2 (http://cairographics.org)
%%CreationDate: Wed May  2 08:31:25 2018
%%Pages: 1
%%DocumentData: Clean7Bit
%%LanguageLevel: 2
%%BoundingBox: 56 -1 295 352
%%EndComments
%%BeginProlog
save
50 dict begin
/q { gsave } bind def
/Q { grestore } bind def
/cm { 6 array astore concat } bind def
/w { setlinewidth } bind def
/J { setlinecap } bind def
/j { setlinejoin } bind def
/M { setmiterlimit } bind def
/d { setdash } bind def
/m { moveto } bind def
/l { lineto } bind def
/c { curveto } bind def
/h { closepath } bind def
/re { exch dup neg 3 1 roll 5 3 roll moveto 0 rlineto
      0 exch rlineto 0 rlineto closepath } bind def
/S { stroke } bind def
/f { fill } bind def
/f* { eofill } bind def
/n { newpath } bind def
/W { clip } bind def
/W* { eoclip } bind def
/BT { } bind def
/ET { } bind def
/pdfmark where { pop globaldict /?pdfmark /exec load put }
    { globaldict begin /?pdfmark /pop load def /pdfmark
    /cleartomark load def end } ifelse
/BDC { mark 3 1 roll /BDC pdfmark } bind def
/EMC { mark /EMC pdfmark } bind def
/cairo_store_point { /cairo_point_y exch def /cairo_point_x exch def } def
/Tj { show currentpoint cairo_store_point } bind def
/TJ {
  {
    dup
    type /stringtype eq
    { show } { -0.001 mul 0 cairo_font_matrix dtransform rmoveto } ifelse
  } forall
  currentpoint cairo_store_point
} bind def
/cairo_selectfont { cairo_font_matrix aload pop pop pop 0 0 6 array astore
    cairo_font exch selectfont cairo_point_x cairo_point_y moveto } bind def
/Tf { pop /cairo_font exch def /cairo_font_matrix where
      { pop cairo_selectfont } if } bind def
/Td { matrix translate cairo_font_matrix matrix concatmatrix dup
      /cairo_font_matrix exch def dup 4 get exch 5 get cairo_store_point
      /cairo_font where { pop cairo_selectfont } if } bind def
/Tm { 2 copy 8 2 roll 6 array astore /cairo_font_matrix exch def
      cairo_store_point /cairo_font where { pop cairo_selectfont } if } bind def
/g { setgray } bind def
/rg { setrgbcolor } bind def
/d1 { setcachedevice } bind def
%%EndProlog
%%BeginSetup
%%EndSetup
%%Page: 1 1
%%BeginPageSetup
%%PageBoundingBox: 56 -1 295 352
%%EndPageSetup
q 56 -1 239 353 rectclip q
0.831373 0.882353 0.956863 rg
190.051 91.422 m 190.051 90.793 l 161.797 90.793 l 161.797 254.328 l 190.051
 254.328 l h
190.051 91.422 m f
0 0.67451 0.917647 rg
218.395 309.528 m 218.398 297.141 213.164 285.328 203.988 277.008 c 200.98
 251.926 l 150.867 251.926 l 147.859 277.008 l 138.695 285.207 133.453 296.926
 133.453 309.223 c 133.367 332.68 152.316 351.762 175.773 351.848 c 199.23
 351.934 218.312 332.985 218.395 309.528 c h
218.395 309.528 m f
0 0.937255 0.819608 rg
259.445 47.887 m 259.445 47.254 l 92.402 47.254 l 92.402 68.137 l 92.402
 81.973 103.617 93.192 117.457 93.192 c 234.387 93.192 l 248.227 93.192 
259.441 81.977 259.445 68.141 c h
259.445 47.887 m f
0 0.807843 0.705882 rg
294.941 23.801 m 294.941 0 l 56.906 0 l 56.906 23.801 l 56.906 37.637 68.121
 48.856 81.961 48.856 c 269.883 48.856 l 283.723 48.856 294.938 37.641 294.941
 23.805 c h
294.941 23.801 m f
Q Q
showpage
%%Trailer
end restore
%%EOF
