%!PS-Adobe-3.0 EPSF-3.0
%%Creator: cairo 1.14.2 (http://cairographics.org)
%%CreationDate: Wed May  2 08:31:25 2018
%%Pages: 1
%%DocumentData: Clean7Bit
%%LanguageLevel: 2
%%BoundingBox: 0 23 382 358
%%EndComments
%%BeginProlog
save
50 dict begin
/q { gsave } bind def
/Q { grestore } bind def
/cm { 6 array astore concat } bind def
/w { setlinewidth } bind def
/J { setlinecap } bind def
/j { setlinejoin } bind def
/M { setmiterlimit } bind def
/d { setdash } bind def
/m { moveto } bind def
/l { lineto } bind def
/c { curveto } bind def
/h { closepath } bind def
/re { exch dup neg 3 1 roll 5 3 roll moveto 0 rlineto
      0 exch rlineto 0 rlineto closepath } bind def
/S { stroke } bind def
/f { fill } bind def
/f* { eofill } bind def
/n { newpath } bind def
/W { clip } bind def
/W* { eoclip } bind def
/BT { } bind def
/ET { } bind def
/pdfmark where { pop globaldict /?pdfmark /exec load put }
    { globaldict begin /?pdfmark /pop load def /pdfmark
    /cleartomark load def end } ifelse
/BDC { mark 3 1 roll /BDC pdfmark } bind def
/EMC { mark /EMC pdfmark } bind def
/cairo_store_point { /cairo_point_y exch def /cairo_point_x exch def } def
/Tj { show currentpoint cairo_store_point } bind def
/TJ {
  {
    dup
    type /stringtype eq
    { show } { -0.001 mul 0 cairo_font_matrix dtransform rmoveto } ifelse
  } forall
  currentpoint cairo_store_point
} bind def
/cairo_selectfont { cairo_font_matrix aload pop pop pop 0 0 6 array astore
    cairo_font exch selectfont cairo_point_x cairo_point_y moveto } bind def
/Tf { pop /cairo_font exch def /cairo_font_matrix where
      { pop cairo_selectfont } if } bind def
/Td { matrix translate cairo_font_matrix matrix concatmatrix dup
      /cairo_font_matrix exch def dup 4 get exch 5 get cairo_store_point
      /cairo_font where { pop cairo_selectfont } if } bind def
/Tm { 2 copy 8 2 roll 6 array astore /cairo_font_matrix exch def
      cairo_store_point /cairo_font where { pop cairo_selectfont } if } bind def
/g { setgray } bind def
/rg { setrgbcolor } bind def
/d1 { setcachedevice } bind def
%%EndProlog
%%BeginSetup
%%EndSetup
%%Page: 1 1
%%BeginPageSetup
%%PageBoundingBox: 0 23 382 358
%%EndPageSetup
q 0 23 382 335 rectclip q
0 0.67451 0.917647 rg
343.516 285.902 m 280.949 357.211 l 268.91 346.66 l 317.414 291.367 l 299.891
 288.429 288.066 271.847 291.004 254.324 c 293.602 238.812 307.035 227.457
 322.766 227.472 c 329.398 227.523 335.863 229.574 341.312 233.363 c 341.312
 123.922 l 341.312 109.344 329.492 97.523 314.91 97.523 c 300.332 97.523
 288.512 109.344 288.512 123.922 c 288.512 146.047 l 288.613 166.75 271.91
 183.613 251.211 183.711 c 230.113 183.711 l 230.113 167.711 l 251.121 167.711
 l 262.977 167.672 272.555 158.027 272.512 146.172 c 272.512 146.133 272.512
 146.09 272.512 146.047 c 272.512 123.922 l 272.512 100.504 291.496 81.519
 314.91 81.519 c 338.328 81.519 357.312 100.504 357.312 123.922 c 357.312
 250.457 l 357.34 263.59 352.414 276.246 343.516 285.902 c h
322.734 243.472 m 313.805 243.469 306.562 250.711 306.559 259.64 c 306.559
 268.57 313.797 275.812 322.727 275.816 c 331.66 275.82 338.902 268.578 
338.902 259.648 c 338.902 259.64 l 338.891 250.715 331.66 243.484 322.734
 243.472 c h
322.734 243.472 m f
0 0.937255 0.819608 rg
231.84 175.703 m 231.84 32.039 l 33.055 32.039 l 33.055 332.719 l 33.055
 346.558 44.273 357.781 58.113 357.785 c 206.785 357.785 l 220.625 357.777
 231.84 346.558 231.84 332.719 c h
231.84 175.703 m f
0 0.807843 0.705882 rg
373.824 24.039 m 8 24.039 l 3.582 24.039 0 27.621 0 32.039 c 0 36.457 3.582
 40.039 8 40.039 c 373.824 40.039 l 378.242 40.039 381.824 36.457 381.824
 32.039 c 381.824 27.621 378.242 24.039 373.824 24.039 c h
373.824 24.039 m f
0.831373 0.882353 0.956863 rg
62.703 318.945 141.57 -93.547 re f
Q Q
showpage
%%Trailer
end restore
%%EOF
