%!PS-Adobe-3.0 EPSF-3.0
%%Creator: cairo 1.14.2 (http://cairographics.org)
%%CreationDate: Wed May  2 08:31:25 2018
%%Pages: 1
%%DocumentData: Clean7Bit
%%LanguageLevel: 2
%%BoundingBox: 0 -1 349 349
%%EndComments
%%BeginProlog
save
50 dict begin
/q { gsave } bind def
/Q { grestore } bind def
/cm { 6 array astore concat } bind def
/w { setlinewidth } bind def
/J { setlinecap } bind def
/j { setlinejoin } bind def
/M { setmiterlimit } bind def
/d { setdash } bind def
/m { moveto } bind def
/l { lineto } bind def
/c { curveto } bind def
/h { closepath } bind def
/re { exch dup neg 3 1 roll 5 3 roll moveto 0 rlineto
      0 exch rlineto 0 rlineto closepath } bind def
/S { stroke } bind def
/f { fill } bind def
/f* { eofill } bind def
/n { newpath } bind def
/W { clip } bind def
/W* { eoclip } bind def
/BT { } bind def
/ET { } bind def
/pdfmark where { pop globaldict /?pdfmark /exec load put }
    { globaldict begin /?pdfmark /pop load def /pdfmark
    /cleartomark load def end } ifelse
/BDC { mark 3 1 roll /BDC pdfmark } bind def
/EMC { mark /EMC pdfmark } bind def
/cairo_store_point { /cairo_point_y exch def /cairo_point_x exch def } def
/Tj { show currentpoint cairo_store_point } bind def
/TJ {
  {
    dup
    type /stringtype eq
    { show } { -0.001 mul 0 cairo_font_matrix dtransform rmoveto } ifelse
  } forall
  currentpoint cairo_store_point
} bind def
/cairo_selectfont { cairo_font_matrix aload pop pop pop 0 0 6 array astore
    cairo_font exch selectfont cairo_point_x cairo_point_y moveto } bind def
/Tf { pop /cairo_font exch def /cairo_font_matrix where
      { pop cairo_selectfont } if } bind def
/Td { matrix translate cairo_font_matrix matrix concatmatrix dup
      /cairo_font_matrix exch def dup 4 get exch 5 get cairo_store_point
      /cairo_font where { pop cairo_selectfont } if } bind def
/Tm { 2 copy 8 2 roll 6 array astore /cairo_font_matrix exch def
      cairo_store_point /cairo_font where { pop cairo_selectfont } if } bind def
/g { setgray } bind def
/rg { setrgbcolor } bind def
/d1 { setcachedevice } bind def
%%EndProlog
%%BeginSetup
%%EndSetup
%%Page: 1 1
%%BeginPageSetup
%%PageBoundingBox: 0 -1 349 349
%%EndPageSetup
q 0 -1 349 350 rectclip q
0 0.807843 0.705882 rg
340.145 208.741 m 336.699 208.741 333.645 210.948 332.555 214.214 c 330.504
 220.374 l 315.453 261.808 276.066 289.378 231.984 289.335 c 216.953 289.335
 l 212.535 289.335 208.953 292.917 208.953 297.335 c 208.953 301.753 212.535
 305.335 216.953 305.335 c 231.984 305.335 l 282.832 305.378 328.254 273.55
 345.574 225.745 c 345.598 225.675 345.621 225.604 345.645 225.534 c 347.734
 219.268 l 349.129 215.073 346.859 210.542 342.66 209.147 c 341.848 208.878
 341 208.741 340.145 208.737 c h
340.145 208.741 m f
117.77 305.335 54.703 -16 re f
192.312 230.042 m 187.895 230.042 184.312 233.62 184.312 238.042 c 184.312
 262.265 l 184.312 266.683 187.895 270.265 192.312 270.265 c 196.73 270.265
 200.312 266.683 200.312 262.265 c 200.312 238.042 l 200.312 233.62 196.73
 230.042 192.312 230.042 c h
192.312 230.042 m f
0 0.937255 0.819608 rg
257.465 57.632 m 257.465 16.702 l 257.461 7.475 249.98 -0.001 240.754 -0.001
 c 144.703 -0.001 l 135.48 -0.001 128 7.479 128 16.702 c 128 57.632 l h
257.465 57.632 m f
0.831373 0.882353 0.956863 rg
128 139.479 129.465 -81.848 re f
0 0.937255 0.819608 rg
257.465 171.225 m 257.465 139.479 l 128 139.479 l 128 171.225 l 128 206.975
 156.98 235.956 192.73 235.956 c 228.48 235.956 257.465 206.975 257.465 
171.225 c h
257.465 171.225 m f
0 0.67451 0.917647 rg
216.953 297.335 m 216.953 262.265 l 167.672 262.265 l 167.672 328.241 l
 216.953 328.241 l h
216.953 297.335 m f
0.831373 0.882353 0.956863 rg
124.168 297.335 m 124.168 297.296 l 124.168 286.249 116.723 276.593 106.039
 273.784 c 0.145 245.975 l 0.145 348.288 l 105.969 320.847 l 116.684 318.077
 124.168 308.405 124.168 297.335 c h
124.168 297.335 m f
Q Q
showpage
%%Trailer
end restore
%%EOF
