%!PS-Adobe-3.0 EPSF-3.0
%%Creator: cairo 1.14.2 (http://cairographics.org)
%%CreationDate: Wed May  2 08:31:25 2018
%%Pages: 1
%%DocumentData: Clean7Bit
%%LanguageLevel: 2
%%BoundingBox: 0 42 376 334
%%EndComments
%%BeginProlog
save
50 dict begin
/q { gsave } bind def
/Q { grestore } bind def
/cm { 6 array astore concat } bind def
/w { setlinewidth } bind def
/J { setlinecap } bind def
/j { setlinejoin } bind def
/M { setmiterlimit } bind def
/d { setdash } bind def
/m { moveto } bind def
/l { lineto } bind def
/c { curveto } bind def
/h { closepath } bind def
/re { exch dup neg 3 1 roll 5 3 roll moveto 0 rlineto
      0 exch rlineto 0 rlineto closepath } bind def
/S { stroke } bind def
/f { fill } bind def
/f* { eofill } bind def
/n { newpath } bind def
/W { clip } bind def
/W* { eoclip } bind def
/BT { } bind def
/ET { } bind def
/pdfmark where { pop globaldict /?pdfmark /exec load put }
    { globaldict begin /?pdfmark /pop load def /pdfmark
    /cleartomark load def end } ifelse
/BDC { mark 3 1 roll /BDC pdfmark } bind def
/EMC { mark /EMC pdfmark } bind def
/cairo_store_point { /cairo_point_y exch def /cairo_point_x exch def } def
/Tj { show currentpoint cairo_store_point } bind def
/TJ {
  {
    dup
    type /stringtype eq
    { show } { -0.001 mul 0 cairo_font_matrix dtransform rmoveto } ifelse
  } forall
  currentpoint cairo_store_point
} bind def
/cairo_selectfont { cairo_font_matrix aload pop pop pop 0 0 6 array astore
    cairo_font exch selectfont cairo_point_x cairo_point_y moveto } bind def
/Tf { pop /cairo_font exch def /cairo_font_matrix where
      { pop cairo_selectfont } if } bind def
/Td { matrix translate cairo_font_matrix matrix concatmatrix dup
      /cairo_font_matrix exch def dup 4 get exch 5 get cairo_store_point
      /cairo_font where { pop cairo_selectfont } if } bind def
/Tm { 2 copy 8 2 roll 6 array astore /cairo_font_matrix exch def
      cairo_store_point /cairo_font where { pop cairo_selectfont } if } bind def
/g { setgray } bind def
/rg { setrgbcolor } bind def
/d1 { setcachedevice } bind def
%%EndProlog
%%BeginSetup
%%EndSetup
%%Page: 1 1
%%BeginPageSetup
%%PageBoundingBox: 0 42 376 334
%%EndPageSetup
q 0 42 376 292 rectclip q
0 0.807843 0.705882 rg
342.84 95.546 m 334.742 95.546 l 334.742 111.546 l 342.84 111.546 l 351.828
 111.554 359.109 118.839 359.121 127.823 c 359.121 257.339 l 359.109 266.323
 351.828 273.608 342.84 273.616 c 253.801 273.616 l 253.801 289.616 l 342.84
 289.616 l 360.66 289.593 375.098 275.155 375.121 257.339 c 375.121 127.823
 l 375.098 110.007 360.66 95.565 342.84 95.546 c h
342.84 95.546 m f
0 0.937255 0.819608 rg
233.113 75.616 m 233.113 74.682 233.152 73.753 233.23 72.831 c 232.711 
72.784 l 100.77 72.784 l 100.246 72.831 l 100.328 73.753 100.367 74.682 
100.367 75.616 c f
34.801 75.616 m 34.801 74.69 34.84 73.768 34.922 72.866 c 34.023 72.784
 l 24.281 72.784 l 10.871 72.784 0 83.655 0 97.065 c 0 117.585 l 0 128.53
 7.324 138.124 17.879 141.011 c 74.062 156.362 l 107.648 200.456 l 113.77
 208.499 123.301 213.218 133.406 213.218 c 239.473 213.218 l 250.625 213.218
 260.992 207.483 266.91 198.034 c 293.016 156.362 l 323.297 142.593 l 331.965
 138.651 337.527 130.011 337.527 120.487 c 337.527 97.065 l 337.527 83.655
 326.656 72.784 313.246 72.784 c 299.902 72.784 l 298.566 72.897 l 298.641
 73.792 298.68 74.698 298.68 75.616 c f
0.831373 0.882353 0.956863 rg
298.68 75.616 m 298.68 74.698 298.641 73.792 298.566 72.897 c 297.062 54.854
 281.219 41.444 263.176 42.948 c 247.242 44.276 234.59 56.905 233.23 72.831
 c 233.152 73.753 233.113 74.682 233.113 75.616 c 233.105 93.722 247.777
 108.409 265.883 108.413 c 283.988 108.421 298.672 93.749 298.68 75.643 
c h
298.68 75.616 m f
100.367 75.616 m 100.367 74.682 100.328 73.753 100.246 72.831 c 98.711 
54.792 82.844 41.417 64.805 42.952 c 48.883 44.307 36.262 56.944 34.922 
72.866 c 34.84 73.768 34.801 74.69 34.801 75.616 c 34.801 93.722 49.477 
108.401 67.586 108.401 c 85.691 108.401 100.367 93.722 100.367 75.616 c 
h
100.367 75.616 m f
0 0.67451 0.917647 rg
230.23 315.561 m 210.359 315.561 l 210.359 324.288 l 210.359 328.706 206.777
 332.288 202.359 332.288 c 197.941 332.288 194.359 328.706 194.359 324.288
 c 194.359 309.628 l 170.871 309.96 l 170.824 309.96 l 166.402 309.913 162.84
 306.327 162.824 301.909 c 162.875 297.444 166.492 293.847 170.953 293.811
 c 194.359 293.624 l 194.359 268.6 l 170.953 268.464 l 166.508 268.421 162.922
 264.811 162.91 260.366 c 162.891 255.972 166.43 252.393 170.824 252.362
 c 170.871 252.362 l 194.359 252.6 l 194.359 237.936 l 194.359 233.518 197.941
 229.936 202.359 229.936 c 206.777 229.936 210.359 233.518 210.359 237.936
 c 210.359 246.761 l 230.23 246.761 l 247.527 246.772 261.543 260.788 261.559
 278.081 c 261.559 284.143 l 261.551 301.456 247.543 315.503 230.23 315.561
 c h
230.23 315.561 m f
Q Q
showpage
%%Trailer
end restore
%%EOF
