%!PS-Adobe-3.0 EPSF-3.0
%%Creator: cairo 1.14.2 (http://cairographics.org)
%%CreationDate: Wed May  2 08:31:25 2018
%%Pages: 1
%%DocumentData: Clean7Bit
%%LanguageLevel: 2
%%BoundingBox: 0 38 342 303
%%EndComments
%%BeginProlog
save
50 dict begin
/q { gsave } bind def
/Q { grestore } bind def
/cm { 6 array astore concat } bind def
/w { setlinewidth } bind def
/J { setlinecap } bind def
/j { setlinejoin } bind def
/M { setmiterlimit } bind def
/d { setdash } bind def
/m { moveto } bind def
/l { lineto } bind def
/c { curveto } bind def
/h { closepath } bind def
/re { exch dup neg 3 1 roll 5 3 roll moveto 0 rlineto
      0 exch rlineto 0 rlineto closepath } bind def
/S { stroke } bind def
/f { fill } bind def
/f* { eofill } bind def
/n { newpath } bind def
/W { clip } bind def
/W* { eoclip } bind def
/BT { } bind def
/ET { } bind def
/pdfmark where { pop globaldict /?pdfmark /exec load put }
    { globaldict begin /?pdfmark /pop load def /pdfmark
    /cleartomark load def end } ifelse
/BDC { mark 3 1 roll /BDC pdfmark } bind def
/EMC { mark /EMC pdfmark } bind def
/cairo_store_point { /cairo_point_y exch def /cairo_point_x exch def } def
/Tj { show currentpoint cairo_store_point } bind def
/TJ {
  {
    dup
    type /stringtype eq
    { show } { -0.001 mul 0 cairo_font_matrix dtransform rmoveto } ifelse
  } forall
  currentpoint cairo_store_point
} bind def
/cairo_selectfont { cairo_font_matrix aload pop pop pop 0 0 6 array astore
    cairo_font exch selectfont cairo_point_x cairo_point_y moveto } bind def
/Tf { pop /cairo_font exch def /cairo_font_matrix where
      { pop cairo_selectfont } if } bind def
/Td { matrix translate cairo_font_matrix matrix concatmatrix dup
      /cairo_font_matrix exch def dup 4 get exch 5 get cairo_store_point
      /cairo_font where { pop cairo_selectfont } if } bind def
/Tm { 2 copy 8 2 roll 6 array astore /cairo_font_matrix exch def
      cairo_store_point /cairo_font where { pop cairo_selectfont } if } bind def
/g { setgray } bind def
/rg { setrgbcolor } bind def
/d1 { setcachedevice } bind def
%%EndProlog
%%BeginSetup
%%EndSetup
%%Page: 1 1
%%BeginPageSetup
%%PageBoundingBox: 0 38 342 303
%%EndPageSetup
q 0 38 342 265 rectclip q
0 0.937255 0.819608 rg
287.047 147.609 m 317.004 147.597 341.277 123.3 341.266 93.343 c 341.266
 92.655 341.25 91.964 341.223 91.273 c 340.176 63.226 316.953 40.105 288.895
 39.167 c 276.395 38.73 264.129 42.632 254.184 50.218 c 244.879 57.269 232.02
 57.261 222.719 50.198 c 212.801 42.624 200.562 38.726 188.09 39.167 c 160.008
 40.097 136.734 63.234 135.703 91.312 c 134.531 121.226 157.828 146.425 
187.738 147.601 c 200.059 148.085 212.176 144.355 222.09 137.023 c 231.789
 129.757 245.117 129.749 254.824 137.007 c 264.148 143.909 275.445 147.624
 287.047 147.609 c h
287.047 147.609 m f
0 0.807843 0.705882 rg
196.609 218.226 m 213.16 142.48 l 213.121 142.402 l 193.914 151.484 171.176
 148.523 154.938 134.823 c 154.848 134.929 l 142.367 194.402 l 163.578 190.839
 184.879 200.194 196.609 218.226 c h
196.609 218.226 m f
0 0.937255 0.819608 rg
196.609 218.226 m 180.332 193.206 146.859 186.12 121.844 202.398 c 120.711
 203.136 119.602 203.917 118.527 204.737 c 109.219 211.788 96.355 211.78
 87.055 204.71 c 77.137 197.14 64.895 193.245 52.426 193.687 c 24.344 194.616
 1.07 217.753 0.039 245.823 c -1.102 275.757 22.238 300.944 52.168 302.089
 c 64.453 302.558 76.531 298.839 86.426 291.542 c 96.121 284.269 109.453
 284.261 119.16 291.519 c 143.25 309.312 177.199 304.206 194.992 280.12 
c 202.312 270.21 206.039 258.101 205.559 245.792 c 205.172 235.952 202.074
 226.413 196.609 218.226 c h
196.609 218.226 m f
0 0.67451 0.917647 rg
287.023 113.441 m 298.105 113.441 307.094 104.46 307.098 93.374 c 307.098
 82.292 298.113 73.308 287.031 73.304 c 275.949 73.3 266.961 82.284 266.961
 93.366 c 266.961 93.374 l 266.961 104.456 275.945 113.437 287.023 113.441
 c h
287.023 113.441 m f
189.902 113.441 m 200.988 113.441 209.973 104.46 209.977 93.374 c 209.977
 82.292 200.996 73.308 189.91 73.304 c 178.828 73.3 169.844 82.284 169.84
 93.366 c 169.84 93.374 l 169.84 104.456 178.824 113.437 189.902 113.441
 c h
189.902 113.441 m f
151.359 267.952 m 162.441 267.952 171.426 258.968 171.426 247.89 c 171.426
 236.808 162.441 227.823 151.359 227.823 c 140.277 227.823 131.297 236.808
 131.297 247.89 c 131.297 258.968 140.281 267.948 151.359 267.952 c h
151.359 267.952 m f
74.305 247.89 m 74.305 236.808 65.32 227.823 54.238 227.823 c 43.16 227.823
 34.176 236.808 34.176 247.89 c 34.176 258.968 43.16 267.952 54.238 267.952
 c 65.32 267.952 74.305 258.968 74.305 247.89 c h
74.305 247.89 m f
Q Q
showpage
%%Trailer
end restore
%%EOF
