%!PS-Adobe-3.0 EPSF-3.0
%%Creator: cairo 1.14.2 (http://cairographics.org)
%%CreationDate: Wed May  2 08:31:25 2018
%%Pages: 1
%%DocumentData: Clean7Bit
%%LanguageLevel: 2
%%BoundingBox: 0 92 376 284
%%EndComments
%%BeginProlog
save
50 dict begin
/q { gsave } bind def
/Q { grestore } bind def
/cm { 6 array astore concat } bind def
/w { setlinewidth } bind def
/J { setlinecap } bind def
/j { setlinejoin } bind def
/M { setmiterlimit } bind def
/d { setdash } bind def
/m { moveto } bind def
/l { lineto } bind def
/c { curveto } bind def
/h { closepath } bind def
/re { exch dup neg 3 1 roll 5 3 roll moveto 0 rlineto
      0 exch rlineto 0 rlineto closepath } bind def
/S { stroke } bind def
/f { fill } bind def
/f* { eofill } bind def
/n { newpath } bind def
/W { clip } bind def
/W* { eoclip } bind def
/BT { } bind def
/ET { } bind def
/pdfmark where { pop globaldict /?pdfmark /exec load put }
    { globaldict begin /?pdfmark /pop load def /pdfmark
    /cleartomark load def end } ifelse
/BDC { mark 3 1 roll /BDC pdfmark } bind def
/EMC { mark /EMC pdfmark } bind def
/cairo_store_point { /cairo_point_y exch def /cairo_point_x exch def } def
/Tj { show currentpoint cairo_store_point } bind def
/TJ {
  {
    dup
    type /stringtype eq
    { show } { -0.001 mul 0 cairo_font_matrix dtransform rmoveto } ifelse
  } forall
  currentpoint cairo_store_point
} bind def
/cairo_selectfont { cairo_font_matrix aload pop pop pop 0 0 6 array astore
    cairo_font exch selectfont cairo_point_x cairo_point_y moveto } bind def
/Tf { pop /cairo_font exch def /cairo_font_matrix where
      { pop cairo_selectfont } if } bind def
/Td { matrix translate cairo_font_matrix matrix concatmatrix dup
      /cairo_font_matrix exch def dup 4 get exch 5 get cairo_store_point
      /cairo_font where { pop cairo_selectfont } if } bind def
/Tm { 2 copy 8 2 roll 6 array astore /cairo_font_matrix exch def
      cairo_store_point /cairo_font where { pop cairo_selectfont } if } bind def
/g { setgray } bind def
/rg { setrgbcolor } bind def
/d1 { setcachedevice } bind def
%%EndProlog
%%BeginSetup
%%EndSetup
%%Page: 1 1
%%BeginPageSetup
%%PageBoundingBox: 0 92 376 284
%%EndPageSetup
q 0 92 376 192 rectclip q
0 0.937255 0.819608 rg
259.09 129.32 m 259.09 128.281 259.129 127.241 259.223 126.226 c 258.633
 126.167 l 112 126.167 l 111.414 126.226 l 111.512 127.241 111.551 128.281
 111.551 129.32 c f
38.688 129.32 m 38.688 128.257 38.734 127.206 38.824 126.167 c 26.992 126.167
 l 12.086 126.171 0.004 138.253 0 153.159 c 0 175.96 l 0 188.128 8.145 198.788
 19.879 201.991 c 82.32 219.058 l 119.641 268.066 l 126.445 277.003 137.035
 282.249 148.273 282.249 c 266.152 282.249 l 278.547 282.249 290.07 275.87
 296.648 265.366 c 325.656 219.058 l 359.312 203.753 l 368.945 199.374 375.133
 189.769 375.137 179.183 c 375.137 153.159 l 375.133 138.253 363.051 126.171
 348.145 126.167 c 332.602 126.167 l 331.824 126.241 l 331.91 127.257 331.953
 128.281 331.953 129.32 c f
0.831373 0.882353 0.956863 rg
331.953 129.32 m 331.953 128.281 331.91 127.257 331.824 126.241 c 330.121
 106.191 312.492 91.32 292.441 93.019 c 274.762 94.523 260.734 108.542 259.223
 126.226 c 259.129 127.241 259.09 128.281 259.09 129.32 c 259.098 149.441
 275.418 165.741 295.539 165.734 c 315.645 165.722 331.941 149.425 331.953
 129.32 c h
331.953 129.32 m f
38.824 126.167 m 38.734 127.206 38.688 128.257 38.688 129.32 c 38.688 149.441
 55 165.753 75.121 165.753 c 95.242 165.753 111.551 149.441 111.551 129.32
 c 111.551 128.281 111.512 127.241 111.414 126.226 c 109.703 106.175 92.066
 91.312 72.02 93.023 c 54.367 94.531 40.359 108.519 38.824 126.167 c h
38.824 126.167 m f
Q Q
showpage
%%Trailer
end restore
%%EOF
