%!PS-Adobe-3.0 EPSF-3.0
%%Creator: cairo 1.14.2 (http://cairographics.org)
%%CreationDate: Wed May  2 08:31:25 2018
%%Pages: 1
%%DocumentData: Clean7Bit
%%LanguageLevel: 2
%%BoundingBox: 18 -1 325 344
%%EndComments
%%BeginProlog
save
50 dict begin
/q { gsave } bind def
/Q { grestore } bind def
/cm { 6 array astore concat } bind def
/w { setlinewidth } bind def
/J { setlinecap } bind def
/j { setlinejoin } bind def
/M { setmiterlimit } bind def
/d { setdash } bind def
/m { moveto } bind def
/l { lineto } bind def
/c { curveto } bind def
/h { closepath } bind def
/re { exch dup neg 3 1 roll 5 3 roll moveto 0 rlineto
      0 exch rlineto 0 rlineto closepath } bind def
/S { stroke } bind def
/f { fill } bind def
/f* { eofill } bind def
/n { newpath } bind def
/W { clip } bind def
/W* { eoclip } bind def
/BT { } bind def
/ET { } bind def
/pdfmark where { pop globaldict /?pdfmark /exec load put }
    { globaldict begin /?pdfmark /pop load def /pdfmark
    /cleartomark load def end } ifelse
/BDC { mark 3 1 roll /BDC pdfmark } bind def
/EMC { mark /EMC pdfmark } bind def
/cairo_store_point { /cairo_point_y exch def /cairo_point_x exch def } def
/Tj { show currentpoint cairo_store_point } bind def
/TJ {
  {
    dup
    type /stringtype eq
    { show } { -0.001 mul 0 cairo_font_matrix dtransform rmoveto } ifelse
  } forall
  currentpoint cairo_store_point
} bind def
/cairo_selectfont { cairo_font_matrix aload pop pop pop 0 0 6 array astore
    cairo_font exch selectfont cairo_point_x cairo_point_y moveto } bind def
/Tf { pop /cairo_font exch def /cairo_font_matrix where
      { pop cairo_selectfont } if } bind def
/Td { matrix translate cairo_font_matrix matrix concatmatrix dup
      /cairo_font_matrix exch def dup 4 get exch 5 get cairo_store_point
      /cairo_font where { pop cairo_selectfont } if } bind def
/Tm { 2 copy 8 2 roll 6 array astore /cairo_font_matrix exch def
      cairo_store_point /cairo_font where { pop cairo_selectfont } if } bind def
/g { setgray } bind def
/rg { setrgbcolor } bind def
/d1 { setcachedevice } bind def
%%EndProlog
%%BeginSetup
%%EndSetup
%%Page: 1 1
%%BeginPageSetup
%%PageBoundingBox: 18 -1 325 344
%%EndPageSetup
q 18 -1 307 345 rectclip q
0 0.67451 0.917647 rg
221.531 240.654 m 221.531 229.243 212.281 219.997 200.875 219.997 c 189.469
 219.997 180.219 229.243 180.219 240.654 c 180.219 252.06 189.469 261.31
 200.875 261.31 c 212.281 261.31 221.531 252.06 221.531 240.654 c h
221.531 240.654 m f
0 0.937255 0.819608 rg
190.242 99.794 m 190.242 27.478 l 110.273 27.478 l 110.18 27.486 l 110.242
 28.283 110.273 29.091 110.273 29.908 c 110.277 46.423 96.891 59.814 80.375
 59.818 c 63.863 59.822 50.469 46.435 50.469 29.919 c 50.469 29.908 l 50.469
 29.091 50.5 28.283 50.562 27.486 c 50.469 27.478 l 39.691 27.478 l 28.172
 27.474 18.828 36.81 18.828 48.333 c 18.828 65.029 l 18.828 84.228 34.395
 99.794 53.594 99.794 c 88.012 99.794 l 88.82 99.794 89.629 99.845 90.434
 99.939 c 90.453 99.794 l h
190.242 99.794 m f
0.831373 0.882353 0.956863 rg
110.273 29.908 m 110.273 29.091 110.242 28.283 110.18 27.486 c 108.84 11.021
 94.41 -1.237 77.945 0.099 c 63.344 1.286 51.75 12.88 50.562 27.486 c 50.5
 28.283 50.469 29.091 50.469 29.908 c 50.469 46.423 63.855 59.814 80.371
 59.814 c 96.887 59.814 110.273 46.423 110.273 29.908 c h
110.273 29.908 m f
0 0.67451 0.917647 rg
257.355 186.837 m 157.211 186.837 l 152.793 186.837 149.211 183.255 149.211
 178.837 c 149.211 174.419 152.793 170.837 157.211 170.837 c 166.844 170.837
 l 166.844 152.435 l 182.844 152.435 l 182.844 170.837 l 231.645 170.837
 l 231.645 152.435 l 247.645 152.435 l 247.645 170.837 l 257.355 170.837
 l 261.773 170.837 265.355 174.419 265.355 178.837 c 265.355 183.255 261.773
 186.837 257.355 186.837 c h
257.355 186.837 m f
249.852 268.587 m 247.73 268.587 245.691 269.427 244.195 270.931 c 220.246
 294.798 181.504 294.798 157.559 270.931 c 154.434 267.806 149.367 267.806
 146.242 270.931 c 143.117 274.056 143.117 279.118 146.242 282.243 c 176.438
 312.361 225.312 312.361 255.508 282.243 c 258.633 279.122 258.633 274.056
 255.508 270.931 c 254.008 269.431 251.973 268.587 249.852 268.587 c h
249.852 268.587 m f
282.508 293.533 m 280.387 293.529 278.348 294.372 276.852 295.876 c 234.957
 337.767 166.793 337.767 124.898 295.876 c 121.762 292.763 116.695 292.786
 113.586 295.923 c 110.496 299.044 110.496 304.072 113.586 307.189 c 161.719
 355.318 240.031 355.318 288.164 307.189 c 291.289 304.064 291.289 298.997
 288.164 295.876 c 286.664 294.376 284.629 293.533 282.508 293.533 c h
282.508 293.533 m f
0 0.807843 0.705882 rg
255.266 99.794 m 230.234 153.693 l 230.234 154.036 l 258.164 154.036 l 
263.449 154.036 268.539 152.029 272.402 148.419 c 317.836 105.982 l 322.062
 102.036 324.461 96.513 324.461 90.732 c 324.461 48.333 l 324.457 36.81 
315.117 27.474 303.594 27.478 c 293.164 27.478 l 293.066 27.486 l 293.133
 28.283 293.164 29.091 293.164 29.908 c 293.164 46.423 279.777 59.81 263.262
 59.81 c 246.75 59.81 233.363 46.423 233.363 29.908 c 233.363 29.091 233.395
 28.283 233.461 27.486 c 233.363 27.478 l 190.242 27.478 l 190.242 99.794
 l h
255.266 99.794 m f
0.831373 0.882353 0.956863 rg
293.164 29.908 m 293.164 29.091 293.133 28.283 293.066 27.486 c 291.73 
11.025 277.301 -1.237 260.84 0.103 c 246.238 1.29 234.645 12.884 233.461
 27.486 c 233.395 28.283 233.363 29.091 233.363 29.908 c 233.363 46.423 
246.75 59.81 263.262 59.81 c 279.777 59.81 293.164 46.419 293.164 29.908
 c h
293.164 29.908 m f
0.737255 0.815686 0.909804 rg
230.234 153.693 m 255.266 99.794 l 190.242 99.794 l 190.242 154.036 l 230.234
 154.036 l h
230.234 153.693 m f
0.831373 0.882353 0.956863 rg
190.242 99.794 m 90.453 99.794 l 90.434 99.939 l 95.336 100.509 99.875 
102.798 103.242 106.404 c 141.645 147.427 l 145.586 151.646 151.102 154.036
 156.875 154.036 c 190.242 154.036 l h
190.242 99.794 m f
Q Q
showpage
%%Trailer
end restore
%%EOF
