%!PS-Adobe-3.0 EPSF-3.0
%%Creator: cairo 1.14.2 (http://cairographics.org)
%%CreationDate: Wed May  2 08:31:25 2018
%%Pages: 1
%%DocumentData: Clean7Bit
%%LanguageLevel: 2
%%BoundingBox: 6 -1 364 370
%%EndComments
%%BeginProlog
save
50 dict begin
/q { gsave } bind def
/Q { grestore } bind def
/cm { 6 array astore concat } bind def
/w { setlinewidth } bind def
/J { setlinecap } bind def
/j { setlinejoin } bind def
/M { setmiterlimit } bind def
/d { setdash } bind def
/m { moveto } bind def
/l { lineto } bind def
/c { curveto } bind def
/h { closepath } bind def
/re { exch dup neg 3 1 roll 5 3 roll moveto 0 rlineto
      0 exch rlineto 0 rlineto closepath } bind def
/S { stroke } bind def
/f { fill } bind def
/f* { eofill } bind def
/n { newpath } bind def
/W { clip } bind def
/W* { eoclip } bind def
/BT { } bind def
/ET { } bind def
/pdfmark where { pop globaldict /?pdfmark /exec load put }
    { globaldict begin /?pdfmark /pop load def /pdfmark
    /cleartomark load def end } ifelse
/BDC { mark 3 1 roll /BDC pdfmark } bind def
/EMC { mark /EMC pdfmark } bind def
/cairo_store_point { /cairo_point_y exch def /cairo_point_x exch def } def
/Tj { show currentpoint cairo_store_point } bind def
/TJ {
  {
    dup
    type /stringtype eq
    { show } { -0.001 mul 0 cairo_font_matrix dtransform rmoveto } ifelse
  } forall
  currentpoint cairo_store_point
} bind def
/cairo_selectfont { cairo_font_matrix aload pop pop pop 0 0 6 array astore
    cairo_font exch selectfont cairo_point_x cairo_point_y moveto } bind def
/Tf { pop /cairo_font exch def /cairo_font_matrix where
      { pop cairo_selectfont } if } bind def
/Td { matrix translate cairo_font_matrix matrix concatmatrix dup
      /cairo_font_matrix exch def dup 4 get exch 5 get cairo_store_point
      /cairo_font where { pop cairo_selectfont } if } bind def
/Tm { 2 copy 8 2 roll 6 array astore /cairo_font_matrix exch def
      cairo_store_point /cairo_font where { pop cairo_selectfont } if } bind def
/g { setgray } bind def
/rg { setrgbcolor } bind def
/d1 { setcachedevice } bind def
%%EndProlog
%%BeginSetup
%%EndSetup
%%Page: 1 1
%%BeginPageSetup
%%PageBoundingBox: 6 -1 364 370
%%EndPageSetup
q 6 -1 358 371 rectclip q
0.831373 0.882353 0.956863 rg
307.066 62.51 m 307.066 32.073 l 307.066 23.448 300.074 16.455 291.453 
16.455 c 278.445 16.455 l 269.82 16.455 262.828 23.448 262.828 32.073 c 
262.828 46.905 l 291.453 46.905 l 300.074 46.905 307.062 53.889 307.066 
62.51 c h
307.066 62.51 m f
0 0.937255 0.819608 rg
307.066 64.815 m 307.066 60.913 l 307.062 52.291 300.074 45.303 291.453
 45.303 c 102.02 45.303 l 93.398 45.303 86.41 52.291 86.41 60.913 c 86.41
 99.776 l 86.414 106.651 89.434 113.182 94.676 117.631 c 103.578 125.186
 l 293.012 125.186 l 293.012 124.928 l 299.723 118.584 l 304.41 114.163 
307.07 108.002 307.066 101.561 c h
307.066 64.815 m f
0.831373 0.882353 0.956863 rg
276.348 165.815 m 293.797 125.186 l 270.637 125.186 l 270.645 141.135 257.719
 154.073 241.766 154.08 c 225.812 154.092 212.875 141.166 212.867 125.213
 c 212.867 125.186 l 102.805 125.186 l 120.242 165.815 l 122.766 171.686
 128.535 175.491 134.926 175.487 c 261.676 175.487 l 268.062 175.491 273.832
 171.686 276.348 165.815 c h
276.348 165.815 m f
270.637 125.186 m 212.867 125.186 l 212.859 141.135 225.785 154.073 241.738
 154.08 c 257.691 154.092 270.629 141.166 270.637 125.213 c h
270.637 125.186 m f
130.645 46.639 m 130.645 32.073 l 130.645 23.448 123.652 16.455 115.027
 16.455 c 102.02 16.455 l 93.398 16.455 86.41 23.448 86.41 32.069 c 86.41
 62.51 l 86.41 53.893 93.398 46.905 102.02 46.905 c 130.645 46.905 l h
130.645 46.639 m f
0 0.67451 0.917647 rg
278.637 125.186 m 262.637 125.186 l 262.641 136.717 253.297 146.073 241.762
 146.08 c 230.23 146.084 220.875 136.741 220.867 125.205 c 220.867 125.182
 l 204.867 125.182 l 204.859 145.553 221.367 162.073 241.738 162.08 c 262.109
 162.088 278.629 145.58 278.637 125.209 c h
278.637 125.186 m f
220.547 63.233 m 172.926 63.233 l 168.504 63.233 164.926 66.815 164.926
 71.233 c 164.926 75.651 168.504 79.233 172.926 79.233 c 220.547 79.233 
l 224.965 79.233 228.547 75.651 228.547 71.233 c 228.547 66.815 224.965 
63.233 220.547 63.233 c h
220.547 63.233 m f
220.547 82.319 m 172.926 82.319 l 168.504 82.319 164.926 85.901 164.926
 90.319 c 164.926 94.737 168.504 98.319 172.926 98.319 c 220.547 98.319 
l 224.965 98.319 228.547 94.737 228.547 90.319 c 228.547 85.901 224.965 
82.319 220.547 82.319 c h
220.547 82.319 m f
206.316 225.913 m 201.898 225.913 198.316 229.495 198.316 233.913 c 198.316
 246.69 l 198.316 251.108 201.898 254.69 206.316 254.69 c 210.734 254.69
 214.316 251.108 214.316 246.69 c 214.316 233.913 l 214.316 229.495 210.734
 225.913 206.316 225.913 c h
206.316 225.913 m f
242.254 225.913 m 237.832 225.913 234.254 229.495 234.254 233.913 c 234.254
 246.69 l 234.254 251.108 237.832 254.69 242.254 254.69 c 246.672 254.69
 250.254 251.108 250.254 246.69 c 250.254 233.913 l 250.254 229.495 246.672
 225.913 242.254 225.913 c h
242.254 225.913 m f
169.988 225.913 m 165.57 225.913 161.988 229.495 161.988 233.913 c 161.988
 246.69 l 161.988 251.108 165.57 254.69 169.988 254.69 c 174.406 254.69 
177.988 251.108 177.988 246.69 c 177.988 233.913 l 177.988 229.495 174.406
 225.913 169.988 225.913 c h
169.988 225.913 m f
206.316 189.975 m 201.898 189.975 198.316 193.557 198.316 197.975 c 198.316
 210.752 l 198.316 215.17 201.898 218.752 206.316 218.752 c 210.734 218.752
 214.316 215.17 214.316 210.752 c 214.316 197.975 l 214.316 193.557 210.734
 189.975 206.316 189.975 c h
206.316 189.975 m f
242.254 189.975 m 237.832 189.975 234.254 193.557 234.254 197.975 c 234.254
 210.752 l 234.254 215.17 237.832 218.752 242.254 218.752 c 246.672 218.752
 250.254 215.17 250.254 210.752 c 250.254 197.975 l 250.254 193.557 246.672
 189.975 242.254 189.975 c h
242.254 189.975 m f
169.988 189.975 m 165.57 189.975 161.988 193.557 161.988 197.975 c 161.988
 210.752 l 161.988 215.17 165.57 218.752 169.988 218.752 c 174.406 218.752
 177.988 215.17 177.988 210.752 c 177.988 197.975 l 177.988 193.557 174.406
 189.975 169.988 189.975 c h
169.988 189.975 m f
355.109 15.998 m 22.492 15.998 l 22.492 316.159 l 22.492 336.623 39.324
 353.6 59.789 353.6 c 161.203 353.6 l 181.723 353.498 198.309 336.842 198.316
 316.319 c 198.316 316.065 198.18 315.733 198.203 315.487 c 178 311.635 
163.363 294.006 163.293 273.44 c 163.293 267.998 l 248.891 267.998 l 248.891
 273.44 l 248.957 293.948 234.391 311.592 214.238 315.409 c 214.262 315.655
 214.297 316.069 214.297 316.323 c 214.297 345.612 190.492 369.6 161.203
 369.6 c 59.789 369.6 l 30.504 369.6 6.492 345.448 6.492 316.159 c 6.492
 8.327 l 6.555 3.811 10.16 0.139 14.676 -0.002 c 355.109 -0.002 l 359.527
 -0.002 363.109 3.58 363.109 7.998 c 363.109 12.42 359.527 15.998 355.109
 15.998 c h
355.109 15.998 m f
0.831373 0.882353 0.956863 rg
246.957 95.522 37.207 -25.496 re f
109.309 95.522 37.207 -25.496 re f
Q Q
showpage
%%Trailer
end restore
%%EOF
