%!PS-Adobe-3.0 EPSF-3.0
%%Creator: cairo 1.14.2 (http://cairographics.org)
%%CreationDate: Wed May  2 08:31:25 2018
%%Pages: 1
%%DocumentData: Clean7Bit
%%LanguageLevel: 2
%%BoundingBox: 15 -1 306 322
%%EndComments
%%BeginProlog
save
50 dict begin
/q { gsave } bind def
/Q { grestore } bind def
/cm { 6 array astore concat } bind def
/w { setlinewidth } bind def
/J { setlinecap } bind def
/j { setlinejoin } bind def
/M { setmiterlimit } bind def
/d { setdash } bind def
/m { moveto } bind def
/l { lineto } bind def
/c { curveto } bind def
/h { closepath } bind def
/re { exch dup neg 3 1 roll 5 3 roll moveto 0 rlineto
      0 exch rlineto 0 rlineto closepath } bind def
/S { stroke } bind def
/f { fill } bind def
/f* { eofill } bind def
/n { newpath } bind def
/W { clip } bind def
/W* { eoclip } bind def
/BT { } bind def
/ET { } bind def
/pdfmark where { pop globaldict /?pdfmark /exec load put }
    { globaldict begin /?pdfmark /pop load def /pdfmark
    /cleartomark load def end } ifelse
/BDC { mark 3 1 roll /BDC pdfmark } bind def
/EMC { mark /EMC pdfmark } bind def
/cairo_store_point { /cairo_point_y exch def /cairo_point_x exch def } def
/Tj { show currentpoint cairo_store_point } bind def
/TJ {
  {
    dup
    type /stringtype eq
    { show } { -0.001 mul 0 cairo_font_matrix dtransform rmoveto } ifelse
  } forall
  currentpoint cairo_store_point
} bind def
/cairo_selectfont { cairo_font_matrix aload pop pop pop 0 0 6 array astore
    cairo_font exch selectfont cairo_point_x cairo_point_y moveto } bind def
/Tf { pop /cairo_font exch def /cairo_font_matrix where
      { pop cairo_selectfont } if } bind def
/Td { matrix translate cairo_font_matrix matrix concatmatrix dup
      /cairo_font_matrix exch def dup 4 get exch 5 get cairo_store_point
      /cairo_font where { pop cairo_selectfont } if } bind def
/Tm { 2 copy 8 2 roll 6 array astore /cairo_font_matrix exch def
      cairo_store_point /cairo_font where { pop cairo_selectfont } if } bind def
/g { setgray } bind def
/rg { setrgbcolor } bind def
/d1 { setcachedevice } bind def
%%EndProlog
%%BeginSetup
%%EndSetup
%%Page: 1 1
%%BeginPageSetup
%%PageBoundingBox: 15 -1 306 322
%%EndPageSetup
q 15 -1 291 323 rectclip q
0 0.67451 0.917647 rg
193.922 161.081 m 175.887 179.503 165.785 204.253 165.777 230.03 c 165.777
 283.608 l 234.84 321.456 l 305.863 283.608 l 305.863 231.015 l 305.859 
193.647 284.73 159.495 251.297 142.808 c 249.375 141.839 247.406 140.936
 245.406 140.089 c 234.594 135.417 l 225.008 139.593 l 213.359 144.69 202.805
 151.983 193.922 161.081 c h
193.922 161.081 m f
0.831373 0.882353 0.956863 rg
273.457 53.815 m 273.457 18.241 l 273.457 8.167 265.289 -0.001 255.215 
-0.001 c 240.008 -0.001 l 229.934 -0.005 221.766 8.159 221.762 18.233 c 
221.762 35.577 l 255.207 35.577 l 265.281 35.569 273.453 43.733 273.457 
53.808 c h
273.457 53.815 m f
251.328 142.745 m 257.945 127.327 l 160.176 127.327 l 160.242 145.94 175.309
 161.011 193.922 161.081 c 202.805 151.983 213.359 144.69 225.008 139.593
 c 234.594 135.417 l 245.406 140.089 l 247.406 140.936 249.375 141.839 251.297
 142.808 c h
251.328 142.745 m f
175.879 186.585 m 180.5 177.179 186.59 168.569 193.922 161.081 c 175.309
 161.011 160.242 145.94 160.176 127.327 c 34.754 127.327 l 55.137 174.808
 l 58.078 181.667 64.824 186.112 72.289 186.112 c 174.938 186.112 l h
175.879 186.585 m f
67.289 35.272 m 67.289 18.241 l 67.289 8.167 59.121 -0.001 49.047 -0.001
 c 33.84 -0.001 l 23.766 -0.005 15.598 8.159 15.594 18.233 c 15.594 53.815
 l 15.594 43.741 23.758 35.577 33.832 35.577 c 67.289 35.577 l h
67.289 35.272 m f
0 0.67451 0.917647 rg
168.176 127.327 m 152.176 127.327 l 152.207 150.37 170.875 169.042 193.914
 169.081 c 193.93 153.081 l 179.715 153.061 168.195 141.542 168.176 127.327
 c h
168.176 127.327 m f
0.831373 0.882353 0.956863 rg
274.469 248.601 m 271.68 252.026 266.641 252.546 263.215 249.757 c 225.77
 219.296 l 212.168 235.226 l 209.297 238.589 204.25 238.983 200.891 236.116
 c 197.527 233.245 197.133 228.194 200 224.835 c 218.68 202.964 l 218.77
 202.862 218.867 202.772 218.961 202.675 c 219.051 202.573 219.145 202.468
 219.246 202.374 c 219.363 202.261 219.488 202.159 219.613 202.054 c 219.719
 201.964 219.82 201.874 219.926 201.792 c 220.059 201.69 220.195 201.604
 220.328 201.515 c 220.434 201.44 220.539 201.362 220.652 201.296 c 220.797
 201.21 220.945 201.136 221.098 201.058 c 221.207 201.003 221.312 200.94
 221.422 200.89 c 221.582 200.815 221.746 200.757 221.91 200.694 c 222.016
 200.655 222.121 200.608 222.227 200.569 c 222.402 200.515 222.582 200.468
 222.762 200.425 c 222.859 200.397 222.957 200.366 223.059 200.343 c 223.258
 200.3 223.457 200.272 223.66 200.245 c 223.738 200.233 223.824 200.214 
223.906 200.206 c 224.191 200.175 224.477 200.159 224.766 200.159 c 224.988
 200.159 225.215 200.167 225.441 200.186 c 225.512 200.194 225.578 200.206
 225.648 200.214 c 225.805 200.229 225.961 200.249 226.113 200.276 c 226.207
 200.288 226.297 200.311 226.387 200.331 c 226.516 200.358 226.648 200.386
 226.785 200.417 c 226.887 200.444 226.984 200.479 227.086 200.511 c 227.203
 200.546 227.324 200.577 227.438 200.62 c 227.555 200.659 227.648 200.698
 227.754 200.745 c 227.859 200.792 227.973 200.831 228.078 200.878 c 228.188
 200.929 228.293 200.983 228.398 201.038 c 228.504 201.093 228.598 201.14
 228.699 201.194 c 228.797 201.249 228.91 201.323 229.012 201.39 c 229.117
 201.456 229.207 201.507 229.301 201.573 c 229.395 201.636 229.496 201.718
 229.598 201.792 c 229.668 201.847 229.738 201.893 229.809 201.952 c 273.312
 237.347 l 276.742 240.132 277.258 245.171 274.473 248.601 c h
274.469 248.601 m f
0 0.937255 0.819608 rg
273.457 56.784 m 273.457 52.218 l 273.457 42.143 265.289 33.976 255.215
 33.976 c 33.84 33.976 l 23.766 33.972 15.598 42.136 15.594 52.21 c 15.594
 97.632 l 15.594 105.667 19.129 113.296 25.258 118.495 c 34.754 127.327 
l 257.945 127.327 l 257.945 127.022 l 264.879 119.616 l 270.355 114.444 
273.457 107.249 273.457 99.722 c h
273.457 56.784 m f
0 0.67451 0.917647 rg
172.344 56.28 m 116.695 56.28 l 112.277 56.28 108.695 59.862 108.695 64.28
 c 108.695 68.698 112.277 72.28 116.695 72.28 c 172.344 72.28 l 176.762 
72.28 180.344 68.698 180.344 64.28 c 180.344 59.862 176.762 56.28 172.344
 56.28 c h
172.344 56.28 m f
172.344 78.585 m 116.695 78.585 l 112.277 78.585 108.695 82.167 108.695
 86.585 c 108.695 91.003 112.277 94.585 116.695 94.585 c 172.344 94.585 
l 176.762 94.585 180.344 91.003 180.344 86.585 c 180.344 82.167 176.762 
78.585 172.344 78.585 c h
172.344 78.585 m f
0.831373 0.882353 0.956863 rg
203.215 92.663 43.48 -29.801 re f
42.352 92.663 43.48 -29.801 re f
Q Q
showpage
%%Trailer
end restore
%%EOF
