%!PS-Adobe-3.0 EPSF-3.0
%%Creator: cairo 1.14.2 (http://cairographics.org)
%%CreationDate: Wed May  2 08:31:25 2018
%%Pages: 1
%%DocumentData: Clean7Bit
%%LanguageLevel: 2
%%BoundingBox: 0 9 333 323
%%EndComments
%%BeginProlog
save
50 dict begin
/q { gsave } bind def
/Q { grestore } bind def
/cm { 6 array astore concat } bind def
/w { setlinewidth } bind def
/J { setlinecap } bind def
/j { setlinejoin } bind def
/M { setmiterlimit } bind def
/d { setdash } bind def
/m { moveto } bind def
/l { lineto } bind def
/c { curveto } bind def
/h { closepath } bind def
/re { exch dup neg 3 1 roll 5 3 roll moveto 0 rlineto
      0 exch rlineto 0 rlineto closepath } bind def
/S { stroke } bind def
/f { fill } bind def
/f* { eofill } bind def
/n { newpath } bind def
/W { clip } bind def
/W* { eoclip } bind def
/BT { } bind def
/ET { } bind def
/pdfmark where { pop globaldict /?pdfmark /exec load put }
    { globaldict begin /?pdfmark /pop load def /pdfmark
    /cleartomark load def end } ifelse
/BDC { mark 3 1 roll /BDC pdfmark } bind def
/EMC { mark /EMC pdfmark } bind def
/cairo_store_point { /cairo_point_y exch def /cairo_point_x exch def } def
/Tj { show currentpoint cairo_store_point } bind def
/TJ {
  {
    dup
    type /stringtype eq
    { show } { -0.001 mul 0 cairo_font_matrix dtransform rmoveto } ifelse
  } forall
  currentpoint cairo_store_point
} bind def
/cairo_selectfont { cairo_font_matrix aload pop pop pop 0 0 6 array astore
    cairo_font exch selectfont cairo_point_x cairo_point_y moveto } bind def
/Tf { pop /cairo_font exch def /cairo_font_matrix where
      { pop cairo_selectfont } if } bind def
/Td { matrix translate cairo_font_matrix matrix concatmatrix dup
      /cairo_font_matrix exch def dup 4 get exch 5 get cairo_store_point
      /cairo_font where { pop cairo_selectfont } if } bind def
/Tm { 2 copy 8 2 roll 6 array astore /cairo_font_matrix exch def
      cairo_store_point /cairo_font where { pop cairo_selectfont } if } bind def
/g { setgray } bind def
/rg { setrgbcolor } bind def
/d1 { setcachedevice } bind def
%%EndProlog
%%BeginSetup
%%EndSetup
%%Page: 1 1
%%BeginPageSetup
%%PageBoundingBox: 0 9 333 323
%%EndPageSetup
q 0 9 333 314 rectclip q
0 0.937255 0.819608 rg
318.664 108.968 m 288.785 122.519 l 275.711 143.327 l 274.008 143.8 l 271.824
 142.679 269.574 141.585 267.289 140.616 c 202.574 178.402 l 131.594 178.402
 l 121.648 178.417 112.27 173.788 106.23 165.89 c 73.168 122.495 l 17.727
 107.398 l 7.309 104.57 0.055 95.14 0 84.343 c 0 64.152 l 0.098 50.851 10.859
 40.093 24.16 39.999 c 34.641 39.999 l 34.559 40.8 34.52 41.968 34.52 42.913
 c 34.496 60.734 48.922 75.202 66.746 75.23 c 84.57 75.253 99.039 60.827
 99.062 43.003 c 99.062 42.073 99.023 41.058 98.945 40.152 c 99.465 39.999
 l 229.352 39.999 l 229.871 40.167 l 229.793 41.073 229.754 42.042 229.754
 42.968 c 229.738 60.792 244.18 75.249 262 75.261 c 279.824 75.273 294.285
 60.835 294.297 43.011 c 294.297 42.085 294.258 41.062 294.176 40.155 c 
294.688 39.995 l 308.641 39.995 l 321.941 40.093 332.703 50.851 332.801 
64.152 c 332.801 87.198 l 332.746 96.597 327.227 105.097 318.664 108.968
 c h
318.664 108.968 m f
0.831373 0.882353 0.956863 rg
294.297 43.03 m 294.297 42.105 294.258 41.191 294.176 40.288 c 292.66 22.53
 277.039 9.362 259.281 10.878 c 243.625 12.214 231.207 24.632 229.871 40.288
 c 229.793 41.191 229.754 42.105 229.754 43.03 c 229.758 60.855 244.215 
75.3 262.035 75.292 c 279.852 75.284 294.289 60.847 294.297 43.03 c h
294.297 43.03 m f
34.641 40.241 m 34.559 41.159 34.52 42.089 34.52 43.03 c 34.52 60.855 48.969
 75.304 66.793 75.304 c 84.613 75.304 99.062 60.855 99.062 43.03 c 99.062
 42.105 99.023 41.191 98.945 40.288 c 97.426 22.53 81.801 9.362 64.043 10.882
 c 48.406 12.218 36 24.605 34.641 40.241 c h
34.641 40.241 m f
0 0.67451 0.917647 rg
202.574 178.495 m 192.816 194.128 187.648 212.187 187.656 230.616 c 187.656
 284.191 l 256.711 322.038 l 327.742 284.191 l 327.742 231.601 l 327.742
 194.558 306.98 160.644 273.992 143.8 c 271.805 142.679 269.566 141.636 
267.281 140.663 c 256.473 135.999 l 246.879 140.175 l 228.582 148.183 213.137
 161.542 202.574 178.495 c h
202.574 178.495 m f
0.831373 0.882353 0.956863 rg
296.34 249.187 m 293.555 252.612 288.516 253.132 285.086 250.343 c 247.645
 219.878 l 234.039 235.812 l 231.172 239.171 226.121 239.57 222.762 236.698
 c 219.402 233.831 219.004 228.78 221.875 225.421 c 240.559 203.55 l 240.645
 203.452 240.734 203.366 240.824 203.273 c 240.926 203.163 241.023 203.054
 241.129 202.952 c 241.234 202.851 241.359 202.753 241.473 202.655 c 241.59
 202.554 241.695 202.46 241.809 202.37 c 241.926 202.284 242.059 202.198
 242.188 202.112 c 242.312 202.027 242.418 201.952 242.539 201.878 c 242.676
 201.796 242.816 201.73 242.953 201.655 c 243.07 201.597 243.188 201.527
 243.309 201.472 c 243.461 201.405 243.613 201.347 243.77 201.288 c 243.883
 201.245 243.996 201.195 244.113 201.155 c 244.281 201.101 244.453 201.058
 244.625 201.015 c 244.73 200.987 244.836 200.952 244.945 200.929 c 245.141
 200.886 245.336 200.859 245.531 200.831 c 245.621 200.82 245.707 200.8 
245.793 200.792 c 246.078 200.761 246.363 200.745 246.652 200.745 c 246.875
 200.745 247.102 200.753 247.328 200.773 c 247.398 200.777 247.465 200.792
 247.535 200.8 c 247.691 200.816 247.848 200.831 248.004 200.859 c 248.09
 200.874 248.18 200.898 248.266 200.913 c 248.402 200.945 248.535 200.968
 248.668 201.003 c 248.766 201.03 248.859 201.062 248.957 201.093 c 249.078
 201.128 249.203 201.163 249.324 201.206 c 249.426 201.241 249.523 201.284
 249.625 201.323 c 249.738 201.37 249.852 201.413 249.965 201.464 c 250.074
 201.515 250.168 201.566 250.27 201.616 c 250.371 201.667 250.48 201.726
 250.59 201.784 c 250.695 201.843 250.785 201.905 250.883 201.964 c 250.98
 202.027 251.09 202.093 251.191 202.163 c 251.289 202.234 251.375 202.3 
251.465 202.366 c 251.543 202.425 251.621 202.476 251.695 202.538 c 295.191
 237.929 l 298.617 240.722 299.133 245.761 296.34 249.187 c h
296.34 249.187 m f
Q Q
showpage
%%Trailer
end restore
%%EOF
