%!PS-Adobe-3.0 EPSF-3.0
%%Creator: cairo 1.14.2 (http://cairographics.org)
%%CreationDate: Wed May  2 08:31:25 2018
%%Pages: 1
%%DocumentData: Clean7Bit
%%LanguageLevel: 2
%%BoundingBox: 13 -1 325 339
%%EndComments
%%BeginProlog
save
50 dict begin
/q { gsave } bind def
/Q { grestore } bind def
/cm { 6 array astore concat } bind def
/w { setlinewidth } bind def
/J { setlinecap } bind def
/j { setlinejoin } bind def
/M { setmiterlimit } bind def
/d { setdash } bind def
/m { moveto } bind def
/l { lineto } bind def
/c { curveto } bind def
/h { closepath } bind def
/re { exch dup neg 3 1 roll 5 3 roll moveto 0 rlineto
      0 exch rlineto 0 rlineto closepath } bind def
/S { stroke } bind def
/f { fill } bind def
/f* { eofill } bind def
/n { newpath } bind def
/W { clip } bind def
/W* { eoclip } bind def
/BT { } bind def
/ET { } bind def
/pdfmark where { pop globaldict /?pdfmark /exec load put }
    { globaldict begin /?pdfmark /pop load def /pdfmark
    /cleartomark load def end } ifelse
/BDC { mark 3 1 roll /BDC pdfmark } bind def
/EMC { mark /EMC pdfmark } bind def
/cairo_store_point { /cairo_point_y exch def /cairo_point_x exch def } def
/Tj { show currentpoint cairo_store_point } bind def
/TJ {
  {
    dup
    type /stringtype eq
    { show } { -0.001 mul 0 cairo_font_matrix dtransform rmoveto } ifelse
  } forall
  currentpoint cairo_store_point
} bind def
/cairo_selectfont { cairo_font_matrix aload pop pop pop 0 0 6 array astore
    cairo_font exch selectfont cairo_point_x cairo_point_y moveto } bind def
/Tf { pop /cairo_font exch def /cairo_font_matrix where
      { pop cairo_selectfont } if } bind def
/Td { matrix translate cairo_font_matrix matrix concatmatrix dup
      /cairo_font_matrix exch def dup 4 get exch 5 get cairo_store_point
      /cairo_font where { pop cairo_selectfont } if } bind def
/Tm { 2 copy 8 2 roll 6 array astore /cairo_font_matrix exch def
      cairo_store_point /cairo_font where { pop cairo_selectfont } if } bind def
/g { setgray } bind def
/rg { setrgbcolor } bind def
/d1 { setcachedevice } bind def
%%EndProlog
%%BeginSetup
%%EndSetup
%%Page: 1 1
%%BeginPageSetup
%%PageBoundingBox: 13 -1 325 339
%%EndPageSetup
q 13 -1 312 340 rectclip q
0.831373 0.882353 0.956863 rg
324.648 58.199 m 324.648 19.73 l 324.648 8.831 315.816 -0.001 304.922 -0.001
 c 288.48 -0.001 l 277.586 -0.001 268.754 8.831 268.754 19.726 c 268.754
 38.472 l 304.922 38.472 l 315.816 38.472 324.648 47.304 324.648 58.199 
c h
324.648 58.199 m f
285.84 189.152 m 307.879 137.808 l 278.617 137.808 l 278.609 157.964 262.262
 174.296 242.105 174.288 c 221.961 174.281 205.633 157.953 205.625 137.808
 c 66.555 137.808 l 78.352 165.304 l 78.352 165.312 l 115.328 154.945 154.766
 169.648 175.938 201.687 c 176.426 201.367 l 267.297 201.367 l 275.363 201.371
 282.656 196.566 285.84 189.152 c h
285.84 189.152 m f
278.617 137.808 m 205.625 137.808 l 205.633 157.964 221.98 174.296 242.137
 174.288 c 262.281 174.281 278.609 157.953 278.617 137.808 c h
278.617 137.808 m f
0 0.67451 0.917647 rg
190.527 250.32 m 190.527 201.562 151 162.038 102.242 162.038 c 53.484 162.042
 13.957 201.57 13.961 250.328 c 13.965 299.085 53.492 338.609 102.25 338.609
 c 150.77 338.843 190.293 299.699 190.527 251.179 c 190.531 250.894 190.531
 250.605 190.527 250.32 c h
190.527 250.32 m f
0.831373 0.882353 0.956863 rg
101.73 38.144 m 101.73 19.73 l 101.73 8.831 92.898 -0.001 82.004 -0.001
 c 65.562 -0.001 l 54.664 -0.001 45.832 8.831 45.832 19.726 c 45.832 58.199
 l 45.832 47.304 54.664 38.472 65.559 38.472 c 101.73 38.472 l h
101.73 38.144 m f
0 0.67451 0.917647 rg
286.617 137.808 m 270.617 137.808 l 270.609 153.546 257.848 166.3 242.109
 166.292 c 226.379 166.285 213.633 153.535 213.625 137.808 c 197.625 137.808
 l 197.633 162.382 217.562 182.296 242.137 182.288 c 266.699 182.281 286.609
 162.371 286.617 137.808 c h
286.617 137.808 m f
0.831373 0.882353 0.956863 rg
146.039 286.488 m 43.184 261.609 l 83.434 239.066 l 93.387 193.992 l 147.824
 286.921 l h
146.039 286.488 m f
0 0.937255 0.819608 rg
324.648 61.527 m 324.648 56.601 l 324.648 45.706 315.816 36.874 304.922
 36.871 c 65.562 36.871 l 54.664 36.871 45.832 45.703 45.832 56.597 c 45.832
 105.695 l 45.832 114.386 49.652 122.64 56.281 128.265 c 67.535 137.808 
l 306.898 137.808 l 306.898 137.48 l 315.375 129.472 l 321.293 123.882 324.648
 116.101 324.648 107.96 c h
324.648 61.527 m f
0 0.67451 0.917647 rg
215.328 61.64 m 155.16 61.64 l 150.742 61.64 147.16 65.222 147.16 69.64
 c 147.16 74.058 150.742 77.64 155.16 77.64 c 215.328 77.64 l 219.746 77.64
 223.328 74.058 223.328 69.64 c 223.328 65.222 219.746 61.64 215.328 61.64
 c h
215.328 61.64 m f
215.328 85.753 m 155.16 85.753 l 150.742 85.753 147.16 89.335 147.16 93.753
 c 147.16 98.171 150.742 101.753 155.16 101.753 c 215.328 101.753 l 219.746
 101.753 223.328 98.171 223.328 93.753 c 223.328 89.335 219.746 85.753 215.328
 85.753 c h
215.328 85.753 m f
0.831373 0.882353 0.956863 rg
248.695 100.328 47.027 -32.223 re f
74.77 100.328 47.016 -32.223 re f
Q Q
showpage
%%Trailer
end restore
%%EOF
