%!PS-Adobe-3.0 EPSF-3.0
%%Creator: cairo 1.14.2 (http://cairographics.org)
%%CreationDate: Wed May  2 08:31:25 2018
%%Pages: 1
%%DocumentData: Clean7Bit
%%LanguageLevel: 2
%%BoundingBox: 0 15 338 323
%%EndComments
%%BeginProlog
save
50 dict begin
/q { gsave } bind def
/Q { grestore } bind def
/cm { 6 array astore concat } bind def
/w { setlinewidth } bind def
/J { setlinecap } bind def
/j { setlinejoin } bind def
/M { setmiterlimit } bind def
/d { setdash } bind def
/m { moveto } bind def
/l { lineto } bind def
/c { curveto } bind def
/h { closepath } bind def
/re { exch dup neg 3 1 roll 5 3 roll moveto 0 rlineto
      0 exch rlineto 0 rlineto closepath } bind def
/S { stroke } bind def
/f { fill } bind def
/f* { eofill } bind def
/n { newpath } bind def
/W { clip } bind def
/W* { eoclip } bind def
/BT { } bind def
/ET { } bind def
/pdfmark where { pop globaldict /?pdfmark /exec load put }
    { globaldict begin /?pdfmark /pop load def /pdfmark
    /cleartomark load def end } ifelse
/BDC { mark 3 1 roll /BDC pdfmark } bind def
/EMC { mark /EMC pdfmark } bind def
/cairo_store_point { /cairo_point_y exch def /cairo_point_x exch def } def
/Tj { show currentpoint cairo_store_point } bind def
/TJ {
  {
    dup
    type /stringtype eq
    { show } { -0.001 mul 0 cairo_font_matrix dtransform rmoveto } ifelse
  } forall
  currentpoint cairo_store_point
} bind def
/cairo_selectfont { cairo_font_matrix aload pop pop pop 0 0 6 array astore
    cairo_font exch selectfont cairo_point_x cairo_point_y moveto } bind def
/Tf { pop /cairo_font exch def /cairo_font_matrix where
      { pop cairo_selectfont } if } bind def
/Td { matrix translate cairo_font_matrix matrix concatmatrix dup
      /cairo_font_matrix exch def dup 4 get exch 5 get cairo_store_point
      /cairo_font where { pop cairo_selectfont } if } bind def
/Tm { 2 copy 8 2 roll 6 array astore /cairo_font_matrix exch def
      cairo_store_point /cairo_font where { pop cairo_selectfont } if } bind def
/g { setgray } bind def
/rg { setrgbcolor } bind def
/d1 { setcachedevice } bind def
%%EndProlog
%%BeginSetup
%%EndSetup
%%Page: 1 1
%%BeginPageSetup
%%PageBoundingBox: 0 15 338 323
%%EndPageSetup
q 0 15 338 308 rectclip q
0 0.937255 0.819608 rg
337.426 89.022 m 337.426 68.822 l 337.426 55.623 326.727 44.92 313.523 
44.92 c 303.039 44.92 l 303.121 45.838 303.16 46.768 303.16 47.713 c 303.168
 65.533 288.723 79.99 270.902 79.994 c 253.078 80.002 238.625 65.561 238.617
 47.737 c 238.617 47.713 l 238.617 46.783 238.656 45.873 238.734 44.967 
c 238.215 44.92 l 108.328 44.92 l 107.809 44.967 l 107.887 45.873 107.93
 46.783 107.93 47.713 c 107.93 65.533 93.48 79.983 75.656 79.983 c 57.832
 79.983 43.383 65.533 43.383 47.713 c 43.383 46.783 43.426 45.873 43.504
 44.967 c 42.992 44.92 l 29.039 44.92 l 15.84 44.92 5.137 55.623 5.137 68.822
 c 5.137 91.881 l 5.137 101.252 10.613 109.764 19.145 113.647 c 48.961 127.201
 l 62.52 147.889 l 62.887 149.127 l 99.457 138.182 138.918 151.947 160.742
 183.264 c 160.863 183.178 l 206.09 183.178 l 216.039 183.178 225.418 178.529
 231.449 170.615 c 264.512 127.201 l 319.824 112.088 l 330.219 109.244 337.426
 99.799 337.426 89.022 c h
337.426 89.022 m f
0.831373 0.882353 0.956863 rg
303.039 44.92 m 301.496 27.162 285.852 14.022 268.094 15.565 c 252.461 
16.924 240.07 29.33 238.734 44.967 c 238.656 45.869 238.617 46.783 238.617
 47.713 c 238.609 65.533 253.051 79.99 270.875 79.994 c 288.699 80.002 303.152
 65.561 303.16 47.737 c 303.16 47.713 l 303.16 46.768 303.121 45.838 303.039
 44.92 c h
303.039 44.92 m f
0 0.67451 0.917647 rg
176.566 233.694 m 176.566 184.936 137.039 145.412 88.281 145.416 c 39.523
 145.416 -0.004 184.947 0 233.701 c 0.004 282.459 39.527 321.983 88.281 
321.983 c 136.781 322.244 176.309 283.135 176.566 234.635 c 176.57 234.322
 176.57 234.01 176.566 233.694 c h
176.566 233.694 m f
0.831373 0.882353 0.956863 rg
107.93 47.713 m 107.93 46.783 107.887 45.869 107.809 44.967 c 106.293 27.209
 90.668 14.045 72.914 15.557 c 57.258 16.893 44.84 29.311 43.504 44.967 
c 43.426 45.869 43.383 46.783 43.383 47.713 c 43.383 65.533 57.832 79.983
 75.656 79.983 c 93.48 79.983 107.93 65.533 107.93 47.713 c h
107.93 47.713 m f
132.078 269.869 m 29.223 244.983 l 69.473 222.447 l 79.426 177.377 l 133.863
 270.303 l h
132.078 269.869 m f
Q Q
showpage
%%Trailer
end restore
%%EOF
