%!PS-Adobe-3.0 EPSF-3.0
%%Creator: cairo 1.14.2 (http://cairographics.org)
%%CreationDate: Wed May  2 08:31:25 2018
%%Pages: 1
%%DocumentData: Clean7Bit
%%LanguageLevel: 2
%%BoundingBox: 0 0 335 334
%%EndComments
%%BeginProlog
save
50 dict begin
/q { gsave } bind def
/Q { grestore } bind def
/cm { 6 array astore concat } bind def
/w { setlinewidth } bind def
/J { setlinecap } bind def
/j { setlinejoin } bind def
/M { setmiterlimit } bind def
/d { setdash } bind def
/m { moveto } bind def
/l { lineto } bind def
/c { curveto } bind def
/h { closepath } bind def
/re { exch dup neg 3 1 roll 5 3 roll moveto 0 rlineto
      0 exch rlineto 0 rlineto closepath } bind def
/S { stroke } bind def
/f { fill } bind def
/f* { eofill } bind def
/n { newpath } bind def
/W { clip } bind def
/W* { eoclip } bind def
/BT { } bind def
/ET { } bind def
/pdfmark where { pop globaldict /?pdfmark /exec load put }
    { globaldict begin /?pdfmark /pop load def /pdfmark
    /cleartomark load def end } ifelse
/BDC { mark 3 1 roll /BDC pdfmark } bind def
/EMC { mark /EMC pdfmark } bind def
/cairo_store_point { /cairo_point_y exch def /cairo_point_x exch def } def
/Tj { show currentpoint cairo_store_point } bind def
/TJ {
  {
    dup
    type /stringtype eq
    { show } { -0.001 mul 0 cairo_font_matrix dtransform rmoveto } ifelse
  } forall
  currentpoint cairo_store_point
} bind def
/cairo_selectfont { cairo_font_matrix aload pop pop pop 0 0 6 array astore
    cairo_font exch selectfont cairo_point_x cairo_point_y moveto } bind def
/Tf { pop /cairo_font exch def /cairo_font_matrix where
      { pop cairo_selectfont } if } bind def
/Td { matrix translate cairo_font_matrix matrix concatmatrix dup
      /cairo_font_matrix exch def dup 4 get exch 5 get cairo_store_point
      /cairo_font where { pop cairo_selectfont } if } bind def
/Tm { 2 copy 8 2 roll 6 array astore /cairo_font_matrix exch def
      cairo_store_point /cairo_font where { pop cairo_selectfont } if } bind def
/g { setgray } bind def
/rg { setrgbcolor } bind def
/d1 { setcachedevice } bind def
%%EndProlog
%%BeginSetup
%%EndSetup
%%Page: 1 1
%%BeginPageSetup
%%PageBoundingBox: 0 0 335 334
%%EndPageSetup
q 0 0 335 334 rectclip q
0.831373 0.882353 0.956863 rg
334.008 175.492 m 317.441 155.371 l 298.617 172.707 l 298.617 1.004 l 33.016
 1.004 l 33.016 172.379 l 15.23 155.285 l 0 175.578 l 169.832 320.555 l 
207.414 288.934 l 207.414 333.004 l 261.016 333.004 l 261.016 238.891 l 
h
334.008 175.492 m f
0 0.67451 0.917647 rg
246.656 74.317 m 246.656 73.754 246.633 73.195 246.586 72.653 c 245.672
 61.399 235.805 53.012 224.551 53.926 c 214.594 54.735 206.68 62.617 205.832
 72.57 c 205.777 73.149 205.754 73.723 205.754 74.317 c 205.754 85.61 214.91
 94.77 226.203 94.77 c 237.5 94.77 246.656 85.61 246.656 74.317 c h
246.656 74.317 m f
0 0.937255 0.819608 rg
205.754 74.317 m 205.754 73.723 205.777 73.149 205.832 72.57 c 205.496 
72.547 l 123.176 72.547 l 122.84 72.57 l 122.895 73.149 122.922 73.723 122.922
 74.317 c 122.922 85.61 113.762 94.77 102.469 94.77 c 91.172 94.77 82.016
 85.61 82.016 74.317 c 82.016 73.715 82.039 73.133 82.098 72.547 c 75.449
 72.547 l 67.078 72.547 60.297 79.332 60.297 87.699 c 60.297 100.5 l 60.293
 107.332 64.867 113.317 71.457 115.117 c 106.512 124.692 l 127.465 152.211
 l 131.285 157.227 137.23 160.172 143.535 160.172 c 209.719 160.172 l 216.676
 160.168 223.145 156.586 226.84 150.692 c 243.121 124.692 l 262.016 116.102
 l 267.426 113.641 270.898 108.25 270.895 102.309 c 270.895 87.699 l 270.898
 79.336 264.117 72.551 255.754 72.547 c 247.922 72.547 l 246.586 72.653 
l 246.633 73.195 246.656 73.754 246.656 74.317 c 246.656 85.61 237.5 94.77
 226.203 94.77 c 214.91 94.77 205.754 85.61 205.754 74.317 c h
205.754 74.317 m f
0 0.67451 0.917647 rg
82.098 72.547 m 82.039 73.133 82.016 73.715 82.016 74.317 c 82.016 85.61
 91.172 94.77 102.469 94.77 c 113.762 94.77 122.922 85.61 122.922 74.317
 c 122.922 73.723 122.895 73.149 122.84 72.57 c 121.883 61.32 111.988 52.973
 100.734 53.93 c 90.82 54.774 82.949 62.633 82.098 72.547 c h
82.098 72.547 m f
Q Q
showpage
%%Trailer
end restore
%%EOF
