%!PS-Adobe-3.0 EPSF-3.0
%%Creator: cairo 1.14.2 (http://cairographics.org)
%%CreationDate: Wed May  2 08:31:25 2018
%%Pages: 1
%%DocumentData: Clean7Bit
%%LanguageLevel: 2
%%BoundingBox: 25 -1 321 347
%%EndComments
%%BeginProlog
save
50 dict begin
/q { gsave } bind def
/Q { grestore } bind def
/cm { 6 array astore concat } bind def
/w { setlinewidth } bind def
/J { setlinecap } bind def
/j { setlinejoin } bind def
/M { setmiterlimit } bind def
/d { setdash } bind def
/m { moveto } bind def
/l { lineto } bind def
/c { curveto } bind def
/h { closepath } bind def
/re { exch dup neg 3 1 roll 5 3 roll moveto 0 rlineto
      0 exch rlineto 0 rlineto closepath } bind def
/S { stroke } bind def
/f { fill } bind def
/f* { eofill } bind def
/n { newpath } bind def
/W { clip } bind def
/W* { eoclip } bind def
/BT { } bind def
/ET { } bind def
/pdfmark where { pop globaldict /?pdfmark /exec load put }
    { globaldict begin /?pdfmark /pop load def /pdfmark
    /cleartomark load def end } ifelse
/BDC { mark 3 1 roll /BDC pdfmark } bind def
/EMC { mark /EMC pdfmark } bind def
/cairo_store_point { /cairo_point_y exch def /cairo_point_x exch def } def
/Tj { show currentpoint cairo_store_point } bind def
/TJ {
  {
    dup
    type /stringtype eq
    { show } { -0.001 mul 0 cairo_font_matrix dtransform rmoveto } ifelse
  } forall
  currentpoint cairo_store_point
} bind def
/cairo_selectfont { cairo_font_matrix aload pop pop pop 0 0 6 array astore
    cairo_font exch selectfont cairo_point_x cairo_point_y moveto } bind def
/Tf { pop /cairo_font exch def /cairo_font_matrix where
      { pop cairo_selectfont } if } bind def
/Td { matrix translate cairo_font_matrix matrix concatmatrix dup
      /cairo_font_matrix exch def dup 4 get exch 5 get cairo_store_point
      /cairo_font where { pop cairo_selectfont } if } bind def
/Tm { 2 copy 8 2 roll 6 array astore /cairo_font_matrix exch def
      cairo_store_point /cairo_font where { pop cairo_selectfont } if } bind def
/g { setgray } bind def
/rg { setrgbcolor } bind def
/d1 { setcachedevice } bind def
%%EndProlog
%%BeginSetup
%%EndSetup
%%Page: 1 1
%%BeginPageSetup
%%PageBoundingBox: 25 -1 321 347
%%EndPageSetup
q 25 -1 296 348 rectclip q
0.831373 0.882353 0.956863 rg
320.664 58.202 m 320.664 19.729 l 320.664 8.835 311.832 0.003 300.938 -0.001
 c 284.496 -0.001 l 273.602 -0.001 264.77 8.831 264.77 19.725 c 264.77 38.471
 l 300.938 38.471 l 311.832 38.471 320.664 47.303 320.664 58.198 c h
320.664 58.202 m f
281.855 189.151 m 303.895 137.807 l 274.633 137.807 l 274.625 157.963 258.277
 174.296 238.121 174.288 c 217.977 174.28 201.648 157.952 201.641 137.807
 c 62.566 137.807 l 74.824 166.37 l 74.824 168.225 l 153.977 168.225 l 163.141
 168.221 170.574 175.651 170.574 184.815 c 170.574 201.37 l 263.312 201.37
 l 271.379 201.37 278.672 196.565 281.855 189.151 c h
281.855 189.151 m f
274.633 137.807 m 201.641 137.807 l 201.648 157.963 217.996 174.296 238.152
 174.288 c 258.297 174.28 274.625 157.952 274.633 137.807 c h
274.633 137.807 m f
170.574 201.37 m 170.574 184.815 l 170.574 175.651 163.141 168.221 153.977
 168.225 c 42.543 168.225 l 33.379 168.221 25.945 175.651 25.945 184.815
 c 25.945 330.006 l 25.945 339.174 33.375 346.608 42.543 346.608 c 112.727
 346.608 l 112.727 299.463 l 112.727 294.881 116.441 291.163 121.023 291.159
 c 170.574 291.159 l h
170.574 201.37 m f
0 0.67451 0.917647 rg
170.574 293.088 m 170.574 291.159 l 121.023 291.159 l 116.441 291.163 112.727
 294.881 112.727 299.463 c 112.727 346.608 l 113.93 346.608 l h
170.574 293.088 m f
0.831373 0.882353 0.956863 rg
97.742 38.143 m 97.742 19.729 l 97.746 8.835 88.914 0.003 78.02 -0.001 
c 61.574 -0.001 l 50.68 -0.001 41.848 8.831 41.848 19.725 c 41.848 58.202
 l 41.848 47.303 50.68 38.471 61.574 38.471 c 97.742 38.471 l h
97.742 38.143 m f
0 0.67451 0.917647 rg
282.633 137.807 m 266.633 137.807 l 266.625 153.546 253.863 166.299 238.125
 166.292 c 222.395 166.284 209.648 153.538 209.641 137.807 c 193.641 137.807
 l 193.648 162.381 213.578 182.296 238.152 182.288 c 262.715 182.28 282.625
 162.37 282.633 137.807 c h
282.633 137.807 m f
135.762 220.487 m 58.352 220.487 l 53.934 220.487 50.352 224.069 50.352
 228.487 c 50.352 232.905 53.934 236.487 58.352 236.487 c 135.762 236.487
 l 140.18 236.487 143.762 232.905 143.762 228.487 c 143.762 224.069 140.18
 220.487 135.762 220.487 c h
135.762 220.487 m f
91.305 249.417 m 58.352 249.417 l 53.934 249.417 50.352 252.999 50.352 
257.417 c 50.352 261.835 53.934 265.417 58.352 265.417 c 91.305 265.417 
l 95.723 265.417 99.305 261.835 99.305 257.417 c 99.305 252.999 95.723 249.417
 91.305 249.417 c h
91.305 249.417 m f
135.762 191.561 m 58.352 191.561 l 53.934 191.561 50.352 195.143 50.352
 199.561 c 50.352 203.979 53.934 207.561 58.352 207.561 c 135.762 207.561
 l 140.18 207.561 143.762 203.979 143.762 199.561 c 143.762 195.143 140.18
 191.561 135.762 191.561 c h
135.762 191.561 m f
0 0.937255 0.819608 rg
320.664 61.53 m 320.664 56.6 l 320.664 45.706 311.832 36.874 300.938 36.874
 c 61.574 36.874 l 50.68 36.87 41.848 45.702 41.848 56.6 c 41.848 105.698
 l 41.848 114.389 45.668 122.639 52.297 128.264 c 62.566 137.807 l 303.895
 137.807 l 303.895 137.479 l 311.391 129.471 l 317.309 123.881 320.664 116.1
 320.664 107.96 c h
320.664 61.53 m f
0 0.67451 0.917647 rg
211.344 61.639 m 151.176 61.639 l 146.758 61.639 143.176 65.221 143.176
 69.639 c 143.176 74.057 146.758 77.639 151.176 77.639 c 211.344 77.639 
l 215.762 77.639 219.344 74.057 219.344 69.639 c 219.344 65.221 215.762 
61.639 211.344 61.639 c h
211.344 61.639 m f
211.344 85.753 m 151.176 85.753 l 146.758 85.753 143.176 89.335 143.176
 93.753 c 143.176 98.171 146.758 101.753 151.176 101.753 c 211.344 101.753
 l 215.762 101.753 219.344 98.171 219.344 93.753 c 219.344 89.335 215.762
 85.753 211.344 85.753 c h
211.344 85.753 m f
0.831373 0.882353 0.956863 rg
244.711 100.327 47.016 -32.223 re f
70.785 100.327 47.016 -32.223 re f
Q Q
showpage
%%Trailer
end restore
%%EOF
