%!PS-Adobe-3.0 EPSF-3.0
%%Creator: cairo 1.14.2 (http://cairographics.org)
%%CreationDate: Wed May  2 08:31:25 2018
%%Pages: 1
%%DocumentData: Clean7Bit
%%LanguageLevel: 2
%%BoundingBox: 2 -1 333 335
%%EndComments
%%BeginProlog
save
50 dict begin
/q { gsave } bind def
/Q { grestore } bind def
/cm { 6 array astore concat } bind def
/w { setlinewidth } bind def
/J { setlinecap } bind def
/j { setlinejoin } bind def
/M { setmiterlimit } bind def
/d { setdash } bind def
/m { moveto } bind def
/l { lineto } bind def
/c { curveto } bind def
/h { closepath } bind def
/re { exch dup neg 3 1 roll 5 3 roll moveto 0 rlineto
      0 exch rlineto 0 rlineto closepath } bind def
/S { stroke } bind def
/f { fill } bind def
/f* { eofill } bind def
/n { newpath } bind def
/W { clip } bind def
/W* { eoclip } bind def
/BT { } bind def
/ET { } bind def
/pdfmark where { pop globaldict /?pdfmark /exec load put }
    { globaldict begin /?pdfmark /pop load def /pdfmark
    /cleartomark load def end } ifelse
/BDC { mark 3 1 roll /BDC pdfmark } bind def
/EMC { mark /EMC pdfmark } bind def
/cairo_store_point { /cairo_point_y exch def /cairo_point_x exch def } def
/Tj { show currentpoint cairo_store_point } bind def
/TJ {
  {
    dup
    type /stringtype eq
    { show } { -0.001 mul 0 cairo_font_matrix dtransform rmoveto } ifelse
  } forall
  currentpoint cairo_store_point
} bind def
/cairo_selectfont { cairo_font_matrix aload pop pop pop 0 0 6 array astore
    cairo_font exch selectfont cairo_point_x cairo_point_y moveto } bind def
/Tf { pop /cairo_font exch def /cairo_font_matrix where
      { pop cairo_selectfont } if } bind def
/Td { matrix translate cairo_font_matrix matrix concatmatrix dup
      /cairo_font_matrix exch def dup 4 get exch 5 get cairo_store_point
      /cairo_font where { pop cairo_selectfont } if } bind def
/Tm { 2 copy 8 2 roll 6 array astore /cairo_font_matrix exch def
      cairo_store_point /cairo_font where { pop cairo_selectfont } if } bind def
/g { setgray } bind def
/rg { setrgbcolor } bind def
/d1 { setcachedevice } bind def
%%EndProlog
%%BeginSetup
%%EndSetup
%%Page: 1 1
%%BeginPageSetup
%%PageBoundingBox: 2 -1 333 335
%%EndPageSetup
q 2 -1 331 336 rectclip q
0 0.807843 0.705882 rg
257.48 107.578 m 233.672 158.828 l 232.336 159.124 l 234.938 160.874 236.988
 163.328 238.25 166.195 c 238.555 166.05 l 260.609 166.05 l 266.309 166.046
 271.797 163.882 275.961 159.996 c 324.938 114.242 l 329.488 109.988 332.07
 104.038 332.074 97.812 c 332.074 52.101 l 332.07 39.679 322.004 29.613 
309.586 29.613 c 298.336 29.613 l 298.234 29.621 l 298.305 30.484 298.336
 31.355 298.336 32.234 c 298.059 50.038 283.398 64.246 265.594 63.964 c 
248.188 63.687 234.141 49.644 233.867 32.234 c 233.867 31.355 233.898 30.484
 233.969 29.621 c 233.867 29.613 l 187.395 29.613 l 187.395 107.578 l h
257.48 107.578 m f
0.831373 0.882353 0.956863 rg
298.336 32.234 m 298.336 31.355 298.305 30.484 298.234 29.621 c 296.777
 11.874 281.211 -1.333 263.465 0.124 c 247.738 1.413 235.262 13.894 233.969
 29.621 c 233.898 30.484 233.867 31.355 233.867 32.234 c 234.145 50.038 
248.805 64.246 266.609 63.964 c 284.02 63.687 298.062 49.644 298.336 32.234
 c h
298.336 32.234 m f
0.780392 0.843137 0.917647 rg
233.672 158.828 m 257.48 107.578 l 187.395 107.578 l 187.395 156.292 l 
223.059 156.292 l 226.363 156.288 229.598 157.273 232.336 159.124 c h
233.672 158.828 m f
0.831373 0.882353 0.956863 rg
239.656 279.234 m 239.656 172.89 l 239.664 163.73 232.238 156.296 223.074
 156.292 c 111.617 156.292 l 102.449 156.292 95.02 163.722 95.02 172.89 
c 95.02 318.074 l 95.02 327.242 102.449 334.675 111.617 334.675 c 181.801
 334.675 l 181.801 287.531 l 181.801 282.953 185.512 279.238 190.09 279.234
 c h
239.656 279.234 m f
0 0.67451 0.917647 rg
239.656 279.234 m 190.098 279.234 l 185.52 279.234 181.805 282.945 181.801
 287.523 c 181.801 334.675 l 183.008 334.675 l 239.656 281.163 l h
239.656 279.234 m f
0 0.937255 0.819608 rg
187.395 107.578 m 187.395 29.613 l 101.176 29.613 l 101.074 29.621 l 101.145
 30.484 101.176 31.355 101.176 32.234 c 101.176 50.038 86.746 64.468 68.945
 64.464 c 51.145 64.464 36.715 50.035 36.715 32.234 c 36.715 31.355 36.746
 30.484 36.816 29.621 c 36.715 29.613 l 25.09 29.613 l 12.672 29.613 2.605
 39.679 2.602 52.101 c 2.602 70.089 l 2.602 90.792 19.379 107.578 40.082
 107.578 c 77.188 107.578 l 78.059 107.578 78.934 107.628 79.801 107.738
 c 79.816 107.578 l h
187.395 107.578 m f
0.831373 0.882353 0.956863 rg
101.176 32.234 m 101.176 31.355 101.145 30.484 101.074 29.621 c 99.629 
11.874 84.074 -1.337 66.328 0.109 c 50.594 1.39 38.098 13.882 36.816 29.621
 c 36.746 30.484 36.715 31.355 36.715 32.234 c 36.715 50.038 51.145 64.468
 68.945 64.464 c 86.746 64.464 101.176 50.035 101.176 32.234 c h
101.176 32.234 m f
79.801 107.738 m 85.082 108.347 89.973 110.816 93.602 114.699 c 132.363
 156.292 l 187.395 156.292 l 187.395 107.578 l 79.816 107.578 l h
79.801 107.738 m f
0 0.67451 0.917647 rg
204.84 208.554 m 127.426 208.554 l 123.008 208.554 119.426 212.136 119.426
 216.554 c 119.426 220.972 123.008 224.554 127.426 224.554 c 204.84 224.554
 l 209.262 224.554 212.84 220.972 212.84 216.554 c 212.84 212.136 209.262
 208.554 204.84 208.554 c h
204.84 208.554 m f
160.379 237.484 m 127.426 237.484 l 123.008 237.484 119.426 241.066 119.426
 245.484 c 119.426 249.902 123.008 253.484 127.426 253.484 c 160.379 253.484
 l 164.797 253.484 168.379 249.902 168.379 245.484 c 168.379 241.066 164.797
 237.484 160.379 237.484 c h
160.379 237.484 m f
204.84 179.636 m 127.426 179.636 l 123.008 179.636 119.426 183.218 119.426
 187.636 c 119.426 192.054 123.008 195.636 127.426 195.636 c 204.84 195.636
 l 209.262 195.636 212.84 192.054 212.84 187.636 c 212.84 183.218 209.262
 179.636 204.84 179.636 c h
204.84 179.636 m f
Q Q
showpage
%%Trailer
end restore
%%EOF
