%!PS-Adobe-3.0 EPSF-3.0
%%Creator: cairo 1.14.2 (http://cairographics.org)
%%CreationDate: Wed May  2 08:31:25 2018
%%Pages: 1
%%DocumentData: Clean7Bit
%%LanguageLevel: 2
%%BoundingBox: 0 5 333 328
%%EndComments
%%BeginProlog
save
50 dict begin
/q { gsave } bind def
/Q { grestore } bind def
/cm { 6 array astore concat } bind def
/w { setlinewidth } bind def
/J { setlinecap } bind def
/j { setlinejoin } bind def
/M { setmiterlimit } bind def
/d { setdash } bind def
/m { moveto } bind def
/l { lineto } bind def
/c { curveto } bind def
/h { closepath } bind def
/re { exch dup neg 3 1 roll 5 3 roll moveto 0 rlineto
      0 exch rlineto 0 rlineto closepath } bind def
/S { stroke } bind def
/f { fill } bind def
/f* { eofill } bind def
/n { newpath } bind def
/W { clip } bind def
/W* { eoclip } bind def
/BT { } bind def
/ET { } bind def
/pdfmark where { pop globaldict /?pdfmark /exec load put }
    { globaldict begin /?pdfmark /pop load def /pdfmark
    /cleartomark load def end } ifelse
/BDC { mark 3 1 roll /BDC pdfmark } bind def
/EMC { mark /EMC pdfmark } bind def
/cairo_store_point { /cairo_point_y exch def /cairo_point_x exch def } def
/Tj { show currentpoint cairo_store_point } bind def
/TJ {
  {
    dup
    type /stringtype eq
    { show } { -0.001 mul 0 cairo_font_matrix dtransform rmoveto } ifelse
  } forall
  currentpoint cairo_store_point
} bind def
/cairo_selectfont { cairo_font_matrix aload pop pop pop 0 0 6 array astore
    cairo_font exch selectfont cairo_point_x cairo_point_y moveto } bind def
/Tf { pop /cairo_font exch def /cairo_font_matrix where
      { pop cairo_selectfont } if } bind def
/Td { matrix translate cairo_font_matrix matrix concatmatrix dup
      /cairo_font_matrix exch def dup 4 get exch 5 get cairo_store_point
      /cairo_font where { pop cairo_selectfont } if } bind def
/Tm { 2 copy 8 2 roll 6 array astore /cairo_font_matrix exch def
      cairo_store_point /cairo_font where { pop cairo_selectfont } if } bind def
/g { setgray } bind def
/rg { setrgbcolor } bind def
/d1 { setcachedevice } bind def
%%EndProlog
%%BeginSetup
%%EndSetup
%%Page: 1 1
%%BeginPageSetup
%%PageBoundingBox: 0 5 333 328
%%EndPageSetup
q 0 5 333 323 rectclip q
0 0.937255 0.819608 rg
332.289 82.257 m 332.289 59.198 l 332.285 45.999 321.586 35.296 308.383
 35.296 c 295.23 35.296 l 293.93 35.409 l 294 36.288 294.039 37.183 294.039
 38.089 c 294.031 55.909 279.578 70.354 261.754 70.347 c 243.941 70.339 
229.504 55.901 229.496 38.089 c 229.496 37.159 229.535 36.249 229.617 35.343
 c 229.098 35.296 l 99.207 35.296 l 98.688 35.343 l 98.77 36.249 98.809 
37.159 98.809 38.089 c 98.809 55.909 84.359 70.358 66.535 70.358 c 48.711
 70.358 34.266 55.909 34.266 38.089 c 34.266 37.143 34.305 36.214 34.383
 35.296 c 23.902 35.296 l 10.703 35.296 0 45.999 0 59.198 c 0 79.397 l 0.004
 90.175 7.207 99.616 17.602 102.464 c 72.91 117.565 l 98.809 151.577 l 99.266
 152.409 l 102.316 149.628 106.297 148.089 110.426 148.097 c 221.863 148.097
 l 231.031 148.097 238.465 155.526 238.465 164.694 c 238.465 173.335 l 239.473
 173.335 l 249.066 172.202 257.633 166.784 262.77 158.6 c 288.465 117.565
 l 318.281 104.015 l 326.812 100.136 332.289 91.628 332.289 82.257 c h
332.289 82.257 m f
0.831373 0.882353 0.956863 rg
294.039 38.089 m 294.039 37.183 294 36.288 293.93 35.409 c 292.453 17.647
 276.855 4.444 259.098 5.921 c 243.41 7.225 230.953 19.659 229.617 35.343
 c 229.535 36.249 229.496 37.159 229.496 38.089 c 229.504 55.909 243.957
 70.354 261.781 70.347 c 279.594 70.339 294.031 55.901 294.039 38.089 c 
h
294.039 38.089 m f
238.465 173.335 m 238.465 164.694 l 238.465 155.526 231.031 148.097 221.863
 148.097 c 110.426 148.097 l 101.258 148.097 93.824 155.526 93.824 164.694
 c 93.824 309.878 l 93.824 319.046 101.258 326.479 110.426 326.479 c 180.609
 326.479 l 180.609 279.335 l 180.605 274.753 184.32 271.034 188.902 271.03
 c 238.465 271.03 l h
238.465 173.335 m f
0 0.67451 0.917647 rg
238.465 272.96 m 238.465 271.03 l 188.902 271.03 l 184.32 271.034 180.605
 274.753 180.609 279.335 c 180.609 326.479 l 181.816 326.479 l h
238.465 272.96 m f
0.831373 0.882353 0.956863 rg
34.383 35.296 m 34.305 36.214 34.266 37.143 34.266 38.089 c 34.266 55.909
 48.711 70.358 66.535 70.358 c 84.359 70.358 98.809 55.909 98.809 38.089
 c 98.809 37.159 98.77 36.249 98.688 35.343 c 97.176 17.585 81.555 4.417
 63.797 5.929 c 48.152 7.261 35.738 19.655 34.383 35.296 c h
34.383 35.296 m f
0 0.67451 0.917647 rg
203.648 200.358 m 126.23 200.358 l 121.812 200.358 118.23 203.94 118.23
 208.358 c 118.23 212.776 121.812 216.358 126.23 216.358 c 203.648 216.358
 l 208.066 216.358 211.648 212.776 211.648 208.358 c 211.648 203.94 208.066
 200.358 203.648 200.358 c h
203.648 200.358 m f
159.184 229.288 m 126.23 229.288 l 121.812 229.288 118.23 232.87 118.23
 237.288 c 118.23 241.706 121.812 245.288 126.23 245.288 c 159.184 245.288
 l 163.602 245.288 167.184 241.706 167.184 237.288 c 167.184 232.87 163.602
 229.288 159.184 229.288 c h
159.184 229.288 m f
203.648 171.433 m 126.23 171.433 l 121.812 171.433 118.23 175.015 118.23
 179.433 c 118.23 183.85 121.812 187.433 126.23 187.433 c 203.648 187.433
 l 208.066 187.433 211.648 183.85 211.648 179.433 c 211.648 175.015 208.066
 171.433 203.648 171.433 c h
203.648 171.433 m f
Q Q
showpage
%%Trailer
end restore
%%EOF
