%!PS-Adobe-3.0 EPSF-3.0
%%Creator: cairo 1.14.2 (http://cairographics.org)
%%CreationDate: Wed May  2 08:31:25 2018
%%Pages: 1
%%DocumentData: Clean7Bit
%%LanguageLevel: 2
%%BoundingBox: 28 -1 323 351
%%EndComments
%%BeginProlog
save
50 dict begin
/q { gsave } bind def
/Q { grestore } bind def
/cm { 6 array astore concat } bind def
/w { setlinewidth } bind def
/J { setlinecap } bind def
/j { setlinejoin } bind def
/M { setmiterlimit } bind def
/d { setdash } bind def
/m { moveto } bind def
/l { lineto } bind def
/c { curveto } bind def
/h { closepath } bind def
/re { exch dup neg 3 1 roll 5 3 roll moveto 0 rlineto
      0 exch rlineto 0 rlineto closepath } bind def
/S { stroke } bind def
/f { fill } bind def
/f* { eofill } bind def
/n { newpath } bind def
/W { clip } bind def
/W* { eoclip } bind def
/BT { } bind def
/ET { } bind def
/pdfmark where { pop globaldict /?pdfmark /exec load put }
    { globaldict begin /?pdfmark /pop load def /pdfmark
    /cleartomark load def end } ifelse
/BDC { mark 3 1 roll /BDC pdfmark } bind def
/EMC { mark /EMC pdfmark } bind def
/cairo_store_point { /cairo_point_y exch def /cairo_point_x exch def } def
/Tj { show currentpoint cairo_store_point } bind def
/TJ {
  {
    dup
    type /stringtype eq
    { show } { -0.001 mul 0 cairo_font_matrix dtransform rmoveto } ifelse
  } forall
  currentpoint cairo_store_point
} bind def
/cairo_selectfont { cairo_font_matrix aload pop pop pop 0 0 6 array astore
    cairo_font exch selectfont cairo_point_x cairo_point_y moveto } bind def
/Tf { pop /cairo_font exch def /cairo_font_matrix where
      { pop cairo_selectfont } if } bind def
/Td { matrix translate cairo_font_matrix matrix concatmatrix dup
      /cairo_font_matrix exch def dup 4 get exch 5 get cairo_store_point
      /cairo_font where { pop cairo_selectfont } if } bind def
/Tm { 2 copy 8 2 roll 6 array astore /cairo_font_matrix exch def
      cairo_store_point /cairo_font where { pop cairo_selectfont } if } bind def
/g { setgray } bind def
/rg { setrgbcolor } bind def
/d1 { setcachedevice } bind def
%%EndProlog
%%BeginSetup
%%EndSetup
%%Page: 1 1
%%BeginPageSetup
%%PageBoundingBox: 28 -1 323 351
%%EndPageSetup
q 28 -1 295 352 rectclip q
0.831373 0.882353 0.956863 rg
322.734 58.201 m 322.734 19.729 l 322.738 8.834 313.906 0.002 303.008 -0.002
 c 286.566 -0.002 l 275.672 -0.002 266.84 8.83 266.84 19.725 c 266.84 38.471
 l 303.008 38.471 l 313.902 38.471 322.734 47.303 322.734 58.197 c h
322.734 58.201 m f
283.93 189.15 m 305.969 137.807 l 276.703 137.807 l 276.695 157.963 260.348
 174.295 240.191 174.287 c 220.047 174.279 203.723 157.951 203.711 137.807
 c 64.641 137.807 l 79.297 171.158 l 79.297 172.369 l 156.047 172.369 l 
165.215 172.369 172.648 179.799 172.648 188.967 c 172.648 201.369 l 265.383
 201.369 l 273.449 201.365 280.742 196.561 283.93 189.15 c h
283.93 189.15 m f
276.703 137.807 m 203.711 137.807 l 203.723 157.963 220.066 174.295 240.223
 174.287 c 260.367 174.279 276.695 157.951 276.703 137.807 c h
276.703 137.807 m f
172.648 201.369 m 172.648 188.967 l 172.648 179.799 165.215 172.369 156.047
 172.369 c 44.617 172.369 l 35.449 172.369 28.016 179.799 28.016 188.967
 c 28.016 334.15 l 28.016 343.318 35.449 350.752 44.617 350.752 c 114.801
 350.752 l 114.801 303.607 l 114.797 299.025 118.512 295.307 123.098 295.303
 c 172.648 295.303 l h
172.648 201.369 m f
0 0.67451 0.917647 rg
172.648 295.303 m 123.098 295.303 l 118.512 295.307 114.797 299.025 114.801
 303.607 c 114.801 350.752 l 116 350.752 l 172.648 297.24 l h
172.648 295.303 m f
0.831373 0.882353 0.956863 rg
99.816 38.143 m 99.816 19.729 l 99.816 8.834 90.984 0.002 80.09 -0.002 
c 63.648 -0.002 l 52.754 -0.002 43.922 8.83 43.922 19.725 c 43.922 58.201
 l 43.918 47.307 52.75 38.475 63.645 38.471 c 99.816 38.471 l h
99.816 38.143 m f
0 0.67451 0.917647 rg
284.703 137.807 m 268.703 137.807 l 268.695 153.545 255.934 166.299 240.195
 166.291 c 224.469 166.283 211.719 153.537 211.711 137.807 c 195.711 137.807
 l 195.723 162.381 215.648 182.295 240.223 182.287 c 264.785 182.279 284.695
 162.369 284.703 137.807 c h
284.703 137.807 m f
146.176 242.186 m 146.176 231.338 l 146.176 229.647 143.91 228.209 142.246
 227.936 c 135.297 226.951 l 134.539 224.248 133.469 221.639 132.113 219.178
 c 135.617 214.217 l 136.586 212.838 136.43 210.963 135.238 209.768 c 127.52
 202.018 l 126.352 200.815 124.492 200.623 123.105 201.561 c 118.238 204.85
 l 115.793 203.4 113.188 202.229 110.48 201.361 c 109.496 194.982 l 109.215
 193.326 107.785 190.975 106.105 190.975 c 95.258 190.975 l 93.574 190.975
 92.137 193.326 91.855 194.982 c 90.871 201.928 l 88.164 202.686 85.551 
203.76 83.09 205.119 c 78.223 201.705 l 76.844 200.744 74.977 200.904 73.785
 202.088 c 66.016 209.807 l 64.809 210.971 64.605 212.83 65.535 214.225 
c 68.77 219.088 l 67.289 221.537 66.086 224.143 65.184 226.857 c 58.602 
227.83 l 56.945 228.111 54.176 229.553 54.176 231.225 c 54.176 242.08 l 
54.176 243.752 56.945 245.193 58.602 245.471 c 65.953 246.455 l 66.711 249.166
 67.781 251.779 69.145 254.24 c 65.734 259.096 l 64.77 260.471 64.926 262.338
 66.113 263.529 c 73.832 271.279 l 75 272.482 76.863 272.674 78.246 271.729
 c 83.113 268.44 l 85.566 269.877 88.172 271.041 90.879 271.904 c 91.855
 278.24 l 92.137 279.897 93.574 282.178 95.258 282.178 c 106.105 282.178
 l 107.785 282.178 109.223 279.897 109.496 278.24 c 110.48 271.377 l 113.18
 270.619 115.785 269.553 118.238 268.201 c 123.098 271.682 l 124.469 272.666
 126.355 272.514 127.551 271.318 c 135.305 263.6 l 136.508 262.432 136.695
 260.568 135.754 259.186 c 132.465 254.318 l 133.902 251.869 135.062 249.268
 135.93 246.561 c 142.258 245.576 l 143.91 245.295 146.176 243.857 146.176
 242.186 c h
124.23 236.76 m 124.23 249.768 113.688 260.311 100.68 260.311 c 87.672 
260.311 77.129 249.768 77.129 236.76 c 77.129 223.752 87.672 213.209 100.68
 213.209 c 113.684 213.221 124.219 223.756 124.23 236.76 c h
124.23 236.76 m f
100.68 251.522 m 108.832 251.518 115.441 244.904 115.441 236.752 c 115.438
 228.6 108.824 221.99 100.672 221.99 c 92.52 221.994 85.91 228.607 85.91
 236.76 c 85.922 244.912 92.531 251.514 100.68 251.522 c h
100.68 251.522 m f
0 0.937255 0.819608 rg
322.734 61.529 m 322.734 56.6 l 322.738 45.705 313.906 36.873 303.008 36.873
 c 63.648 36.873 l 52.754 36.873 43.922 45.705 43.922 56.6 c 43.922 105.697
 l 43.922 114.385 47.742 122.635 54.367 128.256 c 64.641 137.807 l 305.969
 137.807 l 305.969 137.479 l 313.465 129.471 l 319.383 123.881 322.738 116.096
 322.734 107.951 c h
322.734 61.529 m f
0 0.67451 0.917647 rg
213.414 61.631 m 153.246 61.631 l 148.828 61.631 145.246 65.213 145.246
 69.631 c 145.246 74.049 148.828 77.631 153.246 77.631 c 213.414 77.631 
l 217.836 77.631 221.414 74.049 221.414 69.631 c 221.414 65.213 217.836 
61.631 213.414 61.631 c h
213.414 61.631 m f
213.414 85.752 m 153.246 85.752 l 148.828 85.752 145.246 89.334 145.246
 93.752 c 145.246 98.17 148.828 101.752 153.246 101.752 c 213.414 101.752
 l 217.836 101.752 221.414 98.17 221.414 93.752 c 221.414 89.334 217.836
 85.752 213.414 85.752 c h
213.414 85.752 m f
0.831373 0.882353 0.956863 rg
246.785 100.326 47.016 -32.223 re f
72.855 100.326 47.016 -32.223 re f
Q Q
showpage
%%Trailer
end restore
%%EOF
