%!PS-Adobe-3.0 EPSF-3.0
%%Creator: cairo 1.14.2 (http://cairographics.org)
%%CreationDate: Wed May  2 08:31:25 2018
%%Pages: 1
%%DocumentData: Clean7Bit
%%LanguageLevel: 2
%%BoundingBox: 2 -1 333 335
%%EndComments
%%BeginProlog
save
50 dict begin
/q { gsave } bind def
/Q { grestore } bind def
/cm { 6 array astore concat } bind def
/w { setlinewidth } bind def
/J { setlinecap } bind def
/j { setlinejoin } bind def
/M { setmiterlimit } bind def
/d { setdash } bind def
/m { moveto } bind def
/l { lineto } bind def
/c { curveto } bind def
/h { closepath } bind def
/re { exch dup neg 3 1 roll 5 3 roll moveto 0 rlineto
      0 exch rlineto 0 rlineto closepath } bind def
/S { stroke } bind def
/f { fill } bind def
/f* { eofill } bind def
/n { newpath } bind def
/W { clip } bind def
/W* { eoclip } bind def
/BT { } bind def
/ET { } bind def
/pdfmark where { pop globaldict /?pdfmark /exec load put }
    { globaldict begin /?pdfmark /pop load def /pdfmark
    /cleartomark load def end } ifelse
/BDC { mark 3 1 roll /BDC pdfmark } bind def
/EMC { mark /EMC pdfmark } bind def
/cairo_store_point { /cairo_point_y exch def /cairo_point_x exch def } def
/Tj { show currentpoint cairo_store_point } bind def
/TJ {
  {
    dup
    type /stringtype eq
    { show } { -0.001 mul 0 cairo_font_matrix dtransform rmoveto } ifelse
  } forall
  currentpoint cairo_store_point
} bind def
/cairo_selectfont { cairo_font_matrix aload pop pop pop 0 0 6 array astore
    cairo_font exch selectfont cairo_point_x cairo_point_y moveto } bind def
/Tf { pop /cairo_font exch def /cairo_font_matrix where
      { pop cairo_selectfont } if } bind def
/Td { matrix translate cairo_font_matrix matrix concatmatrix dup
      /cairo_font_matrix exch def dup 4 get exch 5 get cairo_store_point
      /cairo_font where { pop cairo_selectfont } if } bind def
/Tm { 2 copy 8 2 roll 6 array astore /cairo_font_matrix exch def
      cairo_store_point /cairo_font where { pop cairo_selectfont } if } bind def
/g { setgray } bind def
/rg { setrgbcolor } bind def
/d1 { setcachedevice } bind def
%%EndProlog
%%BeginSetup
%%EndSetup
%%Page: 1 1
%%BeginPageSetup
%%PageBoundingBox: 2 -1 333 335
%%EndPageSetup
q 2 -1 331 336 rectclip q
0 0.807843 0.705882 rg
257.48 107.578 m 233.672 158.828 l 232.336 159.124 l 235.004 160.929 237.094
 163.464 238.355 166.429 c 239.355 166.05 l 260.609 166.05 l 266.309 166.046
 271.797 163.882 275.961 159.996 c 324.938 114.242 l 329.488 109.988 332.07
 104.038 332.074 97.812 c 332.074 52.101 l 332.07 39.679 322.004 29.613 
309.586 29.613 c 298.336 29.613 l 298.234 29.621 l 298.305 30.484 298.336
 31.355 298.336 32.234 c 298.059 50.038 283.398 64.246 265.594 63.964 c 
248.188 63.687 234.141 49.644 233.867 32.234 c 233.867 31.355 233.898 30.484
 233.969 29.621 c 233.867 29.613 l 187.395 29.613 l 187.395 107.578 l h
257.48 107.578 m f
0.831373 0.882353 0.956863 rg
298.336 32.234 m 298.336 31.355 298.305 30.484 298.234 29.621 c 296.777
 11.874 281.211 -1.333 263.465 0.124 c 247.738 1.413 235.262 13.894 233.969
 29.621 c 233.898 30.484 233.867 31.355 233.867 32.234 c 234.145 50.038 
248.805 64.246 266.609 63.964 c 284.02 63.687 298.062 49.644 298.336 32.234
 c h
298.336 32.234 m f
0.756863 0.819608 0.898039 rg
233.672 158.828 m 257.48 107.578 l 187.395 107.578 l 187.395 156.292 l 
223.059 156.292 l 226.363 156.288 229.598 157.273 232.336 159.124 c h
233.672 158.828 m f
0.831373 0.882353 0.956863 rg
239.656 279.234 m 239.656 172.89 l 239.664 163.73 232.238 156.296 223.074
 156.292 c 111.617 156.292 l 102.449 156.292 95.02 163.722 95.02 172.89 
c 95.02 318.074 l 95.02 327.242 102.449 334.675 111.617 334.675 c 181.801
 334.675 l 181.801 287.531 l 181.801 282.953 185.512 279.238 190.09 279.234
 c h
239.656 279.234 m f
0 0.67451 0.917647 rg
239.656 281.163 m 239.656 279.234 l 190.098 279.234 l 185.52 279.234 181.805
 282.945 181.801 287.523 c 181.801 334.675 l 183.008 334.675 l h
239.656 281.163 m f
0 0.937255 0.819608 rg
187.395 107.578 m 187.395 29.613 l 101.176 29.613 l 101.074 29.621 l 101.145
 30.484 101.176 31.355 101.176 32.234 c 101.176 50.038 86.746 64.468 68.945
 64.464 c 51.145 64.464 36.715 50.035 36.715 32.234 c 36.715 31.355 36.746
 30.484 36.816 29.621 c 36.715 29.613 l 25.09 29.613 l 12.672 29.613 2.605
 39.679 2.602 52.101 c 2.602 70.089 l 2.602 90.792 19.379 107.578 40.082
 107.578 c 77.188 107.578 l 78.059 107.578 78.934 107.628 79.801 107.738
 c 79.816 107.578 l h
187.395 107.578 m f
0.831373 0.882353 0.956863 rg
101.176 32.234 m 101.176 31.355 101.145 30.484 101.074 29.621 c 99.629 
11.874 84.074 -1.337 66.328 0.109 c 50.594 1.39 38.098 13.882 36.816 29.621
 c 36.746 30.484 36.715 31.355 36.715 32.234 c 36.715 50.038 51.145 64.468
 68.945 64.464 c 86.746 64.464 101.176 50.035 101.176 32.234 c h
101.176 32.234 m f
79.801 107.738 m 85.082 108.347 89.973 110.816 93.602 114.699 c 132.363
 156.292 l 187.395 156.292 l 187.395 107.578 l 79.816 107.578 l h
79.801 107.738 m f
0 0.67451 0.917647 rg
212.539 226.644 m 212.539 215.796 l 212.539 214.117 210.418 212.675 208.762
 212.394 c 201.953 211.41 l 201.195 208.706 200.129 206.097 198.77 203.636
 c 202.281 198.675 l 203.25 197.296 203.09 195.425 201.906 194.226 c 194.188
 186.468 l 193.023 185.261 191.16 185.062 189.77 185.996 c 184.898 189.242
 l 182.449 187.781 179.848 186.589 177.137 185.699 c 176.152 179.195 l 175.875
 177.538 174.441 174.941 172.762 174.941 c 161.914 174.941 l 160.234 174.941
 158.793 177.538 158.512 179.195 c 157.531 186.394 l 154.824 187.156 152.211
 188.226 149.746 189.578 c 144.891 186.171 l 143.512 185.203 141.641 185.363
 140.449 186.554 c 132.691 194.269 l 131.484 195.433 131.289 197.292 132.227
 198.683 c 135.488 203.554 l 134.031 206.003 132.848 208.605 131.961 211.316
 c 125.504 212.3 l 123.848 212.578 121.336 214.011 121.336 215.691 c 121.336
 226.538 l 121.336 228.218 123.848 229.66 125.504 229.933 c 132.617 230.913
 l 133.379 233.624 134.445 236.234 135.801 238.699 c 132.395 243.554 l 131.43
 244.929 131.59 246.796 132.77 247.988 c 140.488 255.73 l 141.664 256.921
 143.523 257.105 144.906 256.163 c 149.777 252.843 l 152.23 254.261 154.832
 255.402 157.539 256.242 c 158.523 262.46 l 158.801 264.117 160.234 266.14
 161.914 266.14 c 172.762 266.14 l 174.441 266.14 175.883 264.117 176.16
 262.46 c 177.137 255.835 l 179.84 255.081 182.445 254.019 184.906 252.667
 c 189.754 256.148 l 191.129 257.128 193.008 256.976 194.211 255.788 c 201.961
 248.066 l 203.156 246.894 203.34 245.035 202.395 243.652 c 199.09 238.781
 l 200.516 236.328 201.664 233.726 202.512 231.019 c 208.77 230.035 l 210.426
 229.753 212.539 228.324 212.539 226.644 c h
190.891 221.218 m 190.891 234.226 180.344 244.773 167.336 244.773 c 154.332
 244.773 143.785 234.226 143.785 221.218 c 143.785 208.21 154.332 197.667
 167.336 197.667 c 180.34 197.683 190.871 208.218 190.891 221.218 c h
190.891 221.218 m f
182.098 221.218 m 182.098 213.062 175.488 206.453 167.336 206.453 c 159.188
 206.453 152.578 213.062 152.578 221.218 c 152.578 229.374 159.188 235.988
 167.336 235.988 c 175.488 235.988 182.098 229.374 182.098 221.218 c h
182.098 221.218 m f
Q Q
showpage
%%Trailer
end restore
%%EOF
