%!PS-Adobe-3.0 EPSF-3.0
%%Creator: cairo 1.14.2 (http://cairographics.org)
%%CreationDate: Wed May  2 08:31:25 2018
%%Pages: 1
%%DocumentData: Clean7Bit
%%LanguageLevel: 2
%%BoundingBox: 0 5 333 328
%%EndComments
%%BeginProlog
save
50 dict begin
/q { gsave } bind def
/Q { grestore } bind def
/cm { 6 array astore concat } bind def
/w { setlinewidth } bind def
/J { setlinecap } bind def
/j { setlinejoin } bind def
/M { setmiterlimit } bind def
/d { setdash } bind def
/m { moveto } bind def
/l { lineto } bind def
/c { curveto } bind def
/h { closepath } bind def
/re { exch dup neg 3 1 roll 5 3 roll moveto 0 rlineto
      0 exch rlineto 0 rlineto closepath } bind def
/S { stroke } bind def
/f { fill } bind def
/f* { eofill } bind def
/n { newpath } bind def
/W { clip } bind def
/W* { eoclip } bind def
/BT { } bind def
/ET { } bind def
/pdfmark where { pop globaldict /?pdfmark /exec load put }
    { globaldict begin /?pdfmark /pop load def /pdfmark
    /cleartomark load def end } ifelse
/BDC { mark 3 1 roll /BDC pdfmark } bind def
/EMC { mark /EMC pdfmark } bind def
/cairo_store_point { /cairo_point_y exch def /cairo_point_x exch def } def
/Tj { show currentpoint cairo_store_point } bind def
/TJ {
  {
    dup
    type /stringtype eq
    { show } { -0.001 mul 0 cairo_font_matrix dtransform rmoveto } ifelse
  } forall
  currentpoint cairo_store_point
} bind def
/cairo_selectfont { cairo_font_matrix aload pop pop pop 0 0 6 array astore
    cairo_font exch selectfont cairo_point_x cairo_point_y moveto } bind def
/Tf { pop /cairo_font exch def /cairo_font_matrix where
      { pop cairo_selectfont } if } bind def
/Td { matrix translate cairo_font_matrix matrix concatmatrix dup
      /cairo_font_matrix exch def dup 4 get exch 5 get cairo_store_point
      /cairo_font where { pop cairo_selectfont } if } bind def
/Tm { 2 copy 8 2 roll 6 array astore /cairo_font_matrix exch def
      cairo_store_point /cairo_font where { pop cairo_selectfont } if } bind def
/g { setgray } bind def
/rg { setrgbcolor } bind def
/d1 { setcachedevice } bind def
%%EndProlog
%%BeginSetup
%%EndSetup
%%Page: 1 1
%%BeginPageSetup
%%PageBoundingBox: 0 5 333 328
%%EndPageSetup
q 0 5 333 323 rectclip q
0 0.937255 0.819608 rg
332.289 82.257 m 332.289 59.198 l 332.285 45.999 321.586 35.296 308.383
 35.296 c 294.434 35.296 l 293.922 35.343 l 294 36.249 294.039 37.159 294.039
 38.089 c 294.031 55.913 279.578 70.354 261.754 70.347 c 243.941 70.339 
229.504 55.901 229.496 38.089 c 229.496 37.159 229.535 36.249 229.617 35.343
 c 229.098 35.296 l 99.207 35.296 l 98.688 35.343 l 98.77 36.249 98.809 
37.159 98.809 38.089 c 98.809 55.913 84.359 70.358 66.535 70.358 c 48.711
 70.358 34.266 55.913 34.266 38.089 c 34.266 37.143 34.305 36.218 34.383
 35.296 c 23.902 35.296 l 10.703 35.296 0 45.999 0 59.198 c 0 79.401 l 0.004
 90.175 7.207 99.616 17.602 102.464 c 72.91 117.569 l 98.809 151.577 l 99.266
 152.409 l 102.316 149.628 106.297 148.089 110.426 148.097 c 221.863 148.097
 l 231.031 148.097 238.465 155.526 238.465 164.694 c 238.465 173.335 l 239.473
 173.335 l 249.066 172.206 257.633 166.788 262.77 158.6 c 288.465 117.569
 l 318.281 104.015 l 326.812 100.136 332.289 91.628 332.289 82.257 c h
332.289 82.257 m f
0.831373 0.882353 0.956863 rg
294.039 38.089 m 294.039 37.159 294 36.249 293.922 35.343 c 292.41 17.589
 276.793 4.417 259.035 5.925 c 243.371 7.257 230.949 19.683 229.617 35.343
 c 229.535 36.249 229.496 37.159 229.496 38.089 c 229.504 55.913 243.957
 70.354 261.781 70.347 c 279.594 70.343 294.031 55.901 294.039 38.089 c 
h
294.039 38.089 m f
238.465 173.335 m 238.465 164.694 l 238.465 155.526 231.031 148.097 221.863
 148.097 c 110.426 148.097 l 101.258 148.097 93.824 155.53 93.824 164.694
 c 93.824 309.882 l 93.824 319.05 101.258 326.479 110.426 326.479 c 180.609
 326.479 l 180.609 279.335 l 180.605 274.753 184.32 271.034 188.902 271.03
 c 238.465 271.03 l h
238.465 173.335 m f
0 0.67451 0.917647 rg
238.465 271.03 m 188.902 271.03 l 184.32 271.034 180.605 274.753 180.609
 279.335 c 180.609 326.479 l 181.816 326.479 l 238.465 272.96 l h
238.465 271.03 m f
0.831373 0.882353 0.956863 rg
34.383 35.296 m 34.305 36.218 34.266 37.143 34.266 38.089 c 34.266 55.913
 48.711 70.358 66.535 70.358 c 84.359 70.358 98.809 55.913 98.809 38.089
 c 98.809 37.159 98.77 36.249 98.688 35.343 c 97.176 17.585 81.555 4.417
 63.797 5.929 c 48.152 7.261 35.738 19.655 34.383 35.296 c h
34.383 35.296 m f
0 0.67451 0.917647 rg
211.344 217.151 m 211.344 206.304 l 211.344 204.616 209.223 203.175 207.566
 202.905 c 200.762 201.921 l 200.004 199.214 198.938 196.604 197.574 194.143
 c 201.09 189.175 l 202.055 187.8 201.898 185.929 200.711 184.737 c 192.992
 176.975 l 191.824 175.772 189.965 175.581 188.574 176.518 c 183.703 179.784
 l 181.254 178.335 178.652 177.159 175.945 176.28 c 174.961 169.854 l 174.68
 168.198 173.246 165.745 171.566 165.745 c 160.719 165.745 l 159.039 165.745
 157.602 168.198 157.32 169.854 c 156.336 176.897 l 153.629 177.655 151.016
 178.729 148.551 180.089 c 143.695 176.671 l 142.316 175.71 140.449 175.874
 139.258 177.058 c 131.496 184.776 l 130.293 185.94 130.098 187.804 131.031
 189.19 c 134.297 194.058 l 132.836 196.507 131.656 199.112 130.77 201.823
 c 124.312 202.8 l 122.656 203.081 120.145 204.518 120.145 206.198 c 120.145
 217.05 l 120.145 218.722 122.656 220.159 124.312 220.44 c 131.426 221.425
 l 132.184 224.132 133.254 226.745 134.609 229.21 c 131.199 234.065 l 130.238
 235.436 130.395 237.304 131.574 238.495 c 139.297 246.249 l 140.469 247.444
 142.328 247.628 143.711 246.686 c 148.586 243.386 l 151.035 244.815 153.637
 245.968 156.344 246.823 c 157.328 253.112 l 157.609 254.768 159.039 256.944
 160.719 256.944 c 171.566 256.944 l 173.246 256.944 174.688 254.768 174.969
 253.112 c 175.945 246.343 l 178.645 245.585 181.254 244.522 183.711 243.167
 c 188.559 246.647 l 189.934 247.632 191.816 247.479 193.016 246.288 c 200.77
 238.569 l 201.965 237.393 202.145 235.534 201.199 234.151 c 197.895 229.288
 l 199.32 226.835 200.469 224.233 201.32 221.526 c 207.574 220.546 l 209.23
 220.265 211.344 218.831 211.344 217.151 c h
189.695 211.729 m 189.695 224.733 179.152 235.28 166.145 235.28 c 153.137
 235.28 142.594 224.733 142.594 211.729 c 142.594 198.722 153.137 188.175
 166.145 188.175 c 179.145 188.19 189.684 198.725 189.695 211.729 c h
189.695 211.729 m f
166.145 226.487 m 174.297 226.491 180.91 219.882 180.91 211.729 c 180.914
 203.573 174.305 196.964 166.152 196.96 c 158 196.956 151.387 203.565 151.383
 211.722 c 151.383 211.729 l 151.391 219.878 157.996 226.479 166.145 226.487
 c h
166.145 226.487 m f
Q Q
showpage
%%Trailer
end restore
%%EOF
