%!PS-Adobe-3.0 EPSF-3.0
%%Creator: cairo 1.14.2 (http://cairographics.org)
%%CreationDate: Wed May  2 08:31:25 2018
%%Pages: 1
%%DocumentData: Clean7Bit
%%LanguageLevel: 2
%%BoundingBox: 62 -1 299 361
%%EndComments
%%BeginProlog
save
50 dict begin
/q { gsave } bind def
/Q { grestore } bind def
/cm { 6 array astore concat } bind def
/w { setlinewidth } bind def
/J { setlinecap } bind def
/j { setlinejoin } bind def
/M { setmiterlimit } bind def
/d { setdash } bind def
/m { moveto } bind def
/l { lineto } bind def
/c { curveto } bind def
/h { closepath } bind def
/re { exch dup neg 3 1 roll 5 3 roll moveto 0 rlineto
      0 exch rlineto 0 rlineto closepath } bind def
/S { stroke } bind def
/f { fill } bind def
/f* { eofill } bind def
/n { newpath } bind def
/W { clip } bind def
/W* { eoclip } bind def
/BT { } bind def
/ET { } bind def
/pdfmark where { pop globaldict /?pdfmark /exec load put }
    { globaldict begin /?pdfmark /pop load def /pdfmark
    /cleartomark load def end } ifelse
/BDC { mark 3 1 roll /BDC pdfmark } bind def
/EMC { mark /EMC pdfmark } bind def
/cairo_store_point { /cairo_point_y exch def /cairo_point_x exch def } def
/Tj { show currentpoint cairo_store_point } bind def
/TJ {
  {
    dup
    type /stringtype eq
    { show } { -0.001 mul 0 cairo_font_matrix dtransform rmoveto } ifelse
  } forall
  currentpoint cairo_store_point
} bind def
/cairo_selectfont { cairo_font_matrix aload pop pop pop 0 0 6 array astore
    cairo_font exch selectfont cairo_point_x cairo_point_y moveto } bind def
/Tf { pop /cairo_font exch def /cairo_font_matrix where
      { pop cairo_selectfont } if } bind def
/Td { matrix translate cairo_font_matrix matrix concatmatrix dup
      /cairo_font_matrix exch def dup 4 get exch 5 get cairo_store_point
      /cairo_font where { pop cairo_selectfont } if } bind def
/Tm { 2 copy 8 2 roll 6 array astore /cairo_font_matrix exch def
      cairo_store_point /cairo_font where { pop cairo_selectfont } if } bind def
/g { setgray } bind def
/rg { setrgbcolor } bind def
/d1 { setcachedevice } bind def
%%EndProlog
%%BeginSetup
%%EndSetup
%%Page: 1 1
%%BeginPageSetup
%%PageBoundingBox: 62 -1 299 361
%%EndPageSetup
q 62 -1 237 362 rectclip q
0.831373 0.882353 0.956863 rg
298.301 49.2 m 298.301 16.673 l 298.301 7.462 290.836 0.001 281.629 0.001
 c 267.727 0.001 l 258.52 -0.003 251.051 7.458 251.047 16.669 c 251.047 
32.521 l 281.621 32.521 l 290.836 32.521 298.301 39.989 298.301 49.2 c h
298.301 49.2 m f
265.488 159.673 m 284.125 116.263 l 259.383 116.263 l 259.383 133.306 245.566
 147.118 228.527 147.118 c 211.484 147.118 197.672 133.306 197.672 116.263
 c 80.086 116.263 l 98.727 159.673 l 101.418 165.939 107.578 169.997 114.398
 170.001 c 249.812 170.001 l 256.633 169.997 262.797 165.939 265.488 159.673
 c h
265.488 159.673 m f
259.383 116.263 m 197.672 116.263 l 197.66 133.306 211.465 147.13 228.508
 147.142 c 245.547 147.149 259.371 133.345 259.383 116.306 c h
259.383 116.263 m f
0 0.67451 0.917647 rg
163.336 281.376 m 187.395 290.856 214.586 279.036 224.066 254.974 c 226.238
 249.466 227.344 243.595 227.328 237.673 c 133.551 237.673 l 133.547 256.978
 145.363 274.317 163.336 281.376 c h
163.336 281.376 m f
197.543 290.368 m 197.543 279.825 l 186.535 284.099 174.328 284.079 163.336
 279.774 c 163.336 290.368 l 163.34 298.024 169.543 304.228 177.199 304.231
 c 183.68 304.231 l 191.332 304.235 197.539 298.036 197.543 290.384 c h
197.543 290.368 m f
0.831373 0.882353 0.956863 rg
192.438 348.864 m 192.438 301.665 l 190.871 301.423 l 188.703 302.739 186.215
 303.435 183.68 303.431 c 177.199 303.431 l 174.207 303.439 171.293 302.47
 168.902 300.673 c 168.438 301.665 l 168.438 348.864 l 168.43 355.489 173.797
 360.868 180.426 360.876 c 187.055 360.884 192.43 355.517 192.438 348.888
 c 192.438 348.88 192.438 348.872 192.438 348.864 c h
192.438 348.864 m f
109.832 32.239 m 109.832 16.673 l 109.828 7.462 102.363 0.001 93.156 0.001
 c 79.254 0.001 l 70.047 -0.003 62.578 7.458 62.574 16.669 c 62.574 49.2
 l 62.574 39.989 70.043 32.521 79.254 32.521 c 109.832 32.521 l h
109.832 32.239 m f
0 0.67451 0.917647 rg
132.352 195.118 m 127.934 195.118 124.352 198.7 124.352 203.118 c 124.352
 215.146 l 124.352 219.564 127.934 223.146 132.352 223.146 c 136.77 223.146
 140.352 219.564 140.352 215.146 c 140.352 203.118 l 140.352 198.7 136.77
 195.118 132.352 195.118 c h
132.352 195.118 m f
156.391 195.118 m 151.973 195.118 148.391 198.7 148.391 203.118 c 148.391
 215.146 l 148.391 219.564 151.973 223.146 156.391 223.146 c 160.809 223.146
 164.391 219.564 164.391 215.146 c 164.391 203.118 l 164.391 198.7 160.809
 195.118 156.391 195.118 c h
156.391 195.118 m f
180.438 195.118 m 176.02 195.118 172.438 198.7 172.438 203.118 c 172.438
 215.146 l 172.438 219.564 176.02 223.146 180.438 223.146 c 184.855 223.146
 188.438 219.564 188.438 215.146 c 188.438 203.118 l 188.438 198.7 184.855
 195.118 180.438 195.118 c h
180.438 195.118 m f
204.488 195.118 m 200.066 195.118 196.488 198.7 196.488 203.118 c 196.488
 215.146 l 196.488 219.564 200.066 223.146 204.488 223.146 c 208.906 223.146
 212.488 219.564 212.488 215.146 c 212.488 203.118 l 212.488 198.7 208.902
 195.118 204.488 195.118 c h
204.488 195.118 m f
228.527 195.118 m 224.109 195.118 220.527 198.7 220.527 203.118 c 220.527
 215.146 l 220.527 219.564 224.109 223.146 228.527 223.146 c 232.945 223.146
 236.527 219.564 236.527 215.146 c 236.527 203.118 l 236.527 198.7 232.945
 195.118 228.527 195.118 c h
228.527 195.118 m f
267.383 116.263 m 251.383 116.263 l 251.383 128.888 241.148 139.118 228.527
 139.118 c 215.902 139.118 205.672 128.888 205.672 116.263 c 189.672 116.263
 l 189.672 137.724 207.066 155.118 228.527 155.118 c 249.984 155.118 267.383
 137.724 267.383 116.263 c h
267.383 116.263 m f
0 0.937255 0.819608 rg
298.301 51.767 m 298.301 47.599 l 298.301 38.388 290.836 30.919 281.621
 30.919 c 79.254 30.919 l 70.043 30.919 62.574 38.388 62.574 47.599 c 62.574
 89.11 l 62.578 96.458 65.805 103.435 71.406 108.192 c 80.918 116.263 l 
283.293 116.263 l 283.293 115.985 l 290.461 109.208 l 295.469 104.485 298.305
 97.907 298.301 91.024 c h
298.301 51.767 m f
0 0.67451 0.917647 rg
205.871 50.622 m 155.008 50.622 l 150.59 50.622 147.008 54.204 147.008 
58.622 c 147.008 63.044 150.59 66.622 155.008 66.622 c 205.871 66.622 l 
210.289 66.622 213.871 63.044 213.871 58.622 c 213.871 54.204 210.289 50.622
 205.871 50.622 c h
205.871 50.622 m f
205.871 71.017 m 155.008 71.017 l 150.59 71.017 147.008 74.599 147.008 
79.017 c 147.008 83.435 150.59 87.017 155.008 87.017 c 205.871 87.017 l 
210.289 87.017 213.871 83.435 213.871 79.017 c 213.871 74.599 210.289 71.017
 205.871 71.017 c h
205.871 71.017 m f
0.831373 0.882353 0.956863 rg
234.086 84.567 39.754 -27.238 re f
87.039 84.567 39.75 -27.238 re f
Q Q
showpage
%%Trailer
end restore
%%EOF
