%!PS-Adobe-3.0 EPSF-3.0
%%Creator: cairo 1.14.2 (http://cairographics.org)
%%CreationDate: Wed May  2 08:31:25 2018
%%Pages: 1
%%DocumentData: Clean7Bit
%%LanguageLevel: 2
%%BoundingBox: 24 -1 335 360
%%EndComments
%%BeginProlog
save
50 dict begin
/q { gsave } bind def
/Q { grestore } bind def
/cm { 6 array astore concat } bind def
/w { setlinewidth } bind def
/J { setlinecap } bind def
/j { setlinejoin } bind def
/M { setmiterlimit } bind def
/d { setdash } bind def
/m { moveto } bind def
/l { lineto } bind def
/c { curveto } bind def
/h { closepath } bind def
/re { exch dup neg 3 1 roll 5 3 roll moveto 0 rlineto
      0 exch rlineto 0 rlineto closepath } bind def
/S { stroke } bind def
/f { fill } bind def
/f* { eofill } bind def
/n { newpath } bind def
/W { clip } bind def
/W* { eoclip } bind def
/BT { } bind def
/ET { } bind def
/pdfmark where { pop globaldict /?pdfmark /exec load put }
    { globaldict begin /?pdfmark /pop load def /pdfmark
    /cleartomark load def end } ifelse
/BDC { mark 3 1 roll /BDC pdfmark } bind def
/EMC { mark /EMC pdfmark } bind def
/cairo_store_point { /cairo_point_y exch def /cairo_point_x exch def } def
/Tj { show currentpoint cairo_store_point } bind def
/TJ {
  {
    dup
    type /stringtype eq
    { show } { -0.001 mul 0 cairo_font_matrix dtransform rmoveto } ifelse
  } forall
  currentpoint cairo_store_point
} bind def
/cairo_selectfont { cairo_font_matrix aload pop pop pop 0 0 6 array astore
    cairo_font exch selectfont cairo_point_x cairo_point_y moveto } bind def
/Tf { pop /cairo_font exch def /cairo_font_matrix where
      { pop cairo_selectfont } if } bind def
/Td { matrix translate cairo_font_matrix matrix concatmatrix dup
      /cairo_font_matrix exch def dup 4 get exch 5 get cairo_store_point
      /cairo_font where { pop cairo_selectfont } if } bind def
/Tm { 2 copy 8 2 roll 6 array astore /cairo_font_matrix exch def
      cairo_store_point /cairo_font where { pop cairo_selectfont } if } bind def
/g { setgray } bind def
/rg { setrgbcolor } bind def
/d1 { setcachedevice } bind def
%%EndProlog
%%BeginSetup
%%EndSetup
%%Page: 1 1
%%BeginPageSetup
%%PageBoundingBox: 24 -1 335 360
%%EndPageSetup
q 24 -1 311 361 rectclip q
0 0.937255 0.819608 rg
334.852 71.486 m 334.852 49.927 l 334.852 37.58 324.844 27.576 312.5 27.572
 c 299.355 27.572 l 298.98 27.607 l 299.055 28.455 299.094 29.31 299.094
 30.181 c 299.082 46.849 285.562 60.353 268.895 60.341 c 252.238 60.33 238.742
 46.834 238.734 30.181 c 238.734 29.318 238.773 28.463 238.844 27.615 c 
238.363 27.572 l 116.91 27.572 l 116.43 27.615 l 116.5 28.463 116.539 29.318
 116.539 30.181 c 116.539 46.845 103.031 60.357 86.363 60.357 c 69.699 60.357
 56.188 46.845 56.188 30.181 c 56.188 29.31 56.23 28.447 56.301 27.591 c
 56.078 27.572 l 46.5 27.572 l 34.156 27.576 24.148 37.58 24.148 49.927 
c 24.148 68.814 l 24.145 78.888 30.887 87.72 40.605 90.373 c 92.324 104.509
 l 123.238 145.103 l 128.871 152.505 137.645 156.853 146.949 156.853 c 244.59
 156.853 l 254.855 156.849 264.395 151.568 269.844 142.869 c 293.875 104.509
 l 321.75 91.838 l 329.73 88.209 334.855 80.252 334.852 71.486 c h
334.852 71.486 m f
0.831373 0.882353 0.956863 rg
299.094 30.181 m 299.094 29.31 299.055 28.455 298.98 27.607 c 297.559 11.002
 282.945 -1.311 266.34 0.111 c 251.703 1.365 240.094 12.974 238.844 27.615
 c 238.773 28.463 238.734 29.318 238.734 30.181 c 238.734 46.849 252.246
 60.361 268.914 60.361 c 285.582 60.361 299.094 46.849 299.094 30.181 c 
h
299.094 30.181 m f
0 0.67451 0.917647 rg
161.707 277.22 m 186.613 287.025 214.75 274.779 224.551 249.877 c 226.793
 244.181 227.934 238.115 227.918 231.998 c 130.902 231.998 l 130.895 251.974
 143.117 269.916 161.707 277.22 c h
161.707 277.22 m f
197.102 286.564 m 197.102 275.662 l 185.715 280.08 173.086 280.068 161.707
 275.623 c 161.707 286.564 l 161.703 294.49 168.125 300.912 176.047 300.916
 c 182.758 300.916 l 190.676 300.923 197.098 294.505 197.102 286.591 c h
197.102 286.564 m f
0.831373 0.882353 0.956863 rg
191.5 347.013 m 191.5 297.412 l 191.371 297.244 l 188.891 299.111 185.863
 300.123 182.758 300.119 c 176.055 300.119 l 173.152 300.123 170.32 299.24
 167.934 297.599 c 167.5 298.213 l 167.5 347.013 l 167.508 353.642 172.887
 359.009 179.512 359.002 c 186.133 358.994 191.496 353.63 191.5 347.013 
c h
191.5 347.013 m f
116.539 30.181 m 116.539 29.318 116.5 28.463 116.43 27.615 c 115.012 11.009
 100.402 -1.303 83.797 0.115 c 69.168 1.365 57.562 12.963 56.301 27.591 
c 56.23 28.447 56.188 29.31 56.188 30.181 c 56.188 46.845 69.699 60.357 
86.363 60.357 c 103.031 60.357 116.539 46.845 116.539 30.181 c h
116.539 30.181 m f
0 0.67451 0.917647 rg
129.75 188.244 m 125.332 188.244 121.75 191.826 121.75 196.244 c 121.75
 208.693 l 121.75 213.111 125.332 216.693 129.75 216.693 c 134.168 216.693
 137.75 213.111 137.75 208.693 c 137.75 196.244 l 137.75 191.826 134.168
 188.244 129.75 188.244 c h
129.75 188.244 m f
154.621 188.244 m 150.203 188.244 146.621 191.826 146.621 196.244 c 146.621
 208.693 l 146.621 213.111 150.203 216.693 154.621 216.693 c 159.039 216.693
 162.621 213.111 162.621 208.693 c 162.621 196.244 l 162.621 191.826 159.039
 188.244 154.621 188.244 c h
154.621 188.244 m f
179.5 188.244 m 175.082 188.244 171.5 191.826 171.5 196.244 c 171.5 208.693
 l 171.5 213.111 175.082 216.693 179.5 216.693 c 183.918 216.693 187.5 213.111
 187.5 208.693 c 187.5 196.244 l 187.5 191.826 183.918 188.244 179.5 188.244
 c h
179.5 188.244 m f
204.379 188.244 m 199.961 188.244 196.379 191.826 196.379 196.244 c 196.379
 208.693 l 196.379 213.111 199.961 216.693 204.379 216.693 c 208.801 216.693
 212.379 213.111 212.379 208.693 c 212.379 196.244 l 212.379 191.826 208.801
 188.244 204.379 188.244 c h
204.379 188.244 m f
229.254 188.244 m 224.836 188.244 221.254 191.826 221.254 196.244 c 221.254
 208.693 l 221.254 213.111 224.836 216.693 229.254 216.693 c 233.672 216.693
 237.254 213.111 237.254 208.693 c 237.254 196.244 l 237.254 191.826 233.672
 188.244 229.254 188.244 c h
229.254 188.244 m f
Q Q
showpage
%%Trailer
end restore
%%EOF
