%!PS-Adobe-3.0 EPSF-3.0
%%Creator: cairo 1.14.2 (http://cairographics.org)
%%CreationDate: Wed May  2 08:31:24 2018
%%Pages: 1
%%DocumentData: Clean7Bit
%%LanguageLevel: 2
%%BoundingBox: 0 9 373 364
%%EndComments
%%BeginProlog
save
50 dict begin
/q { gsave } bind def
/Q { grestore } bind def
/cm { 6 array astore concat } bind def
/w { setlinewidth } bind def
/J { setlinecap } bind def
/j { setlinejoin } bind def
/M { setmiterlimit } bind def
/d { setdash } bind def
/m { moveto } bind def
/l { lineto } bind def
/c { curveto } bind def
/h { closepath } bind def
/re { exch dup neg 3 1 roll 5 3 roll moveto 0 rlineto
      0 exch rlineto 0 rlineto closepath } bind def
/S { stroke } bind def
/f { fill } bind def
/f* { eofill } bind def
/n { newpath } bind def
/W { clip } bind def
/W* { eoclip } bind def
/BT { } bind def
/ET { } bind def
/pdfmark where { pop globaldict /?pdfmark /exec load put }
    { globaldict begin /?pdfmark /pop load def /pdfmark
    /cleartomark load def end } ifelse
/BDC { mark 3 1 roll /BDC pdfmark } bind def
/EMC { mark /EMC pdfmark } bind def
/cairo_store_point { /cairo_point_y exch def /cairo_point_x exch def } def
/Tj { show currentpoint cairo_store_point } bind def
/TJ {
  {
    dup
    type /stringtype eq
    { show } { -0.001 mul 0 cairo_font_matrix dtransform rmoveto } ifelse
  } forall
  currentpoint cairo_store_point
} bind def
/cairo_selectfont { cairo_font_matrix aload pop pop pop 0 0 6 array astore
    cairo_font exch selectfont cairo_point_x cairo_point_y moveto } bind def
/Tf { pop /cairo_font exch def /cairo_font_matrix where
      { pop cairo_selectfont } if } bind def
/Td { matrix translate cairo_font_matrix matrix concatmatrix dup
      /cairo_font_matrix exch def dup 4 get exch 5 get cairo_store_point
      /cairo_font where { pop cairo_selectfont } if } bind def
/Tm { 2 copy 8 2 roll 6 array astore /cairo_font_matrix exch def
      cairo_store_point /cairo_font where { pop cairo_selectfont } if } bind def
/g { setgray } bind def
/rg { setrgbcolor } bind def
/d1 { setcachedevice } bind def
%%EndProlog
%%BeginSetup
%%EndSetup
%%Page: 1 1
%%BeginPageSetup
%%PageBoundingBox: 0 9 373 364
%%EndPageSetup
q 0 9 373 355 rectclip q
0 0.67451 0.917647 rg
362.453 197.35 m 369.625 195.354 373.855 187.959 371.934 180.768 c 351.582
 107.076 l 350.32 102.846 347.512 99.241 343.711 96.991 c 266.543 51.799
 l 256.238 9.51 l 197.68 32.6 l 222.68 112.358 l 223.988 115.643 226.18 
118.502 229.016 120.623 c 280.461 159.975 l 286.09 164.389 294.18 163.666
 298.934 158.326 c 303.648 152.979 303.449 144.901 298.477 139.791 c 271.16
 112.006 l 291.109 102.846 l 328.125 130.448 l 328.125 130.448 338.965 167.432
 344.926 188.045 c 347.098 195.369 354.758 199.58 362.102 197.487 c h
362.453 197.35 m f
0.831373 0.882353 0.956863 rg
302.645 243.549 m 302.645 211.424 l 302.645 202.323 295.27 194.944 286.168
 194.944 c 272.438 194.944 l 263.336 194.944 255.957 202.323 255.957 211.424
 c 255.957 227.076 l 286.168 227.076 l 295.266 227.076 302.645 234.451 302.645
 243.549 c h
302.645 243.549 m f
270.23 352.678 m 288.637 309.791 l 264.199 309.791 l 264.207 326.627 250.562
 340.28 233.727 340.287 c 216.891 340.295 203.238 326.651 203.23 309.815
 c 203.23 309.791 l 87.055 309.791 l 105.461 352.678 l 108.121 358.869 114.211
 362.881 120.949 362.885 c 254.742 362.885 l 261.48 362.885 267.57 358.869
 270.23 352.678 c h
270.23 352.678 m f
264.199 309.791 m 203.23 309.791 l 203.223 326.627 216.867 340.28 233.703
 340.287 c 250.539 340.295 264.191 326.651 264.199 309.815 c h
264.199 309.791 m f
0 0.67451 0.917647 rg
149.719 112.358 m 174.719 32.6 l 116.16 9.51 l 105.855 51.799 l 28.688 
96.991 l 24.887 99.241 22.074 102.846 20.812 107.076 c 0.461 180.768 l -1.457
 187.959 2.77 195.354 9.941 197.35 c 10.293 197.487 l 17.641 199.58 25.301
 195.369 27.469 188.045 c 33.43 167.432 44.27 130.448 44.27 130.448 c 81.285
 102.846 l 101.238 112.006 l 73.918 139.791 l 71.43 142.291 70.039 145.686
 70.055 149.213 c 70.059 152.565 71.266 155.799 73.461 158.326 c 78.215 
163.674 86.309 164.397 91.934 159.975 c 143.383 120.623 l 146.215 118.502
 148.406 115.643 149.719 112.358 c h
149.719 112.358 m f
0.831373 0.882353 0.956863 rg
116.438 226.799 m 116.438 211.424 l 116.438 202.323 109.059 194.944 99.957
 194.944 c 86.23 194.944 l 77.129 194.944 69.75 202.323 69.75 211.424 c 
69.75 243.549 l 69.754 234.451 77.129 227.076 86.23 227.076 c 116.438 227.076
 l h
116.438 226.799 m f
0 0.67451 0.917647 rg
272.199 309.791 m 256.199 309.791 l 256.203 322.209 246.145 332.28 233.727
 332.287 c 221.309 332.291 211.238 322.229 211.23 309.811 c 211.23 309.791
 l 195.23 309.791 l 195.223 331.045 212.441 348.28 233.699 348.291 c 254.953
 348.299 272.191 331.076 272.199 309.823 c h
272.199 309.791 m f
0 0.937255 0.819608 rg
302.645 246.069 m 302.645 241.951 l 302.645 232.85 295.266 225.475 286.168
 225.479 c 86.23 225.479 l 77.133 225.475 69.754 232.85 69.75 241.948 c 
69.75 282.967 l 69.754 290.225 72.941 297.116 78.469 301.815 c 87.879 309.791
 l 287.812 309.791 l 287.812 309.518 l 294.902 302.823 l 299.848 298.155
 302.648 291.655 302.645 284.854 c h
302.645 246.069 m f
0 0.67451 0.917647 rg
211.328 244.846 m 161.07 244.846 l 156.652 244.846 153.07 248.428 153.07
 252.846 c 153.07 257.264 156.652 260.846 161.07 260.846 c 211.328 260.846
 l 215.746 260.846 219.328 257.264 219.328 252.846 c 219.328 248.428 215.746
 244.846 211.328 244.846 c h
211.328 244.846 m f
211.328 264.991 m 161.07 264.991 l 156.652 264.991 153.07 268.573 153.07
 272.991 c 153.07 277.409 156.652 280.991 161.07 280.991 c 211.328 280.991
 l 215.746 280.991 219.328 277.409 219.328 272.991 c 219.328 268.573 215.746
 264.991 211.328 264.991 c h
211.328 264.991 m f
0.831373 0.882353 0.956863 rg
239.207 278.479 39.27 -26.914 re f
93.918 278.479 39.273 -26.914 re f
Q Q
showpage
%%Trailer
end restore
%%EOF
