%!PS-Adobe-3.0 EPSF-3.0
%%Creator: cairo 1.14.2 (http://cairographics.org)
%%CreationDate: Wed May  2 08:31:24 2018
%%Pages: 1
%%DocumentData: Clean7Bit
%%LanguageLevel: 2
%%BoundingBox: 0 12 373 361
%%EndComments
%%BeginProlog
save
50 dict begin
/q { gsave } bind def
/Q { grestore } bind def
/cm { 6 array astore concat } bind def
/w { setlinewidth } bind def
/J { setlinecap } bind def
/j { setlinejoin } bind def
/M { setmiterlimit } bind def
/d { setdash } bind def
/m { moveto } bind def
/l { lineto } bind def
/c { curveto } bind def
/h { closepath } bind def
/re { exch dup neg 3 1 roll 5 3 roll moveto 0 rlineto
      0 exch rlineto 0 rlineto closepath } bind def
/S { stroke } bind def
/f { fill } bind def
/f* { eofill } bind def
/n { newpath } bind def
/W { clip } bind def
/W* { eoclip } bind def
/BT { } bind def
/ET { } bind def
/pdfmark where { pop globaldict /?pdfmark /exec load put }
    { globaldict begin /?pdfmark /pop load def /pdfmark
    /cleartomark load def end } ifelse
/BDC { mark 3 1 roll /BDC pdfmark } bind def
/EMC { mark /EMC pdfmark } bind def
/cairo_store_point { /cairo_point_y exch def /cairo_point_x exch def } def
/Tj { show currentpoint cairo_store_point } bind def
/TJ {
  {
    dup
    type /stringtype eq
    { show } { -0.001 mul 0 cairo_font_matrix dtransform rmoveto } ifelse
  } forall
  currentpoint cairo_store_point
} bind def
/cairo_selectfont { cairo_font_matrix aload pop pop pop 0 0 6 array astore
    cairo_font exch selectfont cairo_point_x cairo_point_y moveto } bind def
/Tf { pop /cairo_font exch def /cairo_font_matrix where
      { pop cairo_selectfont } if } bind def
/Td { matrix translate cairo_font_matrix matrix concatmatrix dup
      /cairo_font_matrix exch def dup 4 get exch 5 get cairo_store_point
      /cairo_font where { pop cairo_selectfont } if } bind def
/Tm { 2 copy 8 2 roll 6 array astore /cairo_font_matrix exch def
      cairo_store_point /cairo_font where { pop cairo_selectfont } if } bind def
/g { setgray } bind def
/rg { setrgbcolor } bind def
/d1 { setcachedevice } bind def
%%EndProlog
%%BeginSetup
%%EndSetup
%%Page: 1 1
%%BeginPageSetup
%%PageBoundingBox: 0 12 373 361
%%EndPageSetup
q 0 12 373 349 rectclip q
0 0.67451 0.917647 rg
362.453 200.33 m 369.625 198.334 373.855 190.94 371.934 183.744 c 351.582
 110.057 l 350.32 105.826 347.512 102.221 343.711 99.971 c 266.543 54.78
 l 256.238 12.498 l 197.68 35.576 l 222.68 115.346 l 223.992 118.627 226.184
 121.487 229.016 123.604 c 280.461 162.955 l 286.09 167.369 294.18 166.647
 298.934 161.307 c 303.648 155.959 303.449 147.881 298.477 142.772 c 271.16
 114.987 l 291.109 105.826 l 328.125 133.428 l 328.125 133.428 338.965 170.409
 344.926 191.026 c 347.094 198.35 354.758 202.561 362.102 200.467 c h
362.453 200.33 m f
149.719 115.346 m 174.719 35.576 l 116.16 12.498 l 105.855 54.78 l 28.688
 99.971 l 24.887 102.221 22.074 105.826 20.812 110.057 c 0.461 183.744 l
 -1.457 190.94 2.77 198.334 9.941 200.33 c 10.293 200.467 l 17.641 202.561
 25.305 198.35 27.469 191.026 c 33.43 170.409 44.27 133.428 44.27 133.428
 c 81.285 105.826 l 101.238 114.987 l 73.918 142.772 l 71.43 145.272 70.039
 148.662 70.055 152.194 c 70.055 155.541 71.266 158.78 73.461 161.307 c 
78.215 166.655 86.309 167.373 91.934 162.955 c 143.383 123.604 l 146.215
 121.487 148.406 118.627 149.719 115.346 c h
149.719 115.346 m f
0.831373 0.882353 0.956863 rg
130.719 218.354 m 130.719 217.619 130.688 216.881 130.629 216.162 c 129.422
 201.284 116.379 190.198 101.496 191.409 c 88.297 192.483 77.816 202.959
 76.742 216.162 c 76.688 216.881 76.656 217.619 76.656 218.354 c 76.656 
233.284 88.758 245.385 103.688 245.385 c 118.617 245.385 130.719 233.284
 130.719 218.354 c h
130.719 218.354 m f
0 0.937255 0.819608 rg
76.656 216.155 m 66.91 216.155 l 56.5 216.159 48.059 224.6 48.055 235.01
 c 48.055 250.1 l 48.055 267.459 62.125 281.53 79.484 281.53 c 110.598 281.53
 l 111.332 281.53 112.062 281.573 112.789 281.666 c 112.805 281.53 l 203.016
 281.53 l 203.016 216.155 l 130.719 216.155 l 130.629 216.162 l 130.688 
216.881 130.719 217.619 130.719 218.354 c 130.719 233.284 118.617 245.385
 103.688 245.385 c 88.758 245.385 76.656 233.284 76.656 218.354 c 76.656
 217.619 76.688 216.881 76.742 216.162 c h
76.656 216.155 m f
0 0.67451 0.917647 rg
263.68 359.897 m 173.152 359.897 l 168.73 359.897 165.152 356.319 165.152
 351.897 c 165.152 347.479 168.73 343.897 173.152 343.897 c 181.398 343.897
 l 181.398 327.897 l 197.398 327.897 l 197.398 343.897 l 239.797 343.897
 l 239.797 327.897 l 255.797 327.897 l 255.797 343.897 l 263.68 343.897 
l 268.098 343.897 271.68 347.479 271.68 351.897 c 271.68 356.319 268.098
 359.897 263.68 359.897 c h
263.68 359.897 m f
0.831373 0.882353 0.956863 rg
239.16 330.252 m 261.789 281.53 l 203.016 281.53 l 203.016 330.569 l 239.16
 330.569 l h
239.16 330.252 m f
0 0.807843 0.705882 rg
241.992 216.155 m 203.016 216.155 l 203.016 281.53 l 261.789 281.53 l 239.16
 330.252 l 239.16 330.569 l 264.414 330.569 l 269.195 330.569 273.793 328.752
 277.285 325.491 c 318.359 287.123 l 322.176 283.557 324.34 278.569 324.344
 273.346 c 324.344 235.01 l 324.34 224.6 315.898 216.159 305.488 216.155
 c 296.055 216.155 l 295.965 216.162 l 296.023 216.881 296.055 217.619 296.055
 218.354 c 296.055 233.284 283.953 245.385 269.023 245.385 c 254.094 245.385
 241.992 233.284 241.992 218.354 c 241.992 217.619 242.023 216.881 242.078
 216.162 c h
241.992 216.155 m f
0.831373 0.882353 0.956863 rg
112.789 281.666 m 117.219 282.182 121.32 284.252 124.367 287.506 c 159.078
 324.596 l 162.645 328.405 167.629 330.569 172.848 330.569 c 203.016 330.569
 l 203.016 281.53 l 112.805 281.53 l h
112.789 281.666 m f
296.055 218.354 m 296.055 217.619 296.023 216.881 295.965 216.162 c 294.758
 201.284 281.715 190.198 266.832 191.409 c 253.633 192.483 243.152 202.959
 242.078 216.162 c 242.023 216.881 241.992 217.619 241.992 218.354 c 241.992
 233.284 254.094 245.385 269.023 245.385 c 283.953 245.385 296.055 233.284
 296.055 218.354 c h
296.055 218.354 m f
Q Q
showpage
%%Trailer
end restore
%%EOF
