%!PS-Adobe-3.0 EPSF-3.0
%%Creator: cairo 1.14.2 (http://cairographics.org)
%%CreationDate: Wed May  2 08:31:24 2018
%%Pages: 1
%%DocumentData: Clean7Bit
%%LanguageLevel: 2
%%BoundingBox: 15 -1 339 355
%%EndComments
%%BeginProlog
save
50 dict begin
/q { gsave } bind def
/Q { grestore } bind def
/cm { 6 array astore concat } bind def
/w { setlinewidth } bind def
/J { setlinecap } bind def
/j { setlinejoin } bind def
/M { setmiterlimit } bind def
/d { setdash } bind def
/m { moveto } bind def
/l { lineto } bind def
/c { curveto } bind def
/h { closepath } bind def
/re { exch dup neg 3 1 roll 5 3 roll moveto 0 rlineto
      0 exch rlineto 0 rlineto closepath } bind def
/S { stroke } bind def
/f { fill } bind def
/f* { eofill } bind def
/n { newpath } bind def
/W { clip } bind def
/W* { eoclip } bind def
/BT { } bind def
/ET { } bind def
/pdfmark where { pop globaldict /?pdfmark /exec load put }
    { globaldict begin /?pdfmark /pop load def /pdfmark
    /cleartomark load def end } ifelse
/BDC { mark 3 1 roll /BDC pdfmark } bind def
/EMC { mark /EMC pdfmark } bind def
/cairo_store_point { /cairo_point_y exch def /cairo_point_x exch def } def
/Tj { show currentpoint cairo_store_point } bind def
/TJ {
  {
    dup
    type /stringtype eq
    { show } { -0.001 mul 0 cairo_font_matrix dtransform rmoveto } ifelse
  } forall
  currentpoint cairo_store_point
} bind def
/cairo_selectfont { cairo_font_matrix aload pop pop pop 0 0 6 array astore
    cairo_font exch selectfont cairo_point_x cairo_point_y moveto } bind def
/Tf { pop /cairo_font exch def /cairo_font_matrix where
      { pop cairo_selectfont } if } bind def
/Td { matrix translate cairo_font_matrix matrix concatmatrix dup
      /cairo_font_matrix exch def dup 4 get exch 5 get cairo_store_point
      /cairo_font where { pop cairo_selectfont } if } bind def
/Tm { 2 copy 8 2 roll 6 array astore /cairo_font_matrix exch def
      cairo_store_point /cairo_font where { pop cairo_selectfont } if } bind def
/g { setgray } bind def
/rg { setrgbcolor } bind def
/d1 { setcachedevice } bind def
%%EndProlog
%%BeginSetup
%%EndSetup
%%Page: 1 1
%%BeginPageSetup
%%PageBoundingBox: 15 -1 339 355
%%EndPageSetup
q 15 -1 324 356 rectclip q
0 0.67451 0.917647 rg
332.531 162.566 m 340.129 155.242 340.41 143.168 333.164 135.496 c 258.074
 57.344 l 253.648 52.914 247.711 50.316 241.453 50.07 c 114.738 45.777 l
 73.363 0 l 15.914 68.289 l 100.906 150.887 l 104.758 154.102 109.418 156.188
 114.379 156.91 c 205.074 171.273 l 215.078 173.027 224.707 166.656 226.996
 156.762 c 229.172 147.055 223.699 136.887 213.926 133.961 c 161.109 117.734
 l 179.82 92.863 l 244.59 102.305 l 244.59 102.305 283.051 141.106 304.395
 162.793 c 312.043 170.461 324.438 170.547 332.188 162.984 c h
332.531 162.566 m f
0.831373 0.882353 0.956863 rg
311.934 235.008 m 311.934 202.871 l 311.934 193.773 304.559 186.398 295.461
 186.391 c 281.723 186.391 l 272.621 186.391 265.242 193.77 265.242 202.871
 c 265.242 218.527 l 295.461 218.527 l 304.559 218.531 311.934 225.906 311.934
 235.008 c h
311.934 235.008 m f
279.516 344.129 m 297.934 301.246 l 273.484 301.246 l 273.477 318.082 259.824
 331.727 242.988 331.719 c 226.16 331.711 212.523 318.074 212.516 301.246
 c 96.34 301.246 l 114.746 344.129 l 117.406 350.324 123.504 354.34 130.242
 354.336 c 264.027 354.336 l 270.77 354.34 276.859 350.324 279.516 344.129
 c h
279.516 344.129 m f
273.484 301.246 m 212.516 301.246 l 212.523 318.082 226.176 331.727 243.012
 331.719 c 259.84 331.711 273.477 318.074 273.484 301.246 c h
273.484 301.246 m f
125.723 218.258 m 125.723 202.871 l 125.723 193.77 118.344 186.391 109.242
 186.391 c 95.516 186.391 l 86.414 186.391 79.035 193.77 79.035 202.871 
c 79.035 235.008 l 79.035 225.906 86.414 218.527 95.516 218.527 c 125.723
 218.527 l h
125.723 218.258 m f
0 0.67451 0.917647 rg
281.484 301.246 m 265.484 301.246 l 265.477 313.664 255.406 323.727 242.988
 323.723 c 230.578 323.715 220.523 313.656 220.516 301.246 c 204.516 301.246
 l 204.527 322.504 221.762 339.723 243.016 339.715 c 264.258 339.707 281.473
 322.488 281.484 301.246 c h
281.484 301.246 m f
0 0.937255 0.819608 rg
311.934 237.527 m 311.934 233.406 l 311.934 224.309 304.562 216.93 295.461
 216.93 c 95.516 216.93 l 86.414 216.93 79.035 224.305 79.035 233.406 c 
79.035 274.426 l 79.035 281.684 82.227 288.574 87.766 293.273 c 97.164 301.246
 l 297.109 301.246 l 297.109 300.969 l 304.188 294.281 l 309.129 289.609
 311.934 283.109 311.934 276.313 c h
311.934 237.527 m f
0 0.67451 0.917647 rg
220.613 236.297 m 170.355 236.297 l 165.938 236.297 162.355 239.879 162.355
 244.297 c 162.355 248.715 165.938 252.297 170.355 252.297 c 220.613 252.297
 l 225.031 252.297 228.613 248.715 228.613 244.297 c 228.613 239.879 225.031
 236.297 220.613 236.297 c h
220.613 236.297 m f
220.613 256.441 m 170.355 256.441 l 165.938 256.441 162.355 260.023 162.355
 264.441 c 162.355 268.859 165.938 272.441 170.355 272.441 c 220.613 272.441
 l 225.031 272.441 228.613 268.859 228.613 264.441 c 228.613 260.023 225.031
 256.441 220.613 256.441 c h
220.613 256.441 m f
0.831373 0.882353 0.956863 rg
248.492 269.938 39.273 -26.914 re f
103.203 269.938 39.273 -26.914 re f
Q Q
showpage
%%Trailer
end restore
%%EOF
