%!PS-Adobe-3.0 EPSF-3.0
%%Creator: cairo 1.14.2 (http://cairographics.org)
%%CreationDate: Wed May  2 08:31:24 2018
%%Pages: 1
%%DocumentData: Clean7Bit
%%LanguageLevel: 2
%%BoundingBox: 0 2 340 337
%%EndComments
%%BeginProlog
save
50 dict begin
/q { gsave } bind def
/Q { grestore } bind def
/cm { 6 array astore concat } bind def
/w { setlinewidth } bind def
/J { setlinecap } bind def
/j { setlinejoin } bind def
/M { setmiterlimit } bind def
/d { setdash } bind def
/m { moveto } bind def
/l { lineto } bind def
/c { curveto } bind def
/h { closepath } bind def
/re { exch dup neg 3 1 roll 5 3 roll moveto 0 rlineto
      0 exch rlineto 0 rlineto closepath } bind def
/S { stroke } bind def
/f { fill } bind def
/f* { eofill } bind def
/n { newpath } bind def
/W { clip } bind def
/W* { eoclip } bind def
/BT { } bind def
/ET { } bind def
/pdfmark where { pop globaldict /?pdfmark /exec load put }
    { globaldict begin /?pdfmark /pop load def /pdfmark
    /cleartomark load def end } ifelse
/BDC { mark 3 1 roll /BDC pdfmark } bind def
/EMC { mark /EMC pdfmark } bind def
/cairo_store_point { /cairo_point_y exch def /cairo_point_x exch def } def
/Tj { show currentpoint cairo_store_point } bind def
/TJ {
  {
    dup
    type /stringtype eq
    { show } { -0.001 mul 0 cairo_font_matrix dtransform rmoveto } ifelse
  } forall
  currentpoint cairo_store_point
} bind def
/cairo_selectfont { cairo_font_matrix aload pop pop pop 0 0 6 array astore
    cairo_font exch selectfont cairo_point_x cairo_point_y moveto } bind def
/Tf { pop /cairo_font exch def /cairo_font_matrix where
      { pop cairo_selectfont } if } bind def
/Td { matrix translate cairo_font_matrix matrix concatmatrix dup
      /cairo_font_matrix exch def dup 4 get exch 5 get cairo_store_point
      /cairo_font where { pop cairo_selectfont } if } bind def
/Tm { 2 copy 8 2 roll 6 array astore /cairo_font_matrix exch def
      cairo_store_point /cairo_font where { pop cairo_selectfont } if } bind def
/g { setgray } bind def
/rg { setrgbcolor } bind def
/d1 { setcachedevice } bind def
%%EndProlog
%%BeginSetup
%%EndSetup
%%Page: 1 1
%%BeginPageSetup
%%PageBoundingBox: 0 2 340 337
%%EndPageSetup
q 0 2 340 335 rectclip q
0 0.937255 0.819608 rg
339.879 257.884 m 339.879 237.939 l 339.875 226.521 330.621 217.263 319.199
 217.259 c 308.52 217.259 l 306.703 217.419 l 306.762 218.165 306.793 218.915
 306.793 219.677 c 306.793 235.091 294.297 247.587 278.879 247.587 c 263.465
 247.587 250.969 235.091 250.969 219.677 c 250.969 218.876 251 218.083 251.07
 217.302 c 250.625 217.259 l 138.281 217.259 l 137.832 217.302 l 137.902
 218.083 137.938 218.876 137.938 219.677 c 137.676 235.095 124.965 247.38
 109.547 247.118 c 94.496 246.864 82.359 234.724 82.105 219.677 c 82.105
 218.86 82.137 218.052 82.207 217.259 c 73.145 217.259 l 61.723 217.263 
52.469 226.521 52.465 237.939 c 52.465 255.411 l 52.465 264.735 58.703 272.9
 67.695 275.357 c 115.535 288.427 l 144.129 325.982 l 149.344 332.825 157.457
 336.845 166.062 336.845 c 256.383 336.845 l 265.879 336.845 274.707 331.954
 279.742 323.907 c 301.969 288.427 l 327.762 276.708 l 335.137 273.349 339.875
 265.989 339.879 257.884 c h
339.879 257.884 m f
0 0.67451 0.917647 rg
316.617 165.603 m 324.223 158.282 324.504 146.2 317.246 138.532 c 242.168
 60.38 l 237.738 55.95 231.797 53.353 225.535 53.107 c 98.824 48.814 l 57.457
 3.036 l 0 71.325 l 84.992 153.923 l 88.84 157.138 93.504 159.22 98.465 
159.946 c 189.168 174.31 l 199.168 176.064 208.797 169.689 211.078 159.794
 c 213.258 150.091 207.785 139.923 198.016 136.997 c 145.199 120.778 l 163.902
 95.9 l 228.672 105.341 l 228.672 105.341 267.145 144.15 288.48 165.837 
c 296.129 173.501 308.523 173.583 316.273 166.021 c h
316.617 165.603 m f
0.831373 0.882353 0.956863 rg
306.793 219.677 m 306.793 218.915 306.762 218.165 306.703 217.419 c 305.461
 202.056 291.996 190.607 276.633 191.853 c 263.039 192.95 252.23 203.712
 251.07 217.302 c 251 218.083 250.969 218.876 250.969 219.677 c 250.969 
235.091 263.465 247.587 278.879 247.587 c 294.297 247.587 306.793 235.091
 306.793 219.677 c h
306.793 219.677 m f
82.207 217.259 m 82.137 218.052 82.105 218.86 82.105 219.677 c 82.363 235.095
 95.074 247.38 110.492 247.118 c 125.543 246.864 137.68 234.724 137.938 
219.677 c 137.938 218.876 137.902 218.083 137.832 217.302 c 136.52 201.939
 123 190.552 107.641 191.864 c 94.117 193.021 83.383 203.739 82.207 217.259
 c h
82.207 217.259 m f
Q Q
showpage
%%Trailer
end restore
%%EOF
