%!PS-Adobe-3.0 EPSF-3.0
%%Creator: cairo 1.14.2 (http://cairographics.org)
%%CreationDate: Wed May  2 08:31:24 2018
%%Pages: 1
%%DocumentData: Clean7Bit
%%LanguageLevel: 2
%%BoundingBox: 0 27 342 314
%%EndComments
%%BeginProlog
save
50 dict begin
/q { gsave } bind def
/Q { grestore } bind def
/cm { 6 array astore concat } bind def
/w { setlinewidth } bind def
/J { setlinecap } bind def
/j { setlinejoin } bind def
/M { setmiterlimit } bind def
/d { setdash } bind def
/m { moveto } bind def
/l { lineto } bind def
/c { curveto } bind def
/h { closepath } bind def
/re { exch dup neg 3 1 roll 5 3 roll moveto 0 rlineto
      0 exch rlineto 0 rlineto closepath } bind def
/S { stroke } bind def
/f { fill } bind def
/f* { eofill } bind def
/n { newpath } bind def
/W { clip } bind def
/W* { eoclip } bind def
/BT { } bind def
/ET { } bind def
/pdfmark where { pop globaldict /?pdfmark /exec load put }
    { globaldict begin /?pdfmark /pop load def /pdfmark
    /cleartomark load def end } ifelse
/BDC { mark 3 1 roll /BDC pdfmark } bind def
/EMC { mark /EMC pdfmark } bind def
/cairo_store_point { /cairo_point_y exch def /cairo_point_x exch def } def
/Tj { show currentpoint cairo_store_point } bind def
/TJ {
  {
    dup
    type /stringtype eq
    { show } { -0.001 mul 0 cairo_font_matrix dtransform rmoveto } ifelse
  } forall
  currentpoint cairo_store_point
} bind def
/cairo_selectfont { cairo_font_matrix aload pop pop pop 0 0 6 array astore
    cairo_font exch selectfont cairo_point_x cairo_point_y moveto } bind def
/Tf { pop /cairo_font exch def /cairo_font_matrix where
      { pop cairo_selectfont } if } bind def
/Td { matrix translate cairo_font_matrix matrix concatmatrix dup
      /cairo_font_matrix exch def dup 4 get exch 5 get cairo_store_point
      /cairo_font where { pop cairo_selectfont } if } bind def
/Tm { 2 copy 8 2 roll 6 array astore /cairo_font_matrix exch def
      cairo_store_point /cairo_font where { pop cairo_selectfont } if } bind def
/g { setgray } bind def
/rg { setrgbcolor } bind def
/d1 { setcachedevice } bind def
%%EndProlog
%%BeginSetup
%%EndSetup
%%Page: 1 1
%%BeginPageSetup
%%PageBoundingBox: 0 27 342 314
%%EndPageSetup
q 0 27 342 287 rectclip q
0 0.937255 0.819608 rg
196.676 135.644 m 196.676 57.765 l 110.555 57.765 l 110.449 57.773 l 110.523
 58.636 110.555 59.507 110.555 60.386 c 110.555 78.171 96.137 92.589 78.355
 92.589 c 60.57 92.589 46.156 78.171 46.156 60.386 c 46.156 59.507 46.188
 58.636 46.258 57.773 c 46.156 57.765 l 34.547 57.765 l 22.141 57.765 12.086
 67.823 12.082 80.226 c 12.082 98.202 l 12.082 118.882 28.844 135.644 49.523
 135.644 c 86.586 135.644 l 87.461 135.64 88.336 135.695 89.203 135.804 
c 89.219 135.644 l h
196.676 135.644 m f
0.831373 0.882353 0.956863 rg
110.555 60.386 m 110.555 59.507 110.523 58.636 110.449 57.773 c 109.004
 40.046 93.465 26.847 75.738 28.292 c 60.02 29.57 47.539 42.05 46.258 57.773
 c 46.188 58.636 46.156 59.507 46.156 60.386 c 46.156 78.171 60.57 92.589
 78.355 92.589 c 96.137 92.589 110.555 78.171 110.555 60.386 c h
110.555 60.386 m f
0 0.67451 0.917647 rg
268.938 230.605 m 161.105 230.605 l 156.688 230.605 153.105 227.023 153.105
 222.605 c 153.105 218.183 156.688 214.605 161.105 214.605 c 172.203 214.605
 l 172.203 194.05 l 172.203 189.632 175.785 186.05 180.203 186.05 c 184.621
 186.05 188.203 189.632 188.203 194.05 c 188.203 214.605 l 241.801 214.605
 l 241.801 194.05 l 241.801 189.632 245.383 186.05 249.801 186.05 c 254.223
 186.05 257.801 189.632 257.801 194.05 c 257.801 214.605 l 268.938 214.605
 l 273.355 214.605 276.938 218.183 276.938 222.605 c 276.938 227.023 273.355
 230.605 268.938 230.605 c h
268.938 230.605 m f
65.57 212.3 m 61.152 212.3 57.57 215.882 57.57 220.3 c 57.57 223.261 56.902
 224.3 55.441 226.585 c 53.477 229.656 50.785 233.855 50.785 241.491 c 50.785
 249.128 53.477 253.335 55.441 256.406 c 56.902 258.687 57.57 259.73 57.57
 262.683 c 57.57 265.636 56.902 266.679 55.441 268.96 c 53.477 272.027 50.785
 276.226 50.785 283.859 c 50.785 291.495 53.48 295.698 55.445 298.761 c 
56.902 301.038 57.57 302.077 57.57 305.019 c 57.57 309.437 61.152 313.019
 65.57 313.019 c 69.988 313.019 73.57 309.437 73.57 305.019 c 73.57 297.386
 70.879 293.191 68.914 290.124 c 67.453 287.847 66.785 286.808 66.785 283.859
 c 66.785 280.909 67.453 279.87 68.914 277.593 c 70.879 274.523 73.57 270.323
 73.57 262.683 c 73.57 255.042 70.879 250.843 68.918 247.777 c 67.453 245.495
 66.785 244.452 66.785 241.491 c 66.785 238.531 67.453 237.495 68.914 235.214
 c 70.879 232.144 73.57 227.941 73.57 220.3 c 73.57 215.882 69.988 212.3
 65.57 212.3 c h
65.57 212.3 m f
96.371 212.3 m 91.953 212.3 88.371 215.882 88.371 220.3 c 88.371 223.261
 87.703 224.304 86.242 226.589 c 84.281 229.656 81.594 233.859 81.594 241.491
 c 81.594 249.124 84.281 253.331 86.242 256.402 c 87.703 258.687 88.371 
259.726 88.371 262.683 c 88.371 265.64 87.703 266.683 86.242 268.964 c 84.281
 272.031 81.594 276.226 81.594 283.859 c 81.594 288.277 85.176 291.859 89.594
 291.859 c 94.012 291.859 97.594 288.277 97.594 283.859 c 97.594 280.909
 98.262 279.866 99.719 277.589 c 101.684 274.523 104.371 270.32 104.371 
262.683 c 104.371 255.046 101.684 250.847 99.723 247.781 c 98.262 245.495
 97.594 244.452 97.594 241.491 c 97.594 238.531 98.262 237.491 99.723 235.21
 c 101.684 232.14 104.371 227.941 104.371 220.3 c 104.371 215.882 100.789
 212.3 96.371 212.3 c h
96.371 212.3 m f
34.762 212.3 m 30.344 212.3 26.762 215.882 26.762 220.3 c 26.762 223.261
 26.094 224.3 24.633 226.585 c 22.668 229.656 19.977 233.855 19.977 241.491
 c 19.977 249.128 22.668 253.335 24.633 256.406 c 26.094 258.687 26.762 
259.73 26.762 262.683 c 26.762 265.636 26.094 266.679 24.633 268.96 c 22.668
 272.027 19.977 276.226 19.977 283.859 c 19.977 288.277 23.559 291.859 27.977
 291.859 c 32.398 291.859 35.977 288.277 35.977 283.859 c 35.977 280.909
 36.645 279.87 38.105 277.593 c 40.07 274.523 42.762 270.323 42.762 262.683
 c 42.762 255.042 40.074 250.843 38.109 247.777 c 36.645 245.495 35.977 
244.452 35.977 241.491 c 35.977 238.531 36.645 237.495 38.105 235.214 c 
40.07 232.144 42.762 227.941 42.762 220.3 c 42.762 215.882 39.18 212.3 34.762
 212.3 c h
34.762 212.3 m f
0 0.807843 0.705882 rg
338.859 135.874 m 340.402 132.773 341.203 129.355 341.203 125.89 c 341.203
 80.226 l 341.199 67.82 331.141 57.761 318.73 57.765 c 307.5 57.765 l 307.395
 57.773 l 307.465 58.636 307.5 59.507 307.5 60.386 c 307.5 78.171 293.082
 92.589 275.297 92.589 c 257.516 92.589 243.098 78.171 243.098 60.386 c 
243.098 59.507 243.129 58.636 243.203 57.773 c 243.098 57.765 l 196.676 
57.765 l 196.676 135.644 l 338.121 135.644 l h
338.859 135.874 m f
0.831373 0.882353 0.956863 rg
338.859 135.874 m 338.121 135.644 l 266.691 135.644 l 239.73 193.675 l 
239.73 194.05 l 269.809 194.05 l 275.504 194.054 280.988 191.89 285.145 
188.003 c 334.066 142.308 l 336.039 140.472 337.664 138.292 338.859 135.874
 c h
338.859 135.874 m f
307.5 60.386 m 307.5 59.507 307.465 58.636 307.395 57.773 c 305.949 40.046
 290.41 26.847 272.684 28.292 c 256.961 29.573 244.484 42.05 243.203 57.773
 c 243.129 58.636 243.098 59.507 243.098 60.386 c 243.098 78.171 257.516
 92.589 275.297 92.589 c 293.082 92.589 307.5 78.171 307.5 60.386 c h
307.5 60.386 m f
239.73 193.675 m 266.691 135.644 l 196.676 135.644 l 196.676 194.05 l 239.73
 194.05 l h
239.73 193.675 m f
89.203 135.804 m 94.477 136.413 99.359 138.878 102.988 142.757 c 144.34
 186.941 l 148.586 191.476 154.523 194.05 160.738 194.05 c 196.676 194.05
 l 196.676 135.644 l 89.219 135.644 l h
89.203 135.804 m f
0 0.807843 0.705882 rg
95.363 131.3 m 93.574 131.296 91.836 131.898 90.43 133.007 c 32.805 178.284
 l 29.043 180.886 23.992 180.593 20.559 177.573 c 13.27 171.195 l 9.945 
168.288 4.887 168.624 1.98 171.952 c -0.93 175.277 -0.594 180.335 2.734 
183.241 c 10.023 189.62 l 19.074 197.585 32.422 198.249 42.223 191.226 c
 42.324 191.152 42.422 191.077 42.52 190.999 c 100.312 145.593 l 103.789
 142.863 104.391 137.835 101.66 134.359 c 100.145 132.429 97.82 131.3 95.363
 131.304 c h
95.363 131.3 m f
Q Q
showpage
%%Trailer
end restore
%%EOF
