%!PS-Adobe-3.0 EPSF-3.0
%%Creator: cairo 1.14.2 (http://cairographics.org)
%%CreationDate: Wed May  2 08:31:24 2018
%%Pages: 1
%%DocumentData: Clean7Bit
%%LanguageLevel: 2
%%BoundingBox: 0 37 365 327
%%EndComments
%%BeginProlog
save
50 dict begin
/q { gsave } bind def
/Q { grestore } bind def
/cm { 6 array astore concat } bind def
/w { setlinewidth } bind def
/J { setlinecap } bind def
/j { setlinejoin } bind def
/M { setmiterlimit } bind def
/d { setdash } bind def
/m { moveto } bind def
/l { lineto } bind def
/c { curveto } bind def
/h { closepath } bind def
/re { exch dup neg 3 1 roll 5 3 roll moveto 0 rlineto
      0 exch rlineto 0 rlineto closepath } bind def
/S { stroke } bind def
/f { fill } bind def
/f* { eofill } bind def
/n { newpath } bind def
/W { clip } bind def
/W* { eoclip } bind def
/BT { } bind def
/ET { } bind def
/pdfmark where { pop globaldict /?pdfmark /exec load put }
    { globaldict begin /?pdfmark /pop load def /pdfmark
    /cleartomark load def end } ifelse
/BDC { mark 3 1 roll /BDC pdfmark } bind def
/EMC { mark /EMC pdfmark } bind def
/cairo_store_point { /cairo_point_y exch def /cairo_point_x exch def } def
/Tj { show currentpoint cairo_store_point } bind def
/TJ {
  {
    dup
    type /stringtype eq
    { show } { -0.001 mul 0 cairo_font_matrix dtransform rmoveto } ifelse
  } forall
  currentpoint cairo_store_point
} bind def
/cairo_selectfont { cairo_font_matrix aload pop pop pop 0 0 6 array astore
    cairo_font exch selectfont cairo_point_x cairo_point_y moveto } bind def
/Tf { pop /cairo_font exch def /cairo_font_matrix where
      { pop cairo_selectfont } if } bind def
/Td { matrix translate cairo_font_matrix matrix concatmatrix dup
      /cairo_font_matrix exch def dup 4 get exch 5 get cairo_store_point
      /cairo_font where { pop cairo_selectfont } if } bind def
/Tm { 2 copy 8 2 roll 6 array astore /cairo_font_matrix exch def
      cairo_store_point /cairo_font where { pop cairo_selectfont } if } bind def
/g { setgray } bind def
/rg { setrgbcolor } bind def
/d1 { setcachedevice } bind def
%%EndProlog
%%BeginSetup
%%EndSetup
%%Page: 1 1
%%BeginPageSetup
%%PageBoundingBox: 0 37 365 327
%%EndPageSetup
q 0 37 365 290 rectclip q
0.831373 0.882353 0.956863 rg
324.105 72.275 m 324.105 71.306 324.062 70.349 323.984 69.396 c 322.383
 50.685 305.922 36.818 287.211 38.416 c 270.723 39.826 257.645 52.9 256.23
 69.388 c 256.152 70.341 256.113 71.298 256.113 72.275 c 256.398 91.052 
271.855 106.037 290.629 105.752 c 309 105.47 323.824 90.646 324.105 72.275
 c h
324.105 72.275 m f
0 0.937255 0.819608 rg
316.586 156.595 m 317.504 157.173 l 318.23 156.005 l 349.641 141.732 l 
358.629 137.642 364.398 128.677 364.398 118.802 c 364.398 94.525 l 364.402
 80.619 353.129 69.341 339.223 69.341 c 324.609 69.341 l 323.984 69.396 
l 324.062 70.349 324.105 71.306 324.105 72.275 c 323.816 91.052 308.363 
106.037 289.586 105.752 c 271.219 105.47 256.395 90.646 256.113 72.275 c
 256.113 71.298 256.152 70.341 256.23 69.388 c 255.695 69.341 l 118.871 
69.341 l 118.336 69.388 l 118.414 70.341 118.457 71.298 118.457 72.275 c
 118.168 91.052 102.715 106.037 83.938 105.752 c 65.57 105.47 50.746 90.646
 50.465 72.275 c 50.465 71.291 50.504 70.314 50.594 69.349 c 50.543 69.341
 l 39.551 69.341 l 25.645 69.337 14.371 80.611 14.367 94.517 c 14.367 115.795
 l 14.367 127.15 21.961 137.099 32.91 140.091 c 91.176 156.005 l 91.977 
157.06 l 92.586 156.595 l h
316.586 156.595 m f
0.831373 0.882353 0.956863 rg
317.504 157.173 m 316.586 156.595 l 202.184 156.595 l 202.184 214.97 l 
262.711 214.97 l 274.277 214.97 285.027 209.017 291.168 199.22 c h
317.504 157.173 m f
202.184 157.396 m 202.184 156.595 l 92.586 156.595 l 91.977 157.06 l 126
 201.74 l 132.352 210.076 142.23 214.97 152.711 214.97 c 202.184 214.97 
l h
202.184 157.396 m f
118.457 72.275 m 118.457 71.298 118.414 70.341 118.336 69.388 c 116.719
 50.681 100.242 36.826 81.535 38.443 c 65.086 39.865 52.035 52.9 50.594 
69.349 c 50.504 70.314 50.465 71.291 50.465 72.275 c 50.754 91.052 66.207
 106.037 84.98 105.752 c 103.352 105.47 118.176 90.646 118.457 72.275 c 
h
118.457 72.275 m f
0 0.807843 0.705882 rg
92.113 153.681 m 90.449 153.681 88.832 154.201 87.477 155.17 c 32.07 194.642
 l 28.496 197.205 23.625 196.962 20.324 194.056 c 13.234 187.853 l 9.895
 184.962 4.844 185.326 1.949 188.67 c -0.918 191.986 -0.586 196.994 2.699
 199.896 c 9.789 206.095 l 18.66 213.908 31.75 214.56 41.355 207.67 c 96.762
 168.197 l 100.359 165.634 101.199 160.638 98.637 157.041 c 97.137 154.927
 94.703 153.677 92.113 153.677 c h
92.113 153.681 m f
0 0.67451 0.917647 rg
74.648 227.755 m 70.23 227.755 66.648 231.337 66.648 235.755 c 66.648 238.572
 66.008 239.568 64.613 241.752 c 62.695 244.755 60.062 248.873 60.062 256.357
 c 60.062 263.841 62.695 267.962 64.617 270.97 c 66.012 273.15 66.648 274.146
 66.648 276.955 c 66.648 279.763 66.008 280.759 64.617 282.943 c 62.695 
285.943 60.062 290.056 60.062 297.541 c 60.062 305.025 62.695 309.138 64.621
 312.142 c 66.012 314.318 66.648 315.31 66.648 318.107 c 66.648 322.525 
70.23 326.107 74.648 326.107 c 79.066 326.107 82.648 322.525 82.648 318.107
 c 82.648 310.627 80.016 306.517 78.094 303.513 c 76.699 301.337 76.062 
300.345 76.062 297.541 c 76.062 294.736 76.703 293.744 78.094 291.564 c 
80.012 288.56 82.648 284.443 82.648 276.955 c 82.648 269.466 80.02 265.357
 78.098 262.353 c 76.699 260.166 76.062 259.17 76.062 256.357 c 76.062 253.541
 76.703 252.552 78.098 250.369 c 80.016 247.365 82.648 243.248 82.648 235.755
 c 82.648 231.337 79.066 227.755 74.648 227.755 c h
74.648 227.755 m f
104.602 227.755 m 100.18 227.755 96.602 231.337 96.602 235.755 c 96.602
 238.568 95.961 239.564 94.566 241.748 c 92.645 244.752 90.004 248.869 90.004
 256.357 c 90.004 263.845 92.641 267.966 94.566 270.974 c 95.961 273.154
 96.598 274.15 96.598 276.955 c 96.598 279.763 95.957 280.759 94.562 282.939
 c 92.641 285.943 90.004 290.056 90.004 297.541 c 90.004 301.959 93.586 
305.541 98.004 305.541 c 102.422 305.541 106.004 301.959 106.004 297.541
 c 106.004 294.74 106.645 293.744 108.035 291.568 c 109.961 288.564 112.594
 284.447 112.594 276.955 c 112.594 269.466 109.961 265.357 108.035 262.349
 c 106.637 260.166 106 259.17 106 256.357 c 106 253.545 106.641 252.552 
108.031 250.373 c 109.957 247.365 112.594 243.252 112.594 235.755 c 112.594
 231.341 109.016 227.759 104.602 227.755 c h
104.602 227.755 m f
44.703 227.755 m 40.285 227.755 36.703 231.337 36.703 235.755 c 36.703 
238.568 36.062 239.564 34.668 241.748 c 32.75 244.752 30.109 248.869 30.109
 256.357 c 30.109 263.845 32.742 267.966 34.668 270.974 c 36.066 273.154
 36.703 274.15 36.703 276.955 c 36.703 279.763 36.062 280.759 34.668 282.939
 c 32.746 285.943 30.109 290.056 30.109 297.541 c 30.109 301.959 33.691 
305.541 38.109 305.541 c 42.527 305.541 46.109 301.959 46.109 297.541 c 
46.109 294.74 46.75 293.744 48.141 291.568 c 50.066 288.564 52.699 284.447
 52.699 276.955 c 52.699 269.462 50.066 265.357 48.141 262.349 c 46.742 
260.166 46.105 259.17 46.105 256.357 c 46.105 253.545 46.746 252.556 48.137
 250.373 c 50.059 247.369 52.699 243.248 52.699 235.755 c 52.699 231.341
 49.121 227.759 44.703 227.755 c h
44.703 227.755 m f
Q Q
showpage
%%Trailer
end restore
%%EOF
