%!PS-Adobe-3.0 EPSF-3.0
%%Creator: cairo 1.14.2 (http://cairographics.org)
%%CreationDate: Wed May  2 08:31:24 2018
%%Pages: 1
%%DocumentData: Clean7Bit
%%LanguageLevel: 2
%%BoundingBox: 0 42 359 316
%%EndComments
%%BeginProlog
save
50 dict begin
/q { gsave } bind def
/Q { grestore } bind def
/cm { 6 array astore concat } bind def
/w { setlinewidth } bind def
/J { setlinecap } bind def
/j { setlinejoin } bind def
/M { setmiterlimit } bind def
/d { setdash } bind def
/m { moveto } bind def
/l { lineto } bind def
/c { curveto } bind def
/h { closepath } bind def
/re { exch dup neg 3 1 roll 5 3 roll moveto 0 rlineto
      0 exch rlineto 0 rlineto closepath } bind def
/S { stroke } bind def
/f { fill } bind def
/f* { eofill } bind def
/n { newpath } bind def
/W { clip } bind def
/W* { eoclip } bind def
/BT { } bind def
/ET { } bind def
/pdfmark where { pop globaldict /?pdfmark /exec load put }
    { globaldict begin /?pdfmark /pop load def /pdfmark
    /cleartomark load def end } ifelse
/BDC { mark 3 1 roll /BDC pdfmark } bind def
/EMC { mark /EMC pdfmark } bind def
/cairo_store_point { /cairo_point_y exch def /cairo_point_x exch def } def
/Tj { show currentpoint cairo_store_point } bind def
/TJ {
  {
    dup
    type /stringtype eq
    { show } { -0.001 mul 0 cairo_font_matrix dtransform rmoveto } ifelse
  } forall
  currentpoint cairo_store_point
} bind def
/cairo_selectfont { cairo_font_matrix aload pop pop pop 0 0 6 array astore
    cairo_font exch selectfont cairo_point_x cairo_point_y moveto } bind def
/Tf { pop /cairo_font exch def /cairo_font_matrix where
      { pop cairo_selectfont } if } bind def
/Td { matrix translate cairo_font_matrix matrix concatmatrix dup
      /cairo_font_matrix exch def dup 4 get exch 5 get cairo_store_point
      /cairo_font where { pop cairo_selectfont } if } bind def
/Tm { 2 copy 8 2 roll 6 array astore /cairo_font_matrix exch def
      cairo_store_point /cairo_font where { pop cairo_selectfont } if } bind def
/g { setgray } bind def
/rg { setrgbcolor } bind def
/d1 { setcachedevice } bind def
%%EndProlog
%%BeginSetup
%%EndSetup
%%Page: 1 1
%%BeginPageSetup
%%PageBoundingBox: 0 42 359 316
%%EndPageSetup
q 0 42 359 274 rectclip q
0.831373 0.882353 0.956863 rg
358.145 117.785 m 358.145 68.374 l 358.148 54.382 346.805 43.035 332.812
 43.031 c 311.688 43.031 l 297.691 43.035 286.344 54.378 286.344 68.374 
c 286.344 92.449 l 332.809 92.449 l 346.801 92.449 358.145 103.792 358.145
 117.785 c h
358.145 117.785 m f
0 0.937255 0.819608 rg
358.145 122.519 m 358.145 116.183 l 358.145 102.191 346.801 90.847 332.809
 90.847 c 25.336 90.847 l 11.344 90.847 0 102.191 0 116.183 c 0 179.257 
l 0 190.417 4.906 201.015 13.414 208.242 c 26.609 220.503 l 336.609 220.503
 l 336.609 220.082 l 346.23 209.792 l 353.836 202.613 358.145 192.617 358.145
 182.16 c h
358.145 122.519 m f
0.831373 0.882353 0.956863 rg
307.68 298.578 m 336.609 220.503 l 299.016 220.503 l 299.016 246.394 278.027
 267.382 252.137 267.382 c 226.246 267.382 205.258 246.394 205.258 220.503
 c 26.609 220.503 l 55.535 298.578 l 59.219 308.515 68.695 315.113 79.297
 315.113 c 283.922 315.113 l 294.52 315.109 303.996 308.515 307.68 298.578
 c h
307.68 298.578 m f
299.016 220.503 m 205.258 220.503 l 205.27 246.394 226.266 267.374 252.16
 267.363 c 278.031 267.347 299.004 246.378 299.016 220.503 c h
299.016 220.503 m f
71.801 92.023 m 71.801 68.374 l 71.801 54.378 60.453 43.035 46.457 43.031
 c 25.336 43.031 l 11.34 43.035 0 54.378 0 68.374 c 0 117.785 l 0 103.792
 11.344 92.449 25.336 92.449 c 71.801 92.449 l h
71.801 92.023 m f
0 0.67451 0.917647 rg
307.016 220.503 m 291.016 220.503 l 291.016 241.976 273.609 259.382 252.137
 259.382 c 230.664 259.382 213.258 241.976 213.258 220.503 c 197.258 220.503
 l 197.258 250.812 221.828 275.382 252.137 275.382 c 282.445 275.382 307.016
 250.812 307.016 220.503 c h
307.016 220.503 m f
217.719 131.417 m 140.426 131.417 l 136.004 131.417 132.426 134.999 132.426
 139.417 c 132.426 143.835 136.004 147.417 140.426 147.417 c 217.719 147.417
 l 222.137 147.417 225.719 143.835 225.719 139.417 c 225.719 134.999 222.137
 131.417 217.719 131.417 c h
217.719 131.417 m f
217.719 155.914 m 140.426 155.914 l 136.004 155.914 132.426 159.492 132.426
 163.914 c 132.426 168.332 136.004 171.914 140.426 171.914 c 217.719 171.914
 l 222.137 171.914 225.719 168.332 225.719 163.914 c 225.719 159.492 222.137
 155.914 217.719 155.914 c h
217.719 155.914 m f
0.831373 0.882353 0.956863 rg
260.586 172.359 60.391 -41.391 re f
37.168 172.359 60.391 -41.391 re f
Q Q
showpage
%%Trailer
end restore
%%EOF
