%!PS-Adobe-3.0 EPSF-3.0
%%Creator: cairo 1.14.2 (http://cairographics.org)
%%CreationDate: Wed May  2 08:31:24 2018
%%Pages: 1
%%DocumentData: Clean7Bit
%%LanguageLevel: 2
%%BoundingBox: 0 68 365 296
%%EndComments
%%BeginProlog
save
50 dict begin
/q { gsave } bind def
/Q { grestore } bind def
/cm { 6 array astore concat } bind def
/w { setlinewidth } bind def
/J { setlinecap } bind def
/j { setlinejoin } bind def
/M { setmiterlimit } bind def
/d { setdash } bind def
/m { moveto } bind def
/l { lineto } bind def
/c { curveto } bind def
/h { closepath } bind def
/re { exch dup neg 3 1 roll 5 3 roll moveto 0 rlineto
      0 exch rlineto 0 rlineto closepath } bind def
/S { stroke } bind def
/f { fill } bind def
/f* { eofill } bind def
/n { newpath } bind def
/W { clip } bind def
/W* { eoclip } bind def
/BT { } bind def
/ET { } bind def
/pdfmark where { pop globaldict /?pdfmark /exec load put }
    { globaldict begin /?pdfmark /pop load def /pdfmark
    /cleartomark load def end } ifelse
/BDC { mark 3 1 roll /BDC pdfmark } bind def
/EMC { mark /EMC pdfmark } bind def
/cairo_store_point { /cairo_point_y exch def /cairo_point_x exch def } def
/Tj { show currentpoint cairo_store_point } bind def
/TJ {
  {
    dup
    type /stringtype eq
    { show } { -0.001 mul 0 cairo_font_matrix dtransform rmoveto } ifelse
  } forall
  currentpoint cairo_store_point
} bind def
/cairo_selectfont { cairo_font_matrix aload pop pop pop 0 0 6 array astore
    cairo_font exch selectfont cairo_point_x cairo_point_y moveto } bind def
/Tf { pop /cairo_font exch def /cairo_font_matrix where
      { pop cairo_selectfont } if } bind def
/Td { matrix translate cairo_font_matrix matrix concatmatrix dup
      /cairo_font_matrix exch def dup 4 get exch 5 get cairo_store_point
      /cairo_font where { pop cairo_selectfont } if } bind def
/Tm { 2 copy 8 2 roll 6 array astore /cairo_font_matrix exch def
      cairo_store_point /cairo_font where { pop cairo_selectfont } if } bind def
/g { setgray } bind def
/rg { setrgbcolor } bind def
/d1 { setcachedevice } bind def
%%EndProlog
%%BeginSetup
%%EndSetup
%%Page: 1 1
%%BeginPageSetup
%%PageBoundingBox: 0 68 365 296
%%EndPageSetup
q 0 68 365 228 rectclip q
0 0.807843 0.705882 rg
362.145 188.175 m 204.801 188.175 l 204.801 101.773 l 255.992 101.773 l
 256.113 101.933 l 256.02 102.945 255.977 103.96 255.992 104.972 c 327.305
 104.972 l 327.32 103.96 327.277 102.945 327.184 101.933 c 327.305 101.773
 l 339.742 101.773 l 353.48 101.773 364.801 113.327 364.801 127.062 c 364.801
 177.62 l 364.754 181.3 363.844 184.913 362.145 188.175 c h
362.145 188.175 m f
0 0.937255 0.819608 rg
85.594 188.175 m 85.574 188.351 l 84.613 188.23 83.648 188.171 82.68 188.175
 c 41.641 188.175 l 18.742 188.175 0 169.862 0 146.964 c 0 127.062 l 0 113.327
 11.32 101.773 25.055 101.773 c 37.91 101.773 l 38.031 101.933 l 37.938 
102.945 37.898 103.96 37.91 104.972 c 109.223 104.972 l 109.238 103.96 109.199
 102.945 109.105 101.933 c 109.223 101.773 l 204.801 101.773 l 204.801 188.175
 l h
85.594 188.175 m f
0 0.67451 0.917647 rg
284.602 295.374 m 165.191 295.374 l 160.773 295.374 157.191 291.792 157.191
 287.374 c 157.191 282.956 160.773 279.374 165.191 279.374 c 178.398 279.374
 l 178.398 250.573 l 194.398 250.573 l 194.398 279.374 l 255.199 279.374
 l 255.199 250.573 l 271.199 250.573 l 271.199 279.374 l 284.602 279.374
 l 289.02 279.374 292.602 282.956 292.602 287.374 c 292.602 291.792 289.02
 295.374 284.602 295.374 c h
284.602 295.374 m f
0.831373 0.882353 0.956863 rg
362.145 188.421 m 282.113 188.421 l 252.266 252.687 l 252.266 253.101 l
 285.566 253.101 l 291.875 253.101 297.945 250.71 302.551 246.405 c 356.719
 195.796 l 358.969 193.698 360.809 191.195 362.145 188.421 c h
362.145 188.421 m f
0.737255 0.815686 0.909804 rg
252.266 252.687 m 282.113 188.421 l 204.586 188.421 l 204.586 253.101 l
 252.266 253.101 l h
252.266 252.687 m f
0.831373 0.882353 0.956863 rg
85.574 188.597 m 91.414 189.277 96.824 192.007 100.84 196.3 c 146.625 245.222
 l 151.328 250.253 157.906 253.105 164.793 253.101 c 204.586 253.101 l 204.586
 188.421 l 85.594 188.421 l h
85.574 188.597 m f
327.305 105.085 m 327.305 104.109 327.266 103.148 327.184 102.198 c 325.59
 82.57 308.391 67.952 288.766 69.546 c 271.352 70.956 257.527 84.78 256.113
 102.198 c 256.031 103.148 255.992 104.109 255.992 105.085 c 256.004 124.777
 271.977 140.734 291.668 140.722 c 311.344 140.71 327.293 124.761 327.305
 105.085 c h
327.305 105.085 m f
109.223 105.085 m 109.223 104.109 109.184 103.148 109.105 102.198 c 107.512
 82.57 90.309 67.952 70.684 69.546 c 53.27 70.956 39.445 84.78 38.031 102.198
 c 37.953 103.148 37.91 104.109 37.91 105.085 c 37.922 124.777 53.891 140.734
 73.582 140.726 c 93.262 140.718 109.215 124.765 109.223 105.085 c h
109.223 105.085 m f
Q Q
showpage
%%Trailer
end restore
%%EOF
