%!PS-Adobe-3.0 EPSF-3.0
%%Creator: cairo 1.14.2 (http://cairographics.org)
%%CreationDate: Wed May  2 08:31:24 2018
%%Pages: 1
%%DocumentData: Clean7Bit
%%LanguageLevel: 2
%%BoundingBox: 0 27 346 319
%%EndComments
%%BeginProlog
save
50 dict begin
/q { gsave } bind def
/Q { grestore } bind def
/cm { 6 array astore concat } bind def
/w { setlinewidth } bind def
/J { setlinecap } bind def
/j { setlinejoin } bind def
/M { setmiterlimit } bind def
/d { setdash } bind def
/m { moveto } bind def
/l { lineto } bind def
/c { curveto } bind def
/h { closepath } bind def
/re { exch dup neg 3 1 roll 5 3 roll moveto 0 rlineto
      0 exch rlineto 0 rlineto closepath } bind def
/S { stroke } bind def
/f { fill } bind def
/f* { eofill } bind def
/n { newpath } bind def
/W { clip } bind def
/W* { eoclip } bind def
/BT { } bind def
/ET { } bind def
/pdfmark where { pop globaldict /?pdfmark /exec load put }
    { globaldict begin /?pdfmark /pop load def /pdfmark
    /cleartomark load def end } ifelse
/BDC { mark 3 1 roll /BDC pdfmark } bind def
/EMC { mark /EMC pdfmark } bind def
/cairo_store_point { /cairo_point_y exch def /cairo_point_x exch def } def
/Tj { show currentpoint cairo_store_point } bind def
/TJ {
  {
    dup
    type /stringtype eq
    { show } { -0.001 mul 0 cairo_font_matrix dtransform rmoveto } ifelse
  } forall
  currentpoint cairo_store_point
} bind def
/cairo_selectfont { cairo_font_matrix aload pop pop pop 0 0 6 array astore
    cairo_font exch selectfont cairo_point_x cairo_point_y moveto } bind def
/Tf { pop /cairo_font exch def /cairo_font_matrix where
      { pop cairo_selectfont } if } bind def
/Td { matrix translate cairo_font_matrix matrix concatmatrix dup
      /cairo_font_matrix exch def dup 4 get exch 5 get cairo_store_point
      /cairo_font where { pop cairo_selectfont } if } bind def
/Tm { 2 copy 8 2 roll 6 array astore /cairo_font_matrix exch def
      cairo_store_point /cairo_font where { pop cairo_selectfont } if } bind def
/g { setgray } bind def
/rg { setrgbcolor } bind def
/d1 { setcachedevice } bind def
%%EndProlog
%%BeginSetup
%%EndSetup
%%Page: 1 1
%%BeginPageSetup
%%PageBoundingBox: 0 27 346 319
%%EndPageSetup
q 0 27 346 292 rectclip q
0 0.67451 0.917647 rg
345.137 184.214 m 345.137 159.32 l 345.137 152.445 339.566 146.874 332.691
 146.87 c 305.648 146.87 l 305.648 196.663 l 332.688 196.663 l 339.562 196.663
 345.137 191.093 345.137 184.218 c h
345.137 184.214 m f
0.831373 0.882353 0.956863 rg
305.648 196.663 m 305.648 179.441 l 141.266 180.191 l 141.078 198.831 125.812
 213.792 107.176 213.605 c 88.922 213.421 74.121 198.757 73.77 180.503 c
 39.488 180.663 l 39.488 276.105 l 305.648 274.89 l h
305.648 196.663 m f
0 0.937255 0.819608 rg
305.648 291.601 m 305.648 274.89 l 39.488 276.105 l 39.488 292.593 l 39.484
 306.343 50.629 317.491 64.379 317.495 c 64.496 317.495 l 280.863 316.503
 l 294.57 316.441 305.648 305.308 305.648 291.601 c h
305.648 291.601 m f
0 0.67451 0.917647 rg
289.047 63.632 m 289.047 40.089 l 289.047 33.214 283.477 27.64 276.602 
27.64 c 249.809 27.64 l 242.93 27.64 237.355 33.21 237.352 40.089 c 237.352
 63.214 l 280.754 63.214 l 283.469 63.214 286.164 63.659 288.734 64.527 
c h
289.047 63.632 m f
0.831373 0.882353 0.956863 rg
141.266 180.191 m 73.77 180.503 l 74.129 199.14 89.527 213.956 108.164 
213.597 c 126.418 213.245 141.078 198.445 141.266 180.191 c h
141.266 180.191 m f
0 0.67451 0.917647 rg
107.785 62.913 m 107.785 40.089 l 107.781 33.21 102.203 27.64 95.328 27.64
 c 68.535 27.64 l 61.664 27.64 56.09 33.21 56.09 40.085 c 56.09 63.527 l
 56.398 64.527 l 58.973 63.659 61.668 63.214 64.383 63.214 c 107.785 63.214
 l h
107.785 62.913 m f
39.488 180.663 m 39.488 146.87 l 12.449 146.87 l 5.574 146.87 0 152.441
 0 159.316 c 0 184.214 l 0 191.089 5.57 196.663 12.445 196.663 c 39.488 
196.663 l h
39.488 180.663 m f
149.266 179.87 m 133.266 179.87 l 133.266 180.191 l 133.09 194.413 121.422
 205.8 107.199 205.628 c 93.289 205.456 82.027 194.269 81.766 180.359 c 
81.766 179.87 l 65.766 179.87 l 65.766 180.148 65.766 180.437 65.777 180.718
 c 66.242 203.773 85.309 222.081 108.363 221.616 c 130.938 221.163 149.059
 202.843 149.27 180.269 c h
149.266 179.87 m f
0 0.937255 0.819608 rg
141.266 180.191 m 305.648 179.441 l 305.648 86.519 l 305.66 72.777 294.523
 61.628 280.781 61.616 c 64.383 61.616 l 50.641 61.609 39.492 72.745 39.488
 86.491 c 39.488 180.663 l 73.77 180.503 l h
278.887 102.96 m 278.887 132.761 l 235.406 132.761 l 235.406 102.96 l h
109.727 102.96 m 109.727 132.761 l 66.246 132.761 l 66.246 102.96 l h
109.727 102.96 m f
0.831373 0.882353 0.956863 rg
235.406 132.761 43.48 -29.801 re f
66.246 132.761 43.48 -29.801 re f
0 0.67451 0.917647 rg
204.543 96.374 m 140.594 96.374 l 136.172 96.374 132.594 99.956 132.594
 104.374 c 132.594 108.796 136.172 112.374 140.594 112.374 c 204.543 112.374
 l 208.961 112.374 212.543 108.796 212.543 104.374 c 212.543 99.956 208.961
 96.374 204.543 96.374 c h
204.543 96.374 m f
204.543 118.679 m 140.594 118.679 l 136.172 118.679 132.594 122.261 132.594
 126.679 c 132.594 131.097 136.172 134.679 140.594 134.679 c 204.543 134.679
 l 208.961 134.679 212.543 131.097 212.543 126.679 c 212.543 122.261 208.961
 118.679 204.543 118.679 c h
204.543 118.679 m f
Q Q
showpage
%%Trailer
end restore
%%EOF
