<?xml version="1.0" encoding="iso-8859-1"?>
<!-- Generator: Adobe Illustrator 19.0.0, SVG Export Plug-In . SVG Version: 6.00 Build 0)  -->
<svg version="1.1" id="Capa_1" xmlns="http://www.w3.org/2000/svg" xmlns:xlink="http://www.w3.org/1999/xlink" x="0px" y="0px"
	 viewBox="0 0 447.88 447.88" style="enable-background:new 0 0 447.88 447.88;" xml:space="preserve">
<g>
	<path style="fill:#00ACEA;" d="M396.91,202.37c1.76,14.326,1.76,28.814,0,43.14h-0.01l-1.91-0.23H292.67V202.6h102.32l1.91-0.23
		L396.91,202.37z"/>
	<g>
		<path style="fill:#00EFD1;" d="M223.94,0c123.68,0,223.94,100.26,223.94,223.94S347.62,447.88,223.94,447.88S0,347.62,0,223.94
			S100.26,0,223.94,0z M398.23,223.94c0.001-7.21-0.44-14.414-1.32-21.57h-0.01c-11.913-95.518-99.002-163.293-194.52-151.38
			S39.087,149.992,51,245.51s99.002,163.293,194.52,151.38c79.156-9.872,141.508-72.224,151.38-151.38h0.01
			C397.79,238.354,398.231,231.15,398.23,223.94z"/>
		<path style="fill:#00EFD1;" d="M292.67,245.28v11.31c-0.001,11.531-9.349,20.879-20.88,20.88h-95.7
			c-11.531-0.001-20.879-9.349-20.88-20.88v-65.3c0.001-11.531,9.349-20.879,20.88-20.88h95.7
			c11.531,0.001,20.879,9.349,20.88,20.88V245.28z"/>
	</g>
	<path style="fill:#00ACEA;" d="M155.21,202.6v42.68H53.89l-2.9,0.34c-1.787-14.398-1.787-28.962,0-43.36l2.9,0.34L155.21,202.6
		L155.21,202.6z"/>
</g>
<g>
</g>
<g>
</g>
<g>
</g>
<g>
</g>
<g>
</g>
<g>
</g>
<g>
</g>
<g>
</g>
<g>
</g>
<g>
</g>
<g>
</g>
<g>
</g>
<g>
</g>
<g>
</g>
<g>
</g>
</svg>
