<?xml version="1.0" encoding="iso-8859-1"?>
<!-- Generator: Adobe Illustrator 19.0.0, SVG Export Plug-In . SVG Version: 6.00 Build 0)  -->
<svg version="1.1" id="Capa_1" xmlns="http://www.w3.org/2000/svg" xmlns:xlink="http://www.w3.org/1999/xlink" x="0px" y="0px"
	 viewBox="0 0 436.352 436.352" style="enable-background:new 0 0 436.352 436.352;" xml:space="preserve">
<g>
	<path style="fill:#00ACEA;" d="M185.92,67.799c0.29,29.27-19.13,54.47-42.02,65.19v166.57c30.71,9.27,48.68,35.93,48.68,67.8
		s-17.68,58.82-48.68,67.8l4.1-49.26l-0.38-0.28c-14.145-10.766-33.767-10.655-47.79,0.27l-0.01,0.01l3.81,48.97
		c-35.35-8.11-52.45-35.06-52.45-66.93c0-28.98,19.12-54.47,42.3-65.49V135.31c-30.71-9.27-48.67-35.93-48.67-67.8
		C45.1,35.93,62.77,8.98,93.77,0l-4.09,49.26l0.37,0.28c14.149,10.765,33.773,10.655,47.8-0.27l0.01-0.01l-3.81-48.97
		C168.82,8.979,185.92,35.929,185.92,67.799z"/>
	<rect x="309.2" y="62.41" style="fill:#083863;" width="20" height="197.65"/>
	<path style="fill:#00EFD1;" d="M381.557,249.965l-129.57-0.655h-0.027c-5.566,0.134-10.007,4.689-10,10.257
		c-0.024,5.552,4.427,10.088,9.978,10.17l29.232,0.225v130c0,20.407,16.47,36.348,36.88,36.348h0.04
		c20.55,1,37.08-15.8,37.08-36.351V270.174l26.333,0.136h0.027c5.618-0.089,10.101-4.715,10.012-10.333
		C391.455,254.494,387.039,250.066,381.557,249.965L381.557,249.965z"/>
	<polygon style="fill:#00ACEA;" points="340.68,0.119 349.86,64.299 286.63,64.299 295.8,0.119 	"/>
</g>
<g>
</g>
<g>
</g>
<g>
</g>
<g>
</g>
<g>
</g>
<g>
</g>
<g>
</g>
<g>
</g>
<g>
</g>
<g>
</g>
<g>
</g>
<g>
</g>
<g>
</g>
<g>
</g>
<g>
</g>
</svg>
