<?xml version="1.0" encoding="iso-8859-1"?>
<!-- Generator: Adobe Illustrator 19.0.0, SVG Export Plug-In . SVG Version: 6.00 Build 0)  -->
<svg version="1.1" id="Capa_1" xmlns="http://www.w3.org/2000/svg" xmlns:xlink="http://www.w3.org/1999/xlink" x="0px" y="0px"
	 viewBox="0 0 404.72 404.72" style="enable-background:new 0 0 404.72 404.72;" xml:space="preserve">
<g>
	<path style="fill:#00ACEA;" d="M346.93,335.14l-34.68-2.89l-0.21,0.27c-7.576,9.963-7.494,23.778,0.2,33.65l0.01,0.01l34.48-2.68
		c-6.12,24.49-25.1,36.53-47.54,36.53c-20.61,0.2-38.36-13.47-45.91-29.59h-100c-6.53,21.63-25.3,34.28-47.75,34.28
		s-41.42-12.45-47.74-34.28l34.68,2.88l0.21-0.26c7.575-9.967,7.493-23.784-0.2-33.66h-0.01l-34.48,2.68
		c5.71-24.9,24.69-36.93,47.14-36.93c20.4,0,38.36,13.46,46.11,29.79h100.4c6.53-21.63,25.31-34.28,47.75-34.28
		C321.63,300.86,340.61,313.31,346.93,335.14z"/>
	<g>
		<path style="fill:#00EFD1;" d="M324.75,254.55H79.97c1.45-41.8,3.61-46.85,6.14-51.54c2.932-5.839,6.569-11.297,10.83-16.25
			c19.14-23.1,50.91-31.77,80.87-22.02c15.977,5.05,33.123,5.05,49.1,0c30.33-9.75,61.73-1.08,80.87,22.02
			c4.188,5.138,7.818,10.706,10.83,16.61C321.14,208.06,323.3,213.12,324.75,254.55z"/>
		<circle style="fill:#00EFD1;" cx="202.36" cy="66.79" r="66.79"/>
	</g>
</g>
<g>
</g>
<g>
</g>
<g>
</g>
<g>
</g>
<g>
</g>
<g>
</g>
<g>
</g>
<g>
</g>
<g>
</g>
<g>
</g>
<g>
</g>
<g>
</g>
<g>
</g>
<g>
</g>
<g>
</g>
</svg>
