<?xml version="1.0" encoding="iso-8859-1"?>
<!-- Generator: Adobe Illustrator 19.0.0, SVG Export Plug-In . SVG Version: 6.00 Build 0)  -->
<svg version="1.1" id="Capa_1" xmlns="http://www.w3.org/2000/svg" xmlns:xlink="http://www.w3.org/1999/xlink" x="0px" y="0px"
	 viewBox="0 0 479.744 479.744" style="enable-background:new 0 0 479.744 479.744;" xml:space="preserve">
<g>
	<path style="fill:#00EFD1;" d="M298.292,52.23l-31.86,36.29l31.86,34.52l-31.86,25.03v27.2l10.62,21.24v67.76
		c-24.075-8.4-50.285-8.4-74.36,0V26.564L239.872,0L298.292,52.23z"/>
	<path style="fill:#00ACEA;" d="M277.052,261.27c58.574,20.534,89.412,84.664,68.878,143.238
		c-20.534,58.574-84.664,89.412-143.238,68.878c-58.574-20.534-89.412-84.664-68.878-143.238
		c11.3-32.233,36.645-57.578,68.878-68.878C226.753,252.789,252.991,252.789,277.052,261.27z M264.272,407.78
		c13.47-13.476,13.466-35.32-0.01-48.79c-13.476-13.47-35.32-13.466-48.79,0.01c-13.467,13.472-13.467,35.309,0,48.781
		c13.474,13.476,35.322,13.477,48.797,0.003C264.271,407.782,264.271,407.781,264.272,407.78z"/>
</g>
<g>
</g>
<g>
</g>
<g>
</g>
<g>
</g>
<g>
</g>
<g>
</g>
<g>
</g>
<g>
</g>
<g>
</g>
<g>
</g>
<g>
</g>
<g>
</g>
<g>
</g>
<g>
</g>
<g>
</g>
</svg>
