<?xml version="1.0" encoding="iso-8859-1"?>
<!-- Generator: Adobe Illustrator 19.0.0, SVG Export Plug-In . SVG Version: 6.00 Build 0)  -->
<svg version="1.1" id="Capa_1" xmlns="http://www.w3.org/2000/svg" xmlns:xlink="http://www.w3.org/1999/xlink" x="0px" y="0px"
	 viewBox="0 0 443.52 443.52" style="enable-background:new 0 0 443.52 443.52;" xml:space="preserve">
<g>
	<polygon style="fill:#00ACEA;" points="416.21,4.57 416.21,119.36 416.04,119.36 27.31,119.36 27.31,4.57 	"/>
	<g>
		<path style="fill:#D4E1F4;" d="M376.81,371.22v42.79c-0.002,12.116-9.824,21.938-21.94,21.94h-18.29
			c-12.116-0.002-21.938-9.824-21.94-21.94v-20.84h40.23C366.989,393.164,376.809,383.339,376.81,371.22z"/>
		<path style="fill:#D4E1F4;" d="M333.64,226.505c-3.524-8.279-11.623-13.678-20.62-13.745H134.89
			c-8.997,0.067-17.096,5.466-20.62,13.745L89.75,283.76h268.41L333.64,226.505z"/>
		<path style="fill:#D4E1F4;" d="M128.88,393.53v20.48c-0.002,12.116-9.824,21.938-21.94,21.94H88.65
			c-12.116-0.002-21.938-9.824-21.94-21.94v-42.79c0.001,12.119,9.821,21.944,21.94,21.95h40.23V393.53z"/>
		<polygon style="fill:#D4E1F4;" points="443.52,4.57 443.52,438.95 412.21,438.95 412.21,119.36 412.21,4.57 420.04,4.57 		"/>
		<polygon style="fill:#D4E1F4;" points="31.31,119.36 31.31,438.95 0,438.95 0,4.57 23.48,4.57 31.31,4.57 		"/>
	</g>
	<path style="fill:#00ACEA;" d="M335.61,283.9h-20c-0.008-16.894-13.711-30.583-30.605-30.575
		c-16.883,0.008-30.566,13.692-30.575,30.575h-20c0.011-27.94,22.67-50.581,50.61-50.57
		C312.965,233.342,335.599,255.976,335.61,283.9z"/>
	<path style="fill:#00EFD1;" d="M376.81,368.74v5.48c-0.001,12.119-9.821,21.944-21.94,21.95H88.65
		c-12.119-0.006-21.939-9.831-21.94-21.95v-54.6c0.001-9.667,4.25-18.845,11.62-25.1l12.52-10.62h266.21v0.37l9.43,8.91
		c6.588,6.212,10.321,14.866,10.32,23.92V368.74z"/>
	<g>
		<path style="fill:#00ACEA;" d="M255.22,369.72H188.3c-5.523,0-10-4.477-10-10s4.477-10,10-10h66.92c5.523,0,10,4.477,10,10
			S260.743,369.72,255.22,369.72z"/>
		<path style="fill:#00ACEA;" d="M255.22,342.9H188.3c-5.523,0-10-4.477-10-10s4.477-10,10-10h66.92c5.523,0,10,4.477,10,10
			S260.743,342.9,255.22,342.9z"/>
	</g>
	<g>
		<rect x="292.34" y="325.59" style="fill:#D4E1F4;" width="52.29" height="35.84"/>
		<rect x="98.89" y="325.59" style="fill:#D4E1F4;" width="52.29" height="35.84"/>
	</g>
</g>
<g>
</g>
<g>
</g>
<g>
</g>
<g>
</g>
<g>
</g>
<g>
</g>
<g>
</g>
<g>
</g>
<g>
</g>
<g>
</g>
<g>
</g>
<g>
</g>
<g>
</g>
<g>
</g>
<g>
</g>
</svg>
