<?xml version="1.0" encoding="iso-8859-1"?>
<!-- Generator: Adobe Illustrator 19.0.0, SVG Export Plug-In . SVG Version: 6.00 Build 0)  -->
<svg version="1.1" id="Capa_1" xmlns="http://www.w3.org/2000/svg" xmlns:xlink="http://www.w3.org/1999/xlink" x="0px" y="0px"
	 viewBox="0 0 450.133 450.133" style="enable-background:new 0 0 450.133 450.133;" xml:space="preserve">
<g>
	<path style="fill:#00EFD1;" d="M389.766,164.656c33.365,0.026,60.392,27.094,60.366,60.46c-0.001,0.774-0.016,1.547-0.046,2.32
		c-1.18,31.21-27.04,56.97-58.25,58c-13.914,0.497-27.57-3.847-38.64-12.29c-10.372-7.898-24.746-7.882-35.1,0.04
		c-23.004,17.549-55.259,16.17-76.68-3.28c-9.294-8.352-23.391-8.348-32.68,0.01c-21.451,19.459-53.74,20.818-76.75,3.23
		c-10.372-7.898-24.746-7.882-35.1,0.04c-11.04,8.424-24.662,12.754-38.54,12.25c-31.26-1.03-57.17-26.79-58.3-58.05
		c-1.295-33.325,24.671-61.39,57.996-62.685c13.7-0.532,27.173,3.613,38.204,11.755c10.786,8.1,25.621,8.12,36.43,0.05
		c23.081-17.107,55.027-15.545,76.33,3.73c9.154,8.204,23.016,8.204,32.17,0c21.287-19.254,53.194-20.835,76.28-3.78
		c10.786,8.1,25.621,8.12,36.43,0.05C364.264,168.806,376.844,164.651,389.766,164.656z"/>
</g>
<g>
	<path style="fill:#00ACEA;" d="M388.456,202.706c12.352,0.003,22.363,10.018,22.36,22.37c-0.003,12.352-10.018,22.363-22.37,22.36
		c-12.348-0.003-22.357-10.012-22.36-22.36c-0.014-12.34,9.978-22.356,22.318-22.37
		C388.422,202.706,388.439,202.706,388.456,202.706z"/>
</g>
<g>
	<path style="fill:#00ACEA;" d="M280.306,202.706c12.352,0.003,22.363,10.018,22.36,22.37c-0.003,12.352-10.018,22.363-22.37,22.36
		c-12.348-0.003-22.357-10.012-22.36-22.36c-0.013-12.341,9.981-22.357,22.322-22.37
		C280.274,202.706,280.29,202.706,280.306,202.706z"/>
</g>
<g>
	<path style="fill:#00ACEA;" d="M167.246,202.706c12.352,0.003,22.363,10.018,22.36,22.37c-0.003,12.352-10.018,22.363-22.37,22.36
		c-12.348-0.003-22.357-10.012-22.36-22.36c-0.013-12.341,9.981-22.357,22.322-22.37
		C167.214,202.706,167.23,202.706,167.246,202.706z"/>
</g>
<g>
	<path style="fill:#00ACEA;" d="M36.736,225.076c0.011-12.338,10.022-22.331,22.36-22.32c12.338,0.011,22.331,10.022,22.32,22.36
		c-0.011,12.322-9.998,22.309-22.32,22.32C46.753,247.421,36.751,237.419,36.736,225.076z"/>
</g>
<g>
</g>
<g>
</g>
<g>
</g>
<g>
</g>
<g>
</g>
<g>
</g>
<g>
</g>
<g>
</g>
<g>
</g>
<g>
</g>
<g>
</g>
<g>
</g>
<g>
</g>
<g>
</g>
<g>
</g>
</svg>
