<?xml version="1.0" encoding="iso-8859-1"?>
<!-- Generator: Adobe Illustrator 19.0.0, SVG Export Plug-In . SVG Version: 6.00 Build 0)  -->
<svg version="1.1" id="Capa_1" xmlns="http://www.w3.org/2000/svg" xmlns:xlink="http://www.w3.org/1999/xlink" x="0px" y="0px"
	 viewBox="0 0 416.12 416.12" style="enable-background:new 0 0 416.12 416.12;" xml:space="preserve">
<g>
	<g>
		<path style="fill:#00EFD1;" d="M416.12,253.214v73.57c0.001,7.754-6.284,14.039-14.038,14.04c-0.001,0-0.001,0-0.002,0h-21.01
			c-3.337-20.44-22.612-34.305-43.052-30.968c-15.904,2.597-28.371,15.064-30.968,30.968h-28.24v-113.58h98.36l30.45,13.06
			C412.779,242.521,416.122,247.598,416.12,253.214z"/>
		<g>
			<path style="fill:#D4E1F4;" d="M381.07,340.824c0.317,1.994,0.478,4.011,0.48,6.03c-0.03,20.675-16.815,37.412-37.49,37.382
				c-20.675-0.03-37.412-16.815-37.382-37.49c0.03-20.675,16.815-37.412,37.49-37.382
				C362.516,309.391,378.141,322.711,381.07,340.824z"/>
			<path style="fill:#D4E1F4;" d="M348.47,171.544l28.7,55.7h-98.36v-49.26c-0.002-7.756,6.284-14.046,14.04-14.05h43.13
				C341.239,163.935,346.058,166.871,348.47,171.544z"/>
		</g>
		<path style="fill:#00CEB4;" d="M278.81,255.644v85.18H109.37l-0.68,0.12c-3.262-20.452-22.487-34.387-42.939-31.125
			c-16.028,2.557-28.592,15.134-31.131,31.165l-0.93-0.16H0v-85.18H278.81z"/>
		<polygon style="fill:#00ACEA;" points="200.06,221.884 200.06,221.674 179.31,111.679 85.94,41.884 48.84,41.884 51.06,43.789 
			121.635,111.562 101.06,221.674 101.06,221.884 72.06,221.884 72.06,255.884 228.06,255.884 228.06,221.884 		"/>
		<path style="fill:#D4E1F4;" d="M108.69,340.944c0.305,1.955,0.459,3.931,0.46,5.91c-0.033,20.673-16.818,37.404-37.49,37.371
			s-37.404-16.818-37.372-37.49c0.033-20.673,16.818-37.404,37.49-37.371C90.17,309.393,105.815,322.779,108.69,340.944z"/>
	</g>
	<path style="fill:#083863;" d="M50.94,168.444c-15.172,0-27.99-13.327-27.99-29.1c0-5.523,4.477-10,10-10s10,4.477,10,10
		c0,4.678,3.882,9.1,7.99,9.1c4.606,0,8.08-3.22,8.08-7.49c0-4.335-3.348-7.48-7.96-7.48c-5.523,0-10-4.477-10-10v-81.59
		c0-5.523,4.477-10,10-10s10,4.477,10,10v73.336c10.836,3.904,18.033,14.216,17.96,25.734
		C79.02,156.368,66.686,168.444,50.94,168.444z"/>
</g>
<g>
</g>
<g>
</g>
<g>
</g>
<g>
</g>
<g>
</g>
<g>
</g>
<g>
</g>
<g>
</g>
<g>
</g>
<g>
</g>
<g>
</g>
<g>
</g>
<g>
</g>
<g>
</g>
<g>
</g>
</svg>
