<?xml version="1.0" encoding="iso-8859-1"?>
<!-- Generator: Adobe Illustrator 19.0.0, SVG Export Plug-In . SVG Version: 6.00 Build 0)  -->
<svg version="1.1" id="Capa_1" xmlns="http://www.w3.org/2000/svg" xmlns:xlink="http://www.w3.org/1999/xlink" x="0px" y="0px"
	 viewBox="0 0 460.94 460.94" style="enable-background:new 0 0 460.94 460.94;" xml:space="preserve">
<g>
	<g>
		<path style="fill:#D4E1F4;" d="M400.65,99.18v330.44c-0.002,17.297-14.023,31.318-31.32,31.32H91.61
			c-17.297-0.002-31.318-14.023-31.32-31.32V99.18c0.006-17.295,14.025-31.314,31.32-31.32h56.38v33.93h164.44V67.86h56.9
			C386.625,67.866,400.645,81.885,400.65,99.18z"/>
		<path style="fill:#00ACEA;" d="M312.43,67.86v33.93H147.99V52.2c0.001-11.531,9.349-20.879,20.88-20.88h22.45
			C195.5,13.57,210.63,0,229.95,0c18.685-0.071,34.836,13.024,38.63,31.32h22.97c11.531,0.001,20.879,9.349,20.88,20.88V67.86z"/>
	</g>
	<g>
		<path style="fill:#00ACEA;" d="M241.95,364.45H125.02c-5.523,0-10-4.477-10-10s4.477-10,10-10h116.93c5.523,0,10,4.477,10,10
			S247.473,364.45,241.95,364.45z"/>
		<path style="fill:#00ACEA;" d="M335.92,406.21h-210.9c-5.523,0-10-4.477-10-10s4.477-10,10-10h210.9c5.523,0,10,4.477,10,10
			S341.443,406.21,335.92,406.21z"/>
	</g>
</g>
<g>
	<path style="fill:#00ACEA;" d="M335.43,274.92c0,0.77-0.03,1.52-0.1,2.27c-1.247,15.298-14.659,26.689-29.957,25.442
		c-13.529-1.103-24.282-11.817-25.434-25.342c-0.077-0.788-0.114-1.579-0.11-2.37c0-15.354,12.446-27.8,27.8-27.8
		C322.984,247.12,335.43,259.567,335.43,274.92z"/>
</g>
<g>
	<path style="fill:#00EFD1;" d="M279.48,277.32H178.02l-0.45-0.03c0.077-0.788,0.114-1.579,0.11-2.37
		c0-15.356-12.449-27.805-27.805-27.805c-15.356,0-27.805,12.449-27.805,27.805c-0.004,0.801,0.033,1.602,0.11,2.4h-9.03
		c-11.371-0.001-20.589-9.219-20.59-20.59v-17.4c-0.001-9.282,6.207-17.419,15.16-19.87l47.65-13.02l28.49-37.4
		c5.191-6.819,13.27-10.821,21.84-10.82h79.52c9.458-0.004,18.251,4.863,23.27,12.88l22.14,35.34l25.68,11.68
		c7.352,3.342,12.072,10.674,12.07,18.75v19.86c-0.001,11.371-9.219,20.589-20.59,20.59h-10.64l-1.82-0.13
		c0.07-0.75,0.1-1.5,0.1-2.27c0-15.354-12.446-27.8-27.8-27.8c-15.354,0-27.8,12.446-27.8,27.8c-0.004,0.791,0.033,1.582,0.11,2.37
		L279.48,277.32z"/>
</g>
<g>
	<path style="fill:#00ACEA;" d="M122.18,277.32c-0.077-0.798-0.114-1.599-0.11-2.4c0-15.356,12.449-27.805,27.805-27.805
		c15.356,0,27.805,12.449,27.805,27.805c0.004,0.791-0.033,1.582-0.11,2.37c-1.325,15.296-14.799,26.622-30.095,25.297
		C134.027,301.423,123.359,290.767,122.18,277.32z"/>
</g>
<g>
</g>
<g>
</g>
<g>
</g>
<g>
</g>
<g>
</g>
<g>
</g>
<g>
</g>
<g>
</g>
<g>
</g>
<g>
</g>
<g>
</g>
<g>
</g>
<g>
</g>
<g>
</g>
<g>
</g>
</svg>
