<?xml version="1.0" encoding="iso-8859-1"?>
<!-- Generator: Adobe Illustrator 19.0.0, SVG Export Plug-In . SVG Version: 6.00 Build 0)  -->
<svg version="1.1" id="Capa_1" xmlns="http://www.w3.org/2000/svg" xmlns:xlink="http://www.w3.org/1999/xlink" x="0px" y="0px"
	 viewBox="0 0 415.36 415.36" style="enable-background:new 0 0 415.36 415.36;" xml:space="preserve">
<g>
	<g>
		<path style="fill:#00EFD1;" d="M415.36,312.541v28.82c-0.002,16.502-13.378,29.878-29.88,29.88h-16.44l-1.63-0.14
			c0.09-1.1,0.14-2.22,0.14-3.35c-0.009-22.279-18.077-40.333-40.356-40.324c-22.267,0.009-40.316,18.057-40.324,40.324
			c0,1.16,0.05,2.3,0.15,3.43l-0.65,0.06H124.01l-0.65-0.06c0.1-1.13,0.15-2.27,0.15-3.43c0-22.279-18.061-40.34-40.34-40.34
			s-40.34,18.061-40.34,40.34l0,0c0,1.18,0.05,2.34,0.15,3.49h-13.1C13.378,371.239,0.002,357.862,0,341.361v-25.25
			c0.003-13.468,9.011-25.272,22-28.83l69.14-18.88l32.37-42.51l0.57-1.04c3.814,3.476,8.79,5.398,13.95,5.39h139.3
			c11.46,0,20.75-9.29,20.75-20.75l0,0v-10.8h1.26c11.995,1.414,22.703,8.187,29.12,18.42l32.12,51.29l37.27,16.94
			C408.516,290.189,415.362,300.825,415.36,312.541z"/>
		<g>
			<path style="fill:#D4E1F4;" d="M367.55,367.751c0,1.13-0.05,2.25-0.14,3.35c-1.845,22.201-21.339,38.702-43.54,36.857
				c-19.609-1.63-35.181-17.171-36.85-36.777c-0.1-1.13-0.15-2.27-0.15-3.43c0.009-22.279,18.077-40.333,40.356-40.324
				C349.493,327.435,367.541,345.484,367.55,367.751L367.55,367.751z"/>
			<path style="fill:#D4E1F4;" d="M298.08,198.691v10.8c0,11.46-9.29,20.75-20.75,20.75l0,0h-139.3
				c-11.459-0.001-20.749-9.291-20.75-20.75V28.011c0-11.46,9.29-20.75,20.75-20.75h87.73v58.93
				c-0.003,5.73,4.64,10.377,10.37,10.38h61.95V198.691z"/>
		</g>
		<path style="fill:#00ACEA;" d="M298.08,74.161v2.41h-61.95c-5.73-0.003-10.373-4.65-10.37-10.38V7.261h1.51L298.08,74.161z"/>
		<path style="fill:#D4E1F4;" d="M42.98,371.241c-0.1-1.15-0.15-2.31-0.15-3.49c0-22.279,18.061-40.34,40.34-40.34
			s40.34,18.061,40.34,40.34l0,0c0,1.16-0.05,2.3-0.15,3.43c-1.89,22.198-21.417,38.66-43.615,36.77
			C60.192,406.286,44.674,390.792,42.98,371.241z"/>
	</g>
	<g>
		<path style="fill:#00ACEA;" d="M254.56,164.911h-96.77c-5.523,0-10-4.477-10-10s4.477-10,10-10h96.77c5.523,0,10,4.477,10,10
			S260.083,164.911,254.56,164.911z"/>
		<path style="fill:#00ACEA;" d="M198.98,128.751h-41.19c-5.523,0-10-4.477-10-10s4.477-10,10-10h41.19c5.523,0,10,4.477,10,10
			S204.503,128.751,198.98,128.751z"/>
		<path style="fill:#00ACEA;" d="M254.56,201.071h-96.77c-5.523,0-10-4.477-10-10s4.477-10,10-10h96.77c5.523,0,10,4.477,10,10
			S260.083,201.071,254.56,201.071z"/>
	</g>
</g>
<g>
</g>
<g>
</g>
<g>
</g>
<g>
</g>
<g>
</g>
<g>
</g>
<g>
</g>
<g>
</g>
<g>
</g>
<g>
</g>
<g>
</g>
<g>
</g>
<g>
</g>
<g>
</g>
<g>
</g>
</svg>
