<?xml version="1.0" encoding="iso-8859-1"?>
<!-- Generator: Adobe Illustrator 19.0.0, SVG Export Plug-In . SVG Version: 6.00 Build 0)  -->
<svg version="1.1" id="Capa_1" xmlns="http://www.w3.org/2000/svg" xmlns:xlink="http://www.w3.org/1999/xlink" x="0px" y="0px"
	 viewBox="0 0 424.85 424.85" style="enable-background:new 0 0 424.85 424.85;" xml:space="preserve">
<g>
	<path style="fill:#00EFD1;" d="M424.85,102.495v24.93c-0.004,14.275-11.575,25.846-25.85,25.85h-13.35l-2.27-0.2
		c0.07-0.93,0.11-1.87,0.11-2.82c0-19.269-15.621-34.89-34.89-34.89c-19.269,0-34.89,15.621-34.89,34.89l0,0
		c0,1,0.04,1.99,0.13,2.97l-0.56,0.05H172.85l-0.56-0.05c0.09-0.98,0.13-1.97,0.13-2.97c-0.326-19.272-16.214-34.63-35.486-34.304
		c-18.812,0.319-33.985,15.492-34.304,34.304c0,1.02,0.04,2.03,0.13,3.02H91.43c-14.275-0.004-25.846-11.575-25.85-25.85v-21.84
		c0.002-11.652,7.8-21.861,19.04-24.93l59.8-16.34l35.74-46.94c6.519-8.559,16.661-13.582,27.42-13.58h112.9
		c11.869,0,22.902,6.11,29.2,16.17l27.78,44.35l32.24,14.65C418.923,83.164,424.844,92.361,424.85,102.495z"/>
	<path style="fill:#00ACEA;" d="M395.77,217.845c9.507,9.151,9.86,24.255,0.79,33.84l-93.85,97.69
		c-5.539,5.538-12.963,8.784-20.79,9.09l-158.39,5.37l-51.71,57.22L0,335.695l106.24-103.25c4.811-4.016,10.639-6.622,16.84-7.53
		l113.38-17.95c12.501-2.196,24.534,5.774,27.39,18.14c2.72,12.13-4.12,24.84-16.33,28.5l-66.02,20.27l23.38,31.1l80.96-11.8
		c0,0,48.09-48.51,74.76-75.62c9.561-9.583,25.053-9.686,34.74-0.23L395.77,217.845z"/>
	<g>
		<path style="fill:#D4E1F4;" d="M383.49,150.255c0,0.95-0.04,1.89-0.11,2.82c-1.555,19.206-18.385,33.516-37.591,31.961
			c-16.991-1.375-30.5-14.827-31.949-31.811c-0.09-0.98-0.13-1.97-0.13-2.97c0-19.269,15.621-34.89,34.89-34.89
			C367.869,115.365,383.49,130.986,383.49,150.255z"/>
		<path style="fill:#D4E1F4;" d="M102.76,153.275c-0.09-0.99-0.13-2-0.13-3.02c0.326-19.272,16.214-34.63,35.486-34.304
			c18.812,0.319,33.985,15.492,34.304,34.304c0,1-0.04,1.99-0.13,2.97c-1.642,19.201-18.538,33.436-37.74,31.795
			C117.645,183.574,104.23,170.178,102.76,153.275L102.76,153.275z"/>
	</g>
</g>
<g>
</g>
<g>
</g>
<g>
</g>
<g>
</g>
<g>
</g>
<g>
</g>
<g>
</g>
<g>
</g>
<g>
</g>
<g>
</g>
<g>
</g>
<g>
</g>
<g>
</g>
<g>
</g>
<g>
</g>
</svg>
