<?xml version="1.0" encoding="iso-8859-1"?>
<!-- Generator: Adobe Illustrator 19.0.0, SVG Export Plug-In . SVG Version: 6.00 Build 0)  -->
<svg version="1.1" id="Capa_1" xmlns="http://www.w3.org/2000/svg" xmlns:xlink="http://www.w3.org/1999/xlink" x="0px" y="0px"
	 viewBox="0 0 483.48 483.48" style="enable-background:new 0 0 483.48 483.48;" xml:space="preserve">
<g>
	<g>
		<path style="fill:#00EFD1;" d="M483.48,259.94v75.78c-0.004,8.596-6.974,15.562-15.57,15.56h-23.28
			c-3.694-22.649-25.05-38.015-47.699-34.321c-17.627,2.875-31.445,16.693-34.321,34.321h-31.29V231.17h108.99l33.74,14.47
			C479.768,248.094,483.476,253.717,483.48,259.94z"/>
		<g>
			<path style="fill:#D4E1F4;" d="M362.61,351.28c3.694-22.649,25.05-38.015,47.699-34.321
				c17.627,2.875,31.445,16.693,34.321,34.321c0.362,2.208,0.543,4.442,0.54,6.68c0,22.947-18.603,41.55-41.55,41.55
				c-22.947,0-41.55-18.603-41.55-41.55C362.067,355.722,362.248,353.488,362.61,351.28z"/>
			<path style="fill:#D4E1F4;" d="M408.51,169.45l31.8,61.72H331.32v-54.59c0.003-8.592,6.968-15.557,15.56-15.56h47.79
				C400.497,161.022,405.835,164.274,408.51,169.45z"/>
		</g>
		<g>
			<path style="fill:#00CEB4;" d="M331.32,267.82v83.46H149.78c-3.697-22.65-25.055-38.014-47.705-34.317
				c-17.687,2.887-31.531,16.788-34.345,34.487l-1.04-0.17H39.47c-8.592-0.003-15.557-6.968-15.56-15.56v-52.34
				c0.003-8.592,6.968-15.557,15.56-15.56L331.32,267.82L331.32,267.82z"/>
			<path style="fill:#00CEB4;" d="M276.62,164.57v17.29c0.004,11.301-9.153,20.466-20.454,20.47c-0.002,0-0.004,0-0.006,0h-8.98
				c0.077-0.794,0.113-1.592,0.11-2.39c-0.006-15.26-12.381-27.625-27.641-27.619c-15.251,0.006-27.613,12.368-27.619,27.619
				c-0.004,0.788,0.033,1.576,0.11,2.36l-0.45,0.03H90.87l-0.45-0.03c0.077-0.784,0.114-1.572,0.11-2.36
				c-0.002-15.26-12.374-27.628-27.634-27.626c-15.256,0.002-27.624,12.369-27.626,27.626c0,0.76,0.03,1.51,0.1,2.26l-1.81,0.13
				H22.99c-11.305,0-20.47-9.165-20.47-20.47l0,0v-19.73c0-8.028,4.692-15.316,12-18.64l25.52-11.6l22-35.12
				c4.992-7.964,13.731-12.8,23.13-12.8h79.02c8.514,0.004,16.539,3.979,21.7,10.75l28.31,37.17l47.35,12.94
				C270.448,147.261,276.62,155.346,276.62,164.57z"/>
		</g>
		<g>
			<path style="fill:#D4E1F4;" d="M247.18,202.33c-1.318,15.198-14.707,26.45-29.905,25.132
				c-13.382-1.16-23.989-11.779-25.135-25.162c-0.077-0.784-0.114-1.572-0.11-2.36c0.006-15.26,12.381-27.625,27.641-27.619
				c15.251,0.006,27.613,12.368,27.619,27.619C247.293,200.738,247.257,201.536,247.18,202.33z"/>
			<path style="fill:#D4E1F4;" d="M149.78,351.28c0.362,2.208,0.543,4.442,0.54,6.68c-0.002,22.94-18.6,41.534-41.54,41.532
				c-22.94-0.002-41.534-18.6-41.532-41.54s18.6-41.534,41.54-41.532C129.15,316.422,146.507,331.183,149.78,351.28z"/>
			<path style="fill:#D4E1F4;" d="M90.53,199.94c0.004,0.788-0.033,1.576-0.11,2.36c-1.298,15.199-14.672,26.469-29.871,25.17
				c-13.437-1.148-24.08-11.83-25.179-25.27c-0.07-0.75-0.1-1.5-0.1-2.26c0.002-15.26,12.374-27.628,27.634-27.626
				C78.161,172.316,90.528,184.684,90.53,199.94z"/>
		</g>
	</g>
	<path style="fill:#00ACEA;" d="M305,252.74H10c-5.523,0-10-4.477-10-10s4.477-10,10-10h285v-32c0-5.523,4.477-10,10-10
		s10,4.477,10,10v42C315,248.263,310.523,252.74,305,252.74z"/>
</g>
<g>
</g>
<g>
</g>
<g>
</g>
<g>
</g>
<g>
</g>
<g>
</g>
<g>
</g>
<g>
</g>
<g>
</g>
<g>
</g>
<g>
</g>
<g>
</g>
<g>
</g>
<g>
</g>
<g>
</g>
</svg>
