<?xml version="1.0" encoding="iso-8859-1"?>
<!-- Generator: Adobe Illustrator 19.0.0, SVG Export Plug-In . SVG Version: 6.00 Build 0)  -->
<svg version="1.1" id="Capa_1" xmlns="http://www.w3.org/2000/svg" xmlns:xlink="http://www.w3.org/1999/xlink" x="0px" y="0px"
	 viewBox="0 0 435.36 435.36" style="enable-background:new 0 0 435.36 435.36;" xml:space="preserve">
<g>
	<path style="fill:#00CEB4;" d="M425.18,174.433c-4.305-0.001-8.126-2.757-9.486-6.841l-2.565-7.7
		C394.317,108.1,345.082,73.636,289.98,73.69h-18.79c-5.523,0-10-4.477-10-10s4.477-10,10-10h18.79
		c63.559-0.052,120.336,39.731,141.986,99.49c0.031,0.087,0.062,0.174,0.091,0.262l2.61,7.83c1.744,5.245-1.095,10.91-6.34,12.654
		c-1.015,0.337-2.078,0.51-3.148,0.511L425.18,174.433z"/>
	<rect x="147.21" y="53.69" style="fill:#00CEB4;" width="68.38" height="20"/>
	<path style="fill:#00CEB4;" d="M240.39,147.81c-5.523,0-10-4.477-10-10v-30.28c0-5.523,4.477-10,10-10s10,4.477,10,10v30.28
		C250.39,143.333,245.913,147.81,240.39,147.81z"/>
</g>
<g>
	<path style="fill:#00EFD1;" d="M321.83,363.32v51.16c-0.002,11.534-9.354,20.882-20.888,20.88c-0.001,0-0.001,0-0.002,0H180.88
		c-11.531-0.001-20.879-9.349-20.88-20.88v-51.16H321.83z"/>
</g>
<g>
	<polygon style="fill:#D4E1F4;" points="321.83,261.01 321.83,363.32 319.74,363.32 160,363.32 160,261.01 319.74,261.01 	"/>
</g>
<g>
	<path style="fill:#00EFD1;" d="M321.83,221.33v39.68H160v-39.68c0-44.688,36.227-80.915,80.915-80.915
		S321.83,176.642,321.83,221.33L321.83,221.33z"/>
</g>
<g>
	<polygon style="fill:#00ACEA;" points="271.19,63.69 271.19,107.53 240.39,107.53 209.59,107.53 209.59,63.69 209.59,25.06 
		271.19,25.06 	"/>
</g>
<g>
	<path style="fill:#D4E1F4;" d="M155.21,63.69v0.05c0,13.807-9.307,25.879-22.66,29.39L0.18,127.89V0l132.28,34.3
		C145.856,37.766,155.212,49.853,155.21,63.69z"/>
</g>
<g>
</g>
<g>
</g>
<g>
</g>
<g>
</g>
<g>
</g>
<g>
</g>
<g>
</g>
<g>
</g>
<g>
</g>
<g>
</g>
<g>
</g>
<g>
</g>
<g>
</g>
<g>
</g>
<g>
</g>
</svg>
