<?xml version="1.0" encoding="iso-8859-1"?>
<!-- Generator: Adobe Illustrator 19.0.0, SVG Export Plug-In . SVG Version: 6.00 Build 0)  -->
<svg version="1.1" id="Capa_1" xmlns="http://www.w3.org/2000/svg" xmlns:xlink="http://www.w3.org/1999/xlink" x="0px" y="0px"
	 viewBox="0 0 423.261 423.261" style="enable-background:new 0 0 423.261 423.261;" xml:space="preserve">
<g>
	<g>
		<g>
			<path style="fill:#D4E1F4;" d="M405.811,350.511v48.09c0.001,13.619-11.039,24.659-24.658,24.66c-0.001,0-0.001,0-0.002,0h-20.55
				c-13.619,0.001-24.659-11.039-24.66-24.658c0-0.001,0-0.001,0-0.002v-23.43h45.21c13.619,0.001,24.659-11.039,24.66-24.658
				C405.811,350.513,405.811,350.512,405.811,350.511z"/>
			<path style="fill:#D4E1F4;" d="M357.301,186.821l27.55,64.18h-36.58c-0.011-25.195-20.444-45.611-45.639-45.601
				c-25.18,0.011-45.59,20.421-45.601,45.601H83.191l14.75-34.37v-0.01c46.221,12.957,95.518-5.42,121.98-45.47l0.61,0.4h113.59
				C344.205,171.55,353.321,177.555,357.301,186.821z"/>
			<path style="fill:#D4E1F4;" d="M348.271,251.001h-91.24c0.011-25.195,20.444-45.611,45.639-45.601
				C327.85,205.411,348.26,225.821,348.271,251.001L348.271,251.001z"/>
		</g>
		<path style="fill:#00ACEA;" d="M238.161,110.361c-0.003,60.947-49.413,110.353-110.36,110.35
			c-60.947-0.003-110.353-49.413-110.35-110.36S66.863-0.001,127.811,0.001l0,0c60.651-0.294,110.056,48.635,110.35,109.285
			C238.162,109.645,238.162,110.003,238.161,110.361z"/>
		<path style="fill:#D4E1F4;" d="M127.161,375.581v23.02c0.001,13.619-11.039,24.659-24.658,24.66c-0.001,0-0.001,0-0.002,0h-20.55
			c-13.619,0.001-24.659-11.039-24.66-24.658c0-0.001,0-0.001,0-0.002v-48.09c-0.001,13.619,11.039,24.659,24.658,24.66
			c0.001,0,0.001,0,0.002,0h45.21V375.581z"/>
	</g>
	<path style="fill:#00ACEA;" d="M358.271,251.001h-20c-0.009-19.672-15.963-35.613-35.636-35.604
		c-19.66,0.009-35.595,15.944-35.604,35.604h-20c0.011-30.718,24.921-55.611,55.639-55.601
		C333.373,195.411,358.26,220.298,358.271,251.001z"/>
</g>
<g>
	<polygon style="fill:#D4E1F4;" points="182.551,65.151 53.981,96.251 104.291,124.431 116.731,180.771 184.781,64.611 	"/>
</g>
<g>
	<path style="fill:#00EFD1;" d="M405.811,346.351v6.16c0.001,13.619-11.039,24.659-24.658,24.66c-0.001,0-0.001,0-0.002,0h-299.2
		c-13.619,0.001-24.659-11.039-24.66-24.658c0-0.001,0-0.001,0-0.002v-61.37c0-10.865,4.776-21.18,13.06-28.21l14.07-11.93h299.2
		v0.41l10.6,10.01c7.397,6.988,11.589,16.714,11.59,26.89L405.811,346.351z"/>
</g>
<g>
	<path style="fill:#00ACEA;" d="M269.161,346.211h-75.21c-5.523,0-10-4.477-10-10s4.477-10,10-10h75.21c5.523,0,10,4.477,10,10
		S274.684,346.211,269.161,346.211z"/>
</g>
<g>
	<path style="fill:#00ACEA;" d="M269.161,316.071h-75.21c-5.523,0-10-4.477-10-10s4.477-10,10-10h75.21c5.523,0,10,4.477,10,10
		S274.684,316.071,269.161,316.071z"/>
</g>
<g>
	<rect x="310.871" y="297.851" style="fill:#D4E1F4;" width="58.78" height="40.28"/>
</g>
<g>
	<rect x="93.461" y="297.851" style="fill:#D4E1F4;" width="58.77" height="40.28"/>
</g>
<g>
</g>
<g>
</g>
<g>
</g>
<g>
</g>
<g>
</g>
<g>
</g>
<g>
</g>
<g>
</g>
<g>
</g>
<g>
</g>
<g>
</g>
<g>
</g>
<g>
</g>
<g>
</g>
<g>
</g>
</svg>
