<?xml version="1.0" encoding="iso-8859-1"?>
<!-- Generator: Adobe Illustrator 19.0.0, SVG Export Plug-In . SVG Version: 6.00 Build 0)  -->
<svg version="1.1" id="Capa_1" xmlns="http://www.w3.org/2000/svg" xmlns:xlink="http://www.w3.org/1999/xlink" x="0px" y="0px"
	 viewBox="0 0 460.94 460.94" style="enable-background:new 0 0 460.94 460.94;" xml:space="preserve">
<g>
	<g>
		<path style="fill:#D4E1F4;" d="M400.65,99.18v330.44c-0.002,17.297-14.023,31.318-31.32,31.32H91.61
			c-17.297-0.002-31.318-14.023-31.32-31.32V99.18c0.006-17.295,14.025-31.314,31.32-31.32h56.38v33.93h164.44V67.86h56.9
			C386.625,67.866,400.645,81.885,400.65,99.18z"/>
		<path style="fill:#00ACEA;" d="M312.43,67.86v33.93H147.99V52.2c0.001-11.531,9.349-20.879,20.88-20.88h22.45
			C195.5,13.57,210.63,0,229.95,0c18.685-0.071,34.836,13.024,38.63,31.32h22.97c11.531,0.001,20.879,9.349,20.88,20.88V67.86z"/>
	</g>
	<g>
		<path style="fill:#00ACEA;" d="M241.95,369.67H125.02c-5.523,0-10-4.477-10-10s4.477-10,10-10h116.93c5.523,0,10,4.477,10,10
			S247.473,369.67,241.95,369.67z"/>
		<path style="fill:#00ACEA;" d="M335.92,411.43h-210.9c-5.523,0-10-4.477-10-10s4.477-10,10-10h210.9c5.523,0,10,4.477,10,10
			S341.443,411.43,335.92,411.43z"/>
	</g>
</g>
<g>
	<path style="fill:#00ACEA;" d="M339.64,269.85v30.12c0.002,8.531-6.913,15.448-15.444,15.45c-0.002,0-0.004,0-0.006,0h-12.87
		c-8.531,0.002-15.448-6.913-15.45-15.444c0-0.002,0-0.004,0-0.006V285.3h28.32C332.722,285.298,339.638,278.382,339.64,269.85z"/>
</g>
<g>
	<path style="fill:#00EFD1;" d="M339.64,265.99v3.86c-0.002,8.532-6.918,15.448-15.45,15.45H136.75
		c-8.532-0.002-15.448-6.918-15.45-15.45V231.4c-0.002-6.806,2.989-13.268,8.18-17.67l8.81-7.48h187.45v0.26l6.64,6.27
		c4.633,4.38,7.259,10.474,7.26,16.85V265.99z M311.76,260.84v-25.23h-31.6v25.23L311.76,260.84z M180.78,260.84v-25.23h-31.6v25.23
		L180.78,260.84z"/>
</g>
<g>
	<path style="fill:#00ACEA;" d="M309.25,166.05l17.26,40.2h-34.92c0.011-14.199-11.492-25.719-25.691-25.729
		c-14.199-0.011-25.719,11.492-25.729,25.691c0,0.013,0,0.026,0,0.038H137.52l17.26-40.2c2.494-5.804,8.203-9.567,14.52-9.57h125.43
		C301.047,156.483,306.756,160.246,309.25,166.05z"/>
</g>
<g>
	<path style="fill:#00ACEA;" d="M165.07,285.56v14.41c0.002,8.531-6.913,15.448-15.444,15.45c-0.002,0-0.004,0-0.006,0h-12.87
		c-8.531,0.002-15.448-6.913-15.45-15.444c0-0.002,0-0.004,0-0.006v-30.12c0.002,8.532,6.918,15.448,15.45,15.45h28.32V285.56z"/>
</g>
<g>
	<path style="fill:#00EFD1;" d="M301.59,206.25h-20c0-8.676-7.034-15.71-15.71-15.71c-8.676,0-15.71,7.034-15.71,15.71h-20
		c0-19.722,15.988-35.71,35.71-35.71C285.602,170.54,301.59,186.528,301.59,206.25z"/>
</g>
<g>
	<path style="fill:#00ACEA;" d="M248.81,261.19h-36.68c-5.523,0-10-4.477-10-10c0-5.523,4.477-10,10-10h36.68
		c5.523,0,10,4.477,10,10C258.81,256.713,254.333,261.19,248.81,261.19z"/>
</g>
<g>
</g>
<g>
</g>
<g>
</g>
<g>
</g>
<g>
</g>
<g>
</g>
<g>
</g>
<g>
</g>
<g>
</g>
<g>
</g>
<g>
</g>
<g>
</g>
<g>
</g>
<g>
</g>
<g>
</g>
</svg>
