<?xml version="1.0" encoding="iso-8859-1"?>
<!-- Generator: Adobe Illustrator 19.0.0, SVG Export Plug-In . SVG Version: 6.00 Build 0)  -->
<svg version="1.1" id="Capa_1" xmlns="http://www.w3.org/2000/svg" xmlns:xlink="http://www.w3.org/1999/xlink" x="0px" y="0px"
	 viewBox="0 0 418.344 418.344" style="enable-background:new 0 0 418.344 418.344;" xml:space="preserve">
<g>
	<path style="fill:#00CEB4;" d="M321.852,283.87l-29.76-64.06l-1.67-0.37c3.333-2.256,5.944-5.426,7.52-9.13l1.25,0.47h26.57
		c7.124,0.004,13.982,2.709,19.19,7.57l61.22,57.19c5.688,5.317,8.918,12.754,8.92,20.54v57.14
		c-0.003,15.523-12.587,28.107-28.11,28.11h-14.06l-0.13-0.01c0.09-1.08,0.13-2.17,0.13-3.27
		c-0.351-22.254-18.676-40.011-40.93-39.66c-21.76,0.343-39.317,17.9-39.66,39.66c0,1.1,0.04,2.19,0.13,3.27l-0.13,0.01h-58.09
		v-97.46H321.852z"/>
	<path style="fill:#D4E1F4;" d="M372.922,378.05c0,1.1-0.04,2.19-0.13,3.27c-1.82,22.182-21.278,38.689-43.461,36.869
		c-19.656-1.613-35.256-17.214-36.869-36.869c-0.09-1.08-0.13-2.17-0.13-3.27c0.351-22.254,18.676-40.011,40.93-39.66
		C355.022,338.733,372.579,356.29,372.922,378.05L372.922,378.05z"/>
	<path style="fill:#C1D1E5;" d="M292.092,219.81l29.76,64.06h-87.61v-60.89h44.58c4.133,0.005,8.174-1.228,11.6-3.54L292.092,219.81
		z"/>
	<path style="fill:#D4E1F4;" d="M299.572,69.3v132.93c0.006,11.454-9.274,20.744-20.728,20.75c-0.007,0-0.015,0-0.022,0h-139.3
		c-11.46,0-20.75-9.29-20.75-20.75l0,0V20.75c0-11.46,9.29-20.75,20.75-20.75h87.73v58.93c-0.002,5.725,4.637,10.368,10.362,10.37
		c0.003,0,0.005,0,0.008,0L299.572,69.3z"/>
	<path style="fill:#00ACEA;" d="M299.572,66.89v2.41h-61.95c-5.725,0.002-10.368-4.637-10.37-10.362c0-0.003,0-0.005,0-0.008V0h1.51
		L299.572,66.89z"/>
	<path style="fill:#00EFD1;" d="M234.242,283.87v97.46h-107.77l-0.13-0.01c0.09-1.08,0.13-2.17,0.13-3.27
		c-0.001-22.252-18.041-40.289-40.292-40.288c-22.25,0.001-40.286,18.038-40.288,40.288c0,1.1,0.04,2.19,0.13,3.27l-0.13,0.01
		h-14.53c-15.523-0.003-28.107-12.587-28.11-28.11v-22.49c-0.001-25.877,20.973-46.856,46.85-46.86h46.38
		c1.093,0.004,2.185-0.063,3.27-0.2l0.02,0.2H234.242z"/>
	<g>
		<path style="fill:#D4E1F4;" d="M126.472,378.05c0,1.1-0.04,2.19-0.13,3.27c-1.807,22.18-21.251,38.695-43.431,36.889
			c-19.671-1.602-35.287-17.218-36.889-36.889c-0.09-1.08-0.13-2.17-0.13-3.27c0.001-22.252,18.041-40.289,40.292-40.288
			C108.434,337.764,126.471,355.8,126.472,378.05z"/>
		<path style="fill:#D4E1F4;" d="M99.752,283.67c6.6-0.762,12.714-3.845,17.25-8.7l48.45-51.99h68.79v60.89H99.772L99.752,283.67z"
			/>
	</g>
</g>
<g>
	<path style="fill:#00ACEA;" d="M265.672,135.04v13.56c0,2.1-2.65,3.9-4.72,4.25l-8.51,1.23c-0.948,3.383-2.283,6.644-3.98,9.72
		l4.39,6.2c1.209,1.723,1.011,4.064-0.47,5.56l-9.65,9.7c-1.454,1.508-3.78,1.756-5.52,0.59l-6.09-4.06
		c-3.061,1.829-6.314,3.315-9.7,4.43l-1.23,8.13c-0.35,2.07-2.14,5.32-4.24,5.32h-13.56c-2.1,0-3.9-3.25-4.25-5.32l-1.23-9
		c-3.384-0.952-6.649-2.287-9.73-3.98l-6.07,4.26c-1.72,1.211-4.063,1.009-5.55-0.48l-9.7-9.64c-1.505-1.456-1.75-3.783-0.58-5.52
		l4.08-6.09c-1.823-3.061-3.302-6.314-4.41-9.7l-8.07-1.23c-2.07-0.35-5.21-2.14-5.21-4.24v-13.56c0-2.1,3.14-3.9,5.21-4.24
		l8.89-1.23c0.95-3.385,2.285-6.65,3.98-9.73l-4.26-6.07c-1.204-1.717-1.006-4.05,0.47-5.54l9.65-9.68
		c1.468-1.49,3.791-1.717,5.52-0.54l6.09,4.15c3.065-1.774,6.318-3.2,9.7-4.25l1.23-7.77c0.35-2.07,2.14-4.6,4.24-4.6h13.56
		c2.1,0,3.9,2.53,4.25,4.6l1.22,8.28c3.378,0.943,6.636,2.272,9.71,3.96l6.06-4.35c1.719-1.225,4.07-1.035,5.57,0.45l9.69,9.65
		c1.495,1.466,1.722,3.792,0.54,5.52l-4.13,6.09c1.784,3.064,3.219,6.317,4.28,9.7l7.82,1.23
		C263.032,131.15,265.672,132.94,265.672,135.04z M238.612,141.82c0-16.259-13.181-29.44-29.44-29.44s-29.44,13.181-29.44,29.44
		s13.181,29.44,29.44,29.44C225.423,171.239,238.591,158.071,238.612,141.82z"/>
</g>
<g>
	<ellipse style="fill:#00ACEA;" cx="209.172" cy="141.82" rx="18.45" ry="18.46"/>
</g>
<g>
</g>
<g>
</g>
<g>
</g>
<g>
</g>
<g>
</g>
<g>
</g>
<g>
</g>
<g>
</g>
<g>
</g>
<g>
</g>
<g>
</g>
<g>
</g>
<g>
</g>
<g>
</g>
<g>
</g>
</svg>
