<?xml version="1.0" encoding="iso-8859-1"?>
<!-- Generator: Adobe Illustrator 19.0.0, SVG Export Plug-In . SVG Version: 6.00 Build 0)  -->
<svg version="1.1" id="Capa_1" xmlns="http://www.w3.org/2000/svg" xmlns:xlink="http://www.w3.org/1999/xlink" x="0px" y="0px"
	 viewBox="0 0 431.42 431.42" style="enable-background:new 0 0 431.42 431.42;" xml:space="preserve">
<g>
	<g>
		<path style="fill:#00ACEA;" d="M431.42,201.15v31.12c0.001,8.592-6.964,15.559-15.556,15.56c-0.001,0-0.003,0-0.004,0h-33.8
			v-62.24h33.8c8.592-0.001,15.559,6.964,15.56,15.556C431.42,201.147,431.42,201.149,431.42,201.15z"/>
		<path style="fill:#D4E1F4;" d="M382.06,185.59v21.53l-205.48-0.94c-0.234-23.3-19.312-41.998-42.612-41.764
			c-22.818,0.229-41.318,18.559-41.758,41.374l-42.85-0.2V86.29l332.7,1.52V185.59z"/>
		<path style="fill:#00EFD1;" d="M382.06,66.92v20.89l-332.7-1.52V65.68c-0.004-17.189,13.927-31.126,31.116-31.13
			c0.048,0,0.096,0,0.144,0l270.46,1.24C368.215,35.871,382.062,49.785,382.06,66.92z"/>
		<path style="fill:#00ACEA;" d="M361.31,351.88v29.43c0.001,8.592-6.964,15.559-15.556,15.56c-0.001,0-0.003,0-0.004,0h-33.49
			c-8.596,0.002-15.566-6.964-15.57-15.56V352.4h54.25c3.394,0.002,6.765-0.552,9.98-1.64L361.31,351.88z"/>
		<path style="fill:#D4E1F4;" d="M176.58,206.18l-84.37-0.39c0.45-23.297,19.7-41.817,42.997-41.368
			C158.021,164.863,176.35,183.363,176.58,206.18z"/>
		<g>
			<path style="fill:#00ACEA;" d="M134.73,352.78v28.53c-0.004,8.596-6.974,15.562-15.57,15.56H85.67
				c-8.592,0.001-15.559-6.964-15.56-15.556c0-0.001,0-0.003,0-0.004v-29.3l0.39-1.25c3.215,1.088,6.586,1.642,9.98,1.64h54.25
				V352.78z"/>
			<path style="fill:#00ACEA;" d="M49.36,205.59v42.24h-33.8C6.968,247.831,0.001,240.867,0,232.274c0-0.001,0-0.003,0-0.004v-31.12
				c-0.001-8.592,6.964-15.559,15.556-15.56c0.001,0,0.003,0,0.004,0h33.8L49.36,205.59z"/>
		</g>
	</g>
	<path style="fill:#00ACEA;" d="M186.58,206.58h-20v-0.4c-0.217-17.777-14.804-32.011-32.581-31.794
		c-17.39,0.213-31.467,14.2-31.791,31.588c0,0.063,0,0.129,0,0.192c0,0.136,0,0.278,0,0.414h-20c0-0.347,0-0.707,0.013-1.057
		c0.582-28.818,24.416-51.707,53.234-51.125c28.215,0.57,50.866,23.466,51.133,51.686L186.58,206.58z"/>
</g>
<g>
	<path style="fill:#00EFD1;" d="M176.58,206.18l205.48,0.94v116.15c0.013,17.18-13.904,31.117-31.084,31.13
		c-0.012,0-0.024,0-0.036,0H80.48c-17.18,0.007-31.113-13.914-31.12-31.094c0-0.012,0-0.024,0-0.036V205.59l42.85,0.2L176.58,206.18
		z M348.61,302.72v-37.25h-54.35v37.25H348.61z M137.16,302.72v-37.25H82.81v37.25H137.16z"/>
</g>
<g>
	<rect x="294.26" y="265.47" style="fill:#D4E1F4;" width="54.35" height="37.25"/>
</g>
<g>
	<rect x="82.81" y="265.47" style="fill:#D4E1F4;" width="54.35" height="37.25"/>
</g>
<g>
	<path style="fill:#00ACEA;" d="M255.68,310.95h-79.94c-5.523,0-10-4.477-10-10s4.477-10,10-10h79.94c5.523,0,10,4.477,10,10
		S261.203,310.95,255.68,310.95z"/>
</g>
<g>
	<path style="fill:#00ACEA;" d="M255.68,283.07h-79.94c-5.523,0-10-4.477-10-10s4.477-10,10-10h79.94c5.523,0,10,4.477,10,10
		S261.203,283.07,255.68,283.07z"/>
</g>
<g>
</g>
<g>
</g>
<g>
</g>
<g>
</g>
<g>
</g>
<g>
</g>
<g>
</g>
<g>
</g>
<g>
</g>
<g>
</g>
<g>
</g>
<g>
</g>
<g>
</g>
<g>
</g>
<g>
</g>
</svg>
